^C:\DEV\__REPOSITORY__\_h3era_Plugins_\Amethyst2\amethyst\amethyst.vcxproj
C:\DEV\__REPOSITORY__\_h3era_Plugins_\Amethyst2\Release\amethyst2.3.lib
C:\DEV\__REPOSITORY__\_h3era_Plugins_\Amethyst2\Release\amethyst2.3.exp
^C:\DEV\__REPOSITORY__\_h3era_Plugins_\Amethyst2\amethyst\amethyst.vcxproj
C:\DEV\__REPOSITORY__\_h3era_Plugins_\Amethyst2\Release\amethyst2.3.lib
C:\DEV\__REPOSITORY__\_h3era_Plugins_\Amethyst2\Release\amethyst2.3.exp
^C:\DEV\__REPOSITORY__\_h3era_Plugins_\Amethyst2\amethyst\amethyst.vcxproj
C:\DEV\__REPOSITORY__\_h3era_Plugins_\Amethyst2\Release\amethyst2.3.lib
C:\DEV\__REPOSITORY__\_h3era_Plugins_\Amethyst2\Release\amethyst2.3.exp
^C:\DEV\__REPOSITORY__\_h3era_Plugins_\Amethyst2\amethyst\amethyst.vcxproj
C:\DEV\__REPOSITORY__\_h3era_Plugins_\Amethyst2\Release\amethyst2.3.lib
C:\DEV\__REPOSITORY__\_h3era_Plugins_\Amethyst2\Release\amethyst2.3.exp
^C:\DEV\__REPOSITORY__\_h3era_Plugins_\Amethyst2\amethyst\amethyst.vcxproj
C:\DEV\__REPOSITORY__\_h3era_Plugins_\Amethyst2\Release\amethyst2.3.lib
C:\DEV\__REPOSITORY__\_h3era_Plugins_\Amethyst2\Release\amethyst2.3.exp
^C:\DEV\__REPOSITORY__\_h3era_Plugins_\Amethyst2\amethyst\amethyst.vcxproj
C:\DEV\__REPOSITORY__\_h3era_Plugins_\Amethyst2\Release\amethyst2.3.lib
C:\DEV\__REPOSITORY__\_h3era_Plugins_\Amethyst2\Release\amethyst2.3.exp
^C:\DEV\__REPOSITORY__\_h3era_Plugins_\Amethyst2\amethyst\amethyst.vcxproj
C:\DEV\__REPOSITORY__\_h3era_Plugins_\Amethyst2\Release\amethyst2.3.lib
C:\DEV\__REPOSITORY__\_h3era_Plugins_\Amethyst2\Release\amethyst2.3.exp
^C:\DEV\__REPOSITORY__\_h3era_Plugins_\Amethyst2\amethyst\amethyst.vcxproj
C:\DEV\__REPOSITORY__\_h3era_Plugins_\Amethyst2\Release\amethyst2.3.lib
C:\DEV\__REPOSITORY__\_h3era_Plugins_\Amethyst2\Release\amethyst2.3.exp
^C:\DEV\__REPOSITORY__\_h3era_Plugins_\Amethyst2\amethyst\amethyst.vcxproj
C:\DEV\__REPOSITORY__\_h3era_Plugins_\Amethyst2\Release\amethyst2.3.lib
C:\DEV\__REPOSITORY__\_h3era_Plugins_\Amethyst2\Release\amethyst2.3.exp
^C:\DEV\__REPOSITORY__\_h3era_Plugins_\Amethyst2\amethyst\amethyst.vcxproj
C:\DEV\__REPOSITORY__\_h3era_Plugins_\Amethyst2\Release\amethyst2.3.lib
C:\DEV\__REPOSITORY__\_h3era_Plugins_\Amethyst2\Release\amethyst2.3.exp
^C:\DEV\__REPOSITORY__\_h3era_Plugins_\Amethyst2\amethyst\amethyst.vcxproj
C:\DEV\__REPOSITORY__\_h3era_Plugins_\Amethyst2\Release\amethyst2.3.lib
C:\DEV\__REPOSITORY__\_h3era_Plugins_\Amethyst2\Release\amethyst2.3.exp
^C:\DEV\__REPOSITORY__\_h3era_Plugins_\Amethyst2\amethyst\amethyst.vcxproj
C:\DEV\__REPOSITORY__\_h3era_Plugins_\Amethyst2\Release\amethyst2.3.lib
C:\DEV\__REPOSITORY__\_h3era_Plugins_\Amethyst2\Release\amethyst2.3.exp
^C:\DEV\__REPOSITORY__\_h3era_Plugins_\Amethyst2\amethyst\amethyst.vcxproj
C:\DEV\__REPOSITORY__\_h3era_Plugins_\Amethyst2\Release\amethyst2.3.lib
C:\DEV\__REPOSITORY__\_h3era_Plugins_\Amethyst2\Release\amethyst2.3.exp
^C:\DEV\__REPOSITORY__\_h3era_Plugins_\Amethyst2\amethyst\amethyst.vcxproj
C:\DEV\__REPOSITORY__\_h3era_Plugins_\Amethyst2\Release\amethyst2.3.lib
C:\DEV\__REPOSITORY__\_h3era_Plugins_\Amethyst2\Release\amethyst2.3.exp
^C:\DEV\__REPOSITORY__\_h3era_Plugins_\Amethyst2\amethyst\amethyst.vcxproj
C:\DEV\__REPOSITORY__\_h3era_Plugins_\Amethyst2\Release\amethyst2.3.lib
C:\DEV\__REPOSITORY__\_h3era_Plugins_\Amethyst2\Release\amethyst2.3.exp
^C:\DEV\__REPOSITORY__\_h3era_Plugins_\Amethyst2\amethyst\amethyst.vcxproj
C:\DEV\__REPOSITORY__\_h3era_Plugins_\Amethyst2\Release\amethyst2.3.lib
C:\DEV\__REPOSITORY__\_h3era_Plugins_\Amethyst2\Release\amethyst2.3.exp
^C:\DEV\__REPOSITORY__\_h3era_Plugins_\Amethyst2\amethyst\amethyst.vcxproj
C:\DEV\__REPOSITORY__\_h3era_Plugins_\Amethyst2\Release\amethyst2.3.lib
C:\DEV\__REPOSITORY__\_h3era_Plugins_\Amethyst2\Release\amethyst2.3.exp
^C:\DEV\__REPOSITORY__\_h3era_Plugins_\Amethyst2\amethyst\amethyst.vcxproj
C:\DEV\__REPOSITORY__\_h3era_Plugins_\Amethyst2\Release\amethyst2.3.lib
C:\DEV\__REPOSITORY__\_h3era_Plugins_\Amethyst2\Release\amethyst2.3.exp
^C:\DEV\__REPOSITORY__\_h3era_Plugins_\Amethyst2\amethyst\amethyst.vcxproj
C:\DEV\__REPOSITORY__\_h3era_Plugins_\Amethyst2\Release\amethyst2.3.lib
C:\DEV\__REPOSITORY__\_h3era_Plugins_\Amethyst2\Release\amethyst2.3.exp
^C:\DEV\__REPOSITORY__\_h3era_Plugins_\Amethyst2\amethyst\amethyst.vcxproj
C:\DEV\__REPOSITORY__\_h3era_Plugins_\Amethyst2\Release\amethyst2.3.lib
C:\DEV\__REPOSITORY__\_h3era_Plugins_\Amethyst2\Release\amethyst2.3.exp
^C:\DEV\__REPOSITORY__\_h3era_Plugins_\Amethyst2\amethyst\amethyst.vcxproj
C:\DEV\__REPOSITORY__\_h3era_Plugins_\Amethyst2\Release\amethyst2.3.lib
C:\DEV\__REPOSITORY__\_h3era_Plugins_\Amethyst2\Release\amethyst2.3.exp
^C:\DEV\__REPOSITORY__\_h3era_Plugins_\Amethyst2\amethyst\amethyst.vcxproj
C:\DEV\__REPOSITORY__\_h3era_Plugins_\Amethyst2\Release\amethyst2.3.lib
C:\DEV\__REPOSITORY__\_h3era_Plugins_\Amethyst2\Release\amethyst2.3.exp
^C:\DEV\__REPOSITORY__\_h3era_Plugins_\Amethyst2\amethyst\amethyst.vcxproj
C:\DEV\__REPOSITORY__\_h3era_Plugins_\Amethyst2\Release\amethyst2.3.lib
C:\DEV\__REPOSITORY__\_h3era_Plugins_\Amethyst2\Release\amethyst2.3.exp
^C:\DEV\__REPOSITORY__\_h3era_Plugins_\Amethyst2\amethyst\amethyst.vcxproj
C:\DEV\__REPOSITORY__\_h3era_Plugins_\Amethyst2\Release\amethyst2.3.lib
C:\DEV\__REPOSITORY__\_h3era_Plugins_\Amethyst2\Release\amethyst2.3.exp
^C:\DEV\__REPOSITORY__\_h3era_Plugins_\Amethyst2\amethyst\amethyst.vcxproj
C:\DEV\__REPOSITORY__\_h3era_Plugins_\Amethyst2\Release\amethyst2.3.lib
C:\DEV\__REPOSITORY__\_h3era_Plugins_\Amethyst2\Release\amethyst2.3.exp
^C:\DEV\__REPOSITORY__\_h3era_Plugins_\Amethyst2\amethyst\amethyst.vcxproj
C:\DEV\__REPOSITORY__\_h3era_Plugins_\Amethyst2\Release\amethyst2.3.lib
C:\DEV\__REPOSITORY__\_h3era_Plugins_\Amethyst2\Release\amethyst2.3.exp
^C:\DEV\__REPOSITORY__\_h3era_Plugins_\Amethyst2\amethyst\amethyst.vcxproj
C:\DEV\__REPOSITORY__\_h3era_Plugins_\Amethyst2\Release\amethyst2.3.lib
C:\DEV\__REPOSITORY__\_h3era_Plugins_\Amethyst2\Release\amethyst2.3.exp
^C:\DEV\__REPOSITORY__\_h3era_Plugins_\Amethyst2\amethyst\amethyst.vcxproj
C:\DEV\__REPOSITORY__\_h3era_Plugins_\Amethyst2\Release\amethyst2.3.lib
C:\DEV\__REPOSITORY__\_h3era_Plugins_\Amethyst2\Release\amethyst2.3.exp
^C:\DEV\__REPOSITORY__\_h3era_Plugins_\Amethyst2\amethyst\amethyst.vcxproj
C:\DEV\__REPOSITORY__\_h3era_Plugins_\Amethyst2\Release\amethyst2.3.lib
C:\DEV\__REPOSITORY__\_h3era_Plugins_\Amethyst2\Release\amethyst2.3.exp
^C:\DEV\__REPOSITORY__\_h3era_Plugins_\Amethyst2\amethyst\amethyst.vcxproj
C:\DEV\__REPOSITORY__\_h3era_Plugins_\Amethyst2\Release\amethyst2.3.lib
C:\DEV\__REPOSITORY__\_h3era_Plugins_\Amethyst2\Release\amethyst2.3.exp
^C:\DEV\__REPOSITORY__\_h3era_Plugins_\Amethyst2\amethyst\amethyst.vcxproj
C:\DEV\__REPOSITORY__\_h3era_Plugins_\Amethyst2\Release\amethyst2.3.lib
C:\DEV\__REPOSITORY__\_h3era_Plugins_\Amethyst2\Release\amethyst2.3.exp
^C:\DEV\__REPOSITORY__\_h3era_Plugins_\Amethyst2\amethyst\amethyst.vcxproj
C:\DEV\__REPOSITORY__\_h3era_Plugins_\Amethyst2\Release\amethyst2.3.lib
C:\DEV\__REPOSITORY__\_h3era_Plugins_\Amethyst2\Release\amethyst2.3.exp
^C:\DEV\__REPOSITORY__\_h3era_Plugins_\Amethyst2\amethyst\amethyst.vcxproj
C:\DEV\__REPOSITORY__\_h3era_Plugins_\Amethyst2\Release\amethyst2.3.lib
C:\DEV\__REPOSITORY__\_h3era_Plugins_\Amethyst2\Release\amethyst2.3.exp
^C:\DEV\__REPOSITORY__\_h3era_Plugins_\Amethyst2\amethyst\amethyst.vcxproj
C:\DEV\__REPOSITORY__\_h3era_Plugins_\Amethyst2\Release\amethyst2.3.lib
C:\DEV\__REPOSITORY__\_h3era_Plugins_\Amethyst2\Release\amethyst2.3.exp
^C:\DEV\__REPOSITORY__\_h3era_Plugins_\Amethyst2\amethyst\amethyst.vcxproj
C:\DEV\__REPOSITORY__\_h3era_Plugins_\Amethyst2\Release\amethyst2.4.lib
C:\DEV\__REPOSITORY__\_h3era_Plugins_\Amethyst2\Release\amethyst2.4.exp
^C:\DEV\__REPOSITORY__\_h3era_Plugins_\Amethyst2\amethyst\amethyst.vcxproj
C:\DEV\__REPOSITORY__\_h3era_Plugins_\Amethyst2\Release\amethyst2.4.lib
C:\DEV\__REPOSITORY__\_h3era_Plugins_\Amethyst2\Release\amethyst2.4.exp
^C:\DEV\__REPOSITORY__\_h3era_Plugins_\Amethyst2\amethyst\amethyst.vcxproj
C:\DEV\__REPOSITORY__\_h3era_Plugins_\Amethyst2\Release\amethyst2.4.lib
C:\DEV\__REPOSITORY__\_h3era_Plugins_\Amethyst2\Release\amethyst2.4.exp
^C:\DEV\__REPOSITORY__\_h3era_Plugins_\Amethyst2\amethyst\amethyst.vcxproj
C:\DEV\__REPOSITORY__\_h3era_Plugins_\Amethyst2\Release\amethyst2.4.lib
C:\DEV\__REPOSITORY__\_h3era_Plugins_\Amethyst2\Release\amethyst2.4.exp
^C:\DEV\__REPOSITORY__\_h3era_Plugins_\Amethyst2\amethyst\amethyst.vcxproj
C:\DEV\__REPOSITORY__\_h3era_Plugins_\Amethyst2\Release\amethyst2.4.lib
C:\DEV\__REPOSITORY__\_h3era_Plugins_\Amethyst2\Release\amethyst2.4.exp
^C:\DEV\__REPOSITORY__\_h3era_Plugins_\Amethyst2\amethyst\amethyst.vcxproj
C:\DEV\__REPOSITORY__\_h3era_Plugins_\Amethyst2\Release\amethyst2.4.lib
C:\DEV\__REPOSITORY__\_h3era_Plugins_\Amethyst2\Release\amethyst2.4.exp
^C:\DEV\__REPOSITORY__\_h3era_Plugins_\Amethyst2\amethyst\amethyst.vcxproj
C:\DEV\__REPOSITORY__\_h3era_Plugins_\Amethyst2\Release\amethyst2.4.lib
C:\DEV\__REPOSITORY__\_h3era_Plugins_\Amethyst2\Release\amethyst2.4.exp
^C:\DEV\__REPOSITORY__\_h3era_Plugins_\Amethyst2\amethyst\amethyst.vcxproj
C:\DEV\__REPOSITORY__\_h3era_Plugins_\Amethyst2\Release\amethyst2.4.lib
C:\DEV\__REPOSITORY__\_h3era_Plugins_\Amethyst2\Release\amethyst2.4.exp
^C:\DEV\__REPOSITORY__\_h3era_Plugins_\Amethyst2\amethyst\amethyst.vcxproj
C:\DEV\__REPOSITORY__\_h3era_Plugins_\Amethyst2\Release\amethyst2.4.lib
C:\DEV\__REPOSITORY__\_h3era_Plugins_\Amethyst2\Release\amethyst2.4.exp
^C:\DEV\__REPOSITORY__\_h3era_Plugins_\Amethyst2\amethyst\amethyst.vcxproj
C:\DEV\__REPOSITORY__\_h3era_Plugins_\Amethyst2\Release\amethyst2.4.lib
C:\DEV\__REPOSITORY__\_h3era_Plugins_\Amethyst2\Release\amethyst2.4.exp
^C:\DEV\__REPOSITORY__\_h3era_Plugins_\Amethyst2\amethyst\amethyst.vcxproj
C:\DEV\__REPOSITORY__\_h3era_Plugins_\Amethyst2\Release\amethyst2.4.lib
C:\DEV\__REPOSITORY__\_h3era_Plugins_\Amethyst2\Release\amethyst2.4.exp
^C:\DEV\__REPOSITORY__\_h3era_Plugins_\Amethyst2\amethyst\amethyst.vcxproj
C:\DEV\__REPOSITORY__\_h3era_Plugins_\Amethyst2\Release\amethyst2.4.lib
C:\DEV\__REPOSITORY__\_h3era_Plugins_\Amethyst2\Release\amethyst2.4.exp
^C:\DEV\__REPOSITORY__\_h3era_Plugins_\Amethyst2\amethyst\amethyst.vcxproj
C:\DEV\__REPOSITORY__\_h3era_Plugins_\Amethyst2\Release\amethyst2.4.lib
C:\DEV\__REPOSITORY__\_h3era_Plugins_\Amethyst2\Release\amethyst2.4.exp
^C:\DEV\__REPOSITORY__\_h3era_Plugins_\Amethyst2\amethyst\amethyst.vcxproj
C:\DEV\__REPOSITORY__\_h3era_Plugins_\Amethyst2\Release\amethyst2.4.lib
C:\DEV\__REPOSITORY__\_h3era_Plugins_\Amethyst2\Release\amethyst2.4.exp
^C:\DEV\__REPOSITORY__\_h3era_Plugins_\Amethyst2\amethyst\amethyst.vcxproj
C:\DEV\__REPOSITORY__\_h3era_Plugins_\Amethyst2\Release\amethyst2.4.lib
C:\DEV\__REPOSITORY__\_h3era_Plugins_\Amethyst2\Release\amethyst2.4.exp
^C:\DEV\__REPOSITORY__\_h3era_Plugins_\Amethyst2\amethyst\amethyst.vcxproj
C:\DEV\__REPOSITORY__\_h3era_Plugins_\Amethyst2\Release\amethyst2.4.lib
C:\DEV\__REPOSITORY__\_h3era_Plugins_\Amethyst2\Release\amethyst2.4.exp
^C:\DEV\__REPOSITORY__\_h3era_Plugins_\Amethyst2\amethyst\amethyst.vcxproj
C:\DEV\__REPOSITORY__\_h3era_Plugins_\Amethyst2\Release\amethyst2.4.lib
C:\DEV\__REPOSITORY__\_h3era_Plugins_\Amethyst2\Release\amethyst2.4.exp
^C:\DEV\__REPOSITORY__\_h3era_Plugins_\Amethyst2\amethyst\amethyst.vcxproj
C:\DEV\__REPOSITORY__\_h3era_Plugins_\Amethyst2\Release\amethyst2.4.lib
C:\DEV\__REPOSITORY__\_h3era_Plugins_\Amethyst2\Release\amethyst2.4.exp
^C:\DEV\__REPOSITORY__\_h3era_Plugins_\Amethyst2\amethyst\amethyst.vcxproj
C:\DEV\__REPOSITORY__\_h3era_Plugins_\Amethyst2\Release\amethyst2.4.lib
C:\DEV\__REPOSITORY__\_h3era_Plugins_\Amethyst2\Release\amethyst2.4.exp
^C:\DEV\__REPOSITORY__\_h3era_Plugins_\Amethyst2\amethyst\amethyst.vcxproj
C:\DEV\__REPOSITORY__\_h3era_Plugins_\Amethyst2\Release\amethyst2.4.lib
C:\DEV\__REPOSITORY__\_h3era_Plugins_\Amethyst2\Release\amethyst2.4.exp
^C:\DEV\__REPOSITORY__\_h3era_Plugins_\Amethyst2\amethyst\amethyst.vcxproj
C:\DEV\__REPOSITORY__\_h3era_Plugins_\Amethyst2\Release\amethyst2.4.lib
C:\DEV\__REPOSITORY__\_h3era_Plugins_\Amethyst2\Release\amethyst2.4.exp
^C:\DEV\__REPOSITORY__\_h3era_Plugins_\Amethyst2\amethyst\amethyst.vcxproj
C:\DEV\__REPOSITORY__\_h3era_Plugins_\Amethyst2\Release\amethyst2.4.lib
C:\DEV\__REPOSITORY__\_h3era_Plugins_\Amethyst2\Release\amethyst2.4.exp
^C:\DEV\__REPOSITORY__\_h3era_Plugins_\Amethyst2\amethyst\amethyst.vcxproj
C:\DEV\__REPOSITORY__\_h3era_Plugins_\Amethyst2\Release\amethyst2.4.lib
C:\DEV\__REPOSITORY__\_h3era_Plugins_\Amethyst2\Release\amethyst2.4.exp
^C:\DEV\__REPOSITORY__\_h3era_Plugins_\Amethyst2\amethyst\amethyst.vcxproj
C:\DEV\__REPOSITORY__\_h3era_Plugins_\Amethyst2\Release\amethyst2.4.lib
C:\DEV\__REPOSITORY__\_h3era_Plugins_\Amethyst2\Release\amethyst2.4.exp
^C:\DEV\__REPOSITORY__\_h3era_Plugins_\Amethyst2\amethyst\amethyst.vcxproj
C:\DEV\__REPOSITORY__\_h3era_Plugins_\Amethyst2\Release\amethyst2.4.lib
C:\DEV\__REPOSITORY__\_h3era_Plugins_\Amethyst2\Release\amethyst2.4.exp
^C:\DEV\__REPOSITORY__\_h3era_Plugins_\Amethyst2\amethyst\amethyst.vcxproj
C:\DEV\__REPOSITORY__\_h3era_Plugins_\Amethyst2\Release\amethyst2.4.lib
C:\DEV\__REPOSITORY__\_h3era_Plugins_\Amethyst2\Release\amethyst2.4.exp
^C:\DEV\__REPOSITORY__\_h3era_Plugins_\Amethyst2\amethyst\amethyst.vcxproj
C:\DEV\__REPOSITORY__\_h3era_Plugins_\Amethyst2\Release\amethyst2.4.lib
C:\DEV\__REPOSITORY__\_h3era_Plugins_\Amethyst2\Release\amethyst2.4.exp
^C:\DEV\__REPOSITORY__\_h3era_Plugins_\Amethyst2\amethyst\amethyst.vcxproj
C:\DEV\__REPOSITORY__\_h3era_Plugins_\Amethyst2\Release\amethyst2.4.lib
C:\DEV\__REPOSITORY__\_h3era_Plugins_\Amethyst2\Release\amethyst2.4.exp
^C:\DEV\__REPOSITORY__\_h3era_Plugins_\Amethyst2\amethyst\amethyst.vcxproj
C:\DEV\__REPOSITORY__\_h3era_Plugins_\Amethyst2\Release\amethyst2.4.lib
C:\DEV\__REPOSITORY__\_h3era_Plugins_\Amethyst2\Release\amethyst2.4.exp
^C:\DEV\__REPOSITORY__\_h3era_Plugins_\Amethyst2\amethyst\amethyst.vcxproj
C:\DEV\__REPOSITORY__\_h3era_Plugins_\Amethyst2\Release\amethyst2.4.lib
C:\DEV\__REPOSITORY__\_h3era_Plugins_\Amethyst2\Release\amethyst2.4.exp
^C:\DEV\__REPOSITORY__\_h3era_Plugins_\Amethyst2\amethyst\amethyst.vcxproj
C:\DEV\__REPOSITORY__\_h3era_Plugins_\Amethyst2\Release\amethyst2.4.lib
C:\DEV\__REPOSITORY__\_h3era_Plugins_\Amethyst2\Release\amethyst2.4.exp
^C:\DEV\__REPOSITORY__\_h3era_Plugins_\Amethyst2\amethyst\amethyst.vcxproj
C:\DEV\__REPOSITORY__\_h3era_Plugins_\Amethyst2\Release\amethyst2.4.lib
C:\DEV\__REPOSITORY__\_h3era_Plugins_\Amethyst2\Release\amethyst2.4.exp
^C:\DEV\__REPOSITORY__\_h3era_Plugins_\Amethyst2\amethyst\amethyst.vcxproj
C:\DEV\__REPOSITORY__\_h3era_Plugins_\Amethyst2\Release\amethyst2.4.lib
C:\DEV\__REPOSITORY__\_h3era_Plugins_\Amethyst2\Release\amethyst2.4.exp
^C:\DEV\__REPOSITORY__\_h3era_Plugins_\Amethyst2\amethyst\amethyst.vcxproj
C:\DEV\__REPOSITORY__\_h3era_Plugins_\Amethyst2\Release\amethyst2.4.lib
C:\DEV\__REPOSITORY__\_h3era_Plugins_\Amethyst2\Release\amethyst2.4.exp
^C:\DEV\__REPOSITORY__\_h3era_Plugins_\Amethyst2\amethyst\amethyst.vcxproj
C:\DEV\__REPOSITORY__\_h3era_Plugins_\Amethyst2\Release\amethyst2.4.lib
C:\DEV\__REPOSITORY__\_h3era_Plugins_\Amethyst2\Release\amethyst2.4.exp
^C:\DEV\__REPOSITORY__\_h3era_Plugins_\Amethyst2\amethyst\amethyst.vcxproj
C:\DEV\__REPOSITORY__\_h3era_Plugins_\Amethyst2\Release\amethyst2.4.lib
C:\DEV\__REPOSITORY__\_h3era_Plugins_\Amethyst2\Release\amethyst2.4.exp
^C:\DEV\__REPOSITORY__\_h3era_Plugins_\Amethyst2\amethyst\amethyst.vcxproj
C:\DEV\__REPOSITORY__\_h3era_Plugins_\Amethyst2\Release\amethyst2.4.lib
C:\DEV\__REPOSITORY__\_h3era_Plugins_\Amethyst2\Release\amethyst2.4.exp
^C:\DEV\__REPOSITORY__\_h3era_Plugins_\Amethyst2\amethyst\amethyst.vcxproj
C:\DEV\__REPOSITORY__\_h3era_Plugins_\Amethyst2\Release\amethyst2.4.lib
C:\DEV\__REPOSITORY__\_h3era_Plugins_\Amethyst2\Release\amethyst2.4.exp
^C:\DEV\__REPOSITORY__\_h3era_Plugins_\Amethyst2\amethyst\amethyst.vcxproj
C:\DEV\__REPOSITORY__\_h3era_Plugins_\Amethyst2\Release\amethyst2.4.lib
C:\DEV\__REPOSITORY__\_h3era_Plugins_\Amethyst2\Release\amethyst2.4.exp
^C:\DEV\__REPOSITORY__\_h3era_Plugins_\Amethyst2\amethyst\amethyst.vcxproj
C:\DEV\__REPOSITORY__\_h3era_Plugins_\Amethyst2\Release\amethyst2.4.lib
C:\DEV\__REPOSITORY__\_h3era_Plugins_\Amethyst2\Release\amethyst2.4.exp
^C:\DEV\__REPOSITORY__\_h3era_Plugins_\Amethyst2\amethyst\amethyst.vcxproj
C:\DEV\__REPOSITORY__\_h3era_Plugins_\Amethyst2\Release\amethyst2.4.lib
C:\DEV\__REPOSITORY__\_h3era_Plugins_\Amethyst2\Release\amethyst2.4.exp
^C:\DEV\__REPOSITORY__\_h3era_Plugins_\Amethyst2\amethyst\amethyst.vcxproj
C:\DEV\__REPOSITORY__\_h3era_Plugins_\Amethyst2\Release\amethyst2.4.lib
C:\DEV\__REPOSITORY__\_h3era_Plugins_\Amethyst2\Release\amethyst2.4.exp
^C:\DEV\__REPOSITORY__\_h3era_Plugins_\Amethyst2\amethyst\amethyst.vcxproj
C:\DEV\__REPOSITORY__\_h3era_Plugins_\Amethyst2\Release\amethyst2.4.lib
C:\DEV\__REPOSITORY__\_h3era_Plugins_\Amethyst2\Release\amethyst2.4.exp
^C:\DEV\__REPOSITORY__\_h3era_Plugins_\Amethyst2\amethyst\amethyst.vcxproj
C:\DEV\__REPOSITORY__\_h3era_Plugins_\Amethyst2\Release\amethyst2.4.lib
C:\DEV\__REPOSITORY__\_h3era_Plugins_\Amethyst2\Release\amethyst2.4.exp
^C:\DEV\__REPOSITORY__\_h3era_Plugins_\Amethyst2\amethyst\amethyst.vcxproj
C:\DEV\__REPOSITORY__\_h3era_Plugins_\Amethyst2\Release\amethyst2.4.lib
C:\DEV\__REPOSITORY__\_h3era_Plugins_\Amethyst2\Release\amethyst2.4.exp
^C:\DEV\__REPOSITORY__\_h3era_Plugins_\Amethyst2\amethyst\amethyst.vcxproj
C:\DEV\__REPOSITORY__\_h3era_Plugins_\Amethyst2\Release\amethyst2.4.lib
C:\DEV\__REPOSITORY__\_h3era_Plugins_\Amethyst2\Release\amethyst2.4.exp
^C:\DEV\__REPOSITORY__\_h3era_Plugins_\Amethyst2\amethyst\amethyst.vcxproj
C:\DEV\__REPOSITORY__\_h3era_Plugins_\Amethyst2\Release\amethyst2.4.lib
C:\DEV\__REPOSITORY__\_h3era_Plugins_\Amethyst2\Release\amethyst2.4.exp
^C:\DEV\__REPOSITORY__\_h3era_Plugins_\Amethyst2\amethyst\amethyst.vcxproj
C:\DEV\__REPOSITORY__\_h3era_Plugins_\Amethyst2\Release\amethyst2.4.lib
C:\DEV\__REPOSITORY__\_h3era_Plugins_\Amethyst2\Release\amethyst2.4.exp
^C:\DEV\__REPOSITORY__\_h3era_Plugins_\Amethyst2\amethyst\amethyst.vcxproj
C:\DEV\__REPOSITORY__\_h3era_Plugins_\Amethyst2\Release\amethyst2.4.lib
C:\DEV\__REPOSITORY__\_h3era_Plugins_\Amethyst2\Release\amethyst2.4.exp
^C:\DEV\__REPOSITORY__\_h3era_Plugins_\Amethyst2\amethyst\amethyst.vcxproj
C:\DEV\__REPOSITORY__\_h3era_Plugins_\Amethyst2\Release\amethyst2.4.lib
C:\DEV\__REPOSITORY__\_h3era_Plugins_\Amethyst2\Release\amethyst2.4.exp
^C:\DEV\__REPOSITORY__\_h3era_Plugins_\Amethyst2\amethyst\amethyst.vcxproj
C:\DEV\__REPOSITORY__\_h3era_Plugins_\Amethyst2\Release\amethyst2.4.lib
C:\DEV\__REPOSITORY__\_h3era_Plugins_\Amethyst2\Release\amethyst2.4.exp
^C:\DEV\__REPOSITORY__\_h3era_Plugins_\Amethyst2\amethyst\amethyst.vcxproj
C:\DEV\__REPOSITORY__\_h3era_Plugins_\Amethyst2\Release\amethyst2.4.lib
C:\DEV\__REPOSITORY__\_h3era_Plugins_\Amethyst2\Release\amethyst2.4.exp
^C:\DEV\__REPOSITORY__\_h3era_Plugins_\Amethyst2\amethyst\amethyst.vcxproj
C:\DEV\__REPOSITORY__\_h3era_Plugins_\Amethyst2\Release\amethyst2.4.lib
C:\DEV\__REPOSITORY__\_h3era_Plugins_\Amethyst2\Release\amethyst2.4.exp
^C:\DEV\__REPOSITORY__\_h3era_Plugins_\Amethyst2\amethyst\amethyst.vcxproj
C:\DEV\__REPOSITORY__\_h3era_Plugins_\Amethyst2\Release\amethyst2.4.lib
C:\DEV\__REPOSITORY__\_h3era_Plugins_\Amethyst2\Release\amethyst2.4.exp
^C:\DEV\__REPOSITORY__\_h3era_Plugins_\Amethyst2\amethyst\amethyst.vcxproj
C:\DEV\__REPOSITORY__\_h3era_Plugins_\Amethyst2\Release\amethyst2.4.lib
C:\DEV\__REPOSITORY__\_h3era_Plugins_\Amethyst2\Release\amethyst2.4.exp
^C:\DEV\__REPOSITORY__\_h3era_Plugins_\Amethyst2\amethyst\amethyst.vcxproj
C:\DEV\__REPOSITORY__\_h3era_Plugins_\Amethyst2\Release\amethyst2.4.lib
C:\DEV\__REPOSITORY__\_h3era_Plugins_\Amethyst2\Release\amethyst2.4.exp
^C:\DEV\__REPOSITORY__\_h3era_Plugins_\Amethyst2\amethyst\amethyst.vcxproj
C:\DEV\__REPOSITORY__\_h3era_Plugins_\Amethyst2\Release\amethyst2.4.lib
C:\DEV\__REPOSITORY__\_h3era_Plugins_\Amethyst2\Release\amethyst2.4.exp
^C:\DEV\__REPOSITORY__\_h3era_Plugins_\Amethyst2\amethyst\amethyst.vcxproj
C:\DEV\__REPOSITORY__\_h3era_Plugins_\Amethyst2\Release\amethyst2.4.lib
C:\DEV\__REPOSITORY__\_h3era_Plugins_\Amethyst2\Release\amethyst2.4.exp
^C:\DEV\__REPOSITORY__\_h3era_Plugins_\Amethyst2\amethyst\amethyst.vcxproj
C:\DEV\__REPOSITORY__\_h3era_Plugins_\Amethyst2\Release\amethyst2.4.lib
C:\DEV\__REPOSITORY__\_h3era_Plugins_\Amethyst2\Release\amethyst2.4.exp
^C:\DEV\__REPOSITORY__\_h3era_Plugins_\Amethyst2\amethyst\amethyst.vcxproj
C:\DEV\__REPOSITORY__\_h3era_Plugins_\Amethyst2\Release\amethyst2.4.lib
C:\DEV\__REPOSITORY__\_h3era_Plugins_\Amethyst2\Release\amethyst2.4.exp
^C:\DEV\__REPOSITORY__\_h3era_Plugins_\Amethyst2\amethyst\amethyst.vcxproj
C:\DEV\__REPOSITORY__\_h3era_Plugins_\Amethyst2\Release\amethyst2.4.lib
C:\DEV\__REPOSITORY__\_h3era_Plugins_\Amethyst2\Release\amethyst2.4.exp
^C:\DEV\__REPOSITORY__\_h3era_Plugins_\Amethyst2\amethyst\amethyst.vcxproj
C:\DEV\__REPOSITORY__\_h3era_Plugins_\Amethyst2\Release\amethyst2.4.lib
C:\DEV\__REPOSITORY__\_h3era_Plugins_\Amethyst2\Release\amethyst2.4.exp
^C:\DEV\__REPOSITORY__\_h3era_Plugins_\Amethyst2\amethyst\amethyst.vcxproj
C:\DEV\__REPOSITORY__\_h3era_Plugins_\Amethyst2\Release\amethyst2.4.lib
C:\DEV\__REPOSITORY__\_h3era_Plugins_\Amethyst2\Release\amethyst2.4.exp
^C:\DEV\__REPOSITORY__\_h3era_Plugins_\Amethyst2\amethyst\amethyst.vcxproj
C:\DEV\__REPOSITORY__\_h3era_Plugins_\Amethyst2\Release\amethyst2.4.lib
C:\DEV\__REPOSITORY__\_h3era_Plugins_\Amethyst2\Release\amethyst2.4.exp
^C:\DEV\__REPOSITORY__\_h3era_Plugins_\Amethyst2\amethyst\amethyst.vcxproj
C:\DEV\__REPOSITORY__\_h3era_Plugins_\Amethyst2\Release\amethyst2.4.lib
C:\DEV\__REPOSITORY__\_h3era_Plugins_\Amethyst2\Release\amethyst2.4.exp
^C:\DEV\__REPOSITORY__\_h3era_Plugins_\Amethyst2\amethyst\amethyst.vcxproj
C:\DEV\__REPOSITORY__\_h3era_Plugins_\Amethyst2\Release\amethyst2.4.lib
C:\DEV\__REPOSITORY__\_h3era_Plugins_\Amethyst2\Release\amethyst2.4.exp
^C:\DEV\__REPOSITORY__\_h3era_Plugins_\Amethyst2\amethyst\amethyst.vcxproj
C:\DEV\__REPOSITORY__\_h3era_Plugins_\Amethyst2\Release\amethyst2.4.lib
C:\DEV\__REPOSITORY__\_h3era_Plugins_\Amethyst2\Release\amethyst2.4.exp
^C:\DEV\__REPOSITORY__\_h3era_Plugins_\Amethyst2\amethyst\amethyst.vcxproj
C:\DEV\__REPOSITORY__\_h3era_Plugins_\Amethyst2\Release\amethyst2.4.lib
C:\DEV\__REPOSITORY__\_h3era_Plugins_\Amethyst2\Release\amethyst2.4.exp
^C:\DEV\__REPOSITORY__\_h3era_Plugins_\Amethyst2\amethyst\amethyst.vcxproj
C:\DEV\__REPOSITORY__\_h3era_Plugins_\Amethyst2\Release\amethyst2.4.lib
C:\DEV\__REPOSITORY__\_h3era_Plugins_\Amethyst2\Release\amethyst2.4.exp
^C:\DEV\__REPOSITORY__\_h3era_Plugins_\Amethyst2\amethyst\amethyst.vcxproj
C:\DEV\__REPOSITORY__\_h3era_Plugins_\Amethyst2\Release\amethyst2.4.lib
C:\DEV\__REPOSITORY__\_h3era_Plugins_\Amethyst2\Release\amethyst2.4.exp
^C:\DEV\__REPOSITORY__\_h3era_Plugins_\Amethyst2\amethyst\amethyst.vcxproj
C:\DEV\__REPOSITORY__\_h3era_Plugins_\Amethyst2\Release\amethyst2.4.lib
C:\DEV\__REPOSITORY__\_h3era_Plugins_\Amethyst2\Release\amethyst2.4.exp
^C:\DEV\__REPOSITORY__\_h3era_Plugins_\Amethyst2\amethyst\amethyst.vcxproj
C:\DEV\__REPOSITORY__\_h3era_Plugins_\Amethyst2\Release\amethyst2.4.lib
C:\DEV\__REPOSITORY__\_h3era_Plugins_\Amethyst2\Release\amethyst2.4.exp
^C:\DEV\__REPOSITORY__\_h3era_Plugins_\Amethyst2\amethyst\amethyst.vcxproj
C:\DEV\__REPOSITORY__\_h3era_Plugins_\Amethyst2\Release\amethyst2.4.lib
C:\DEV\__REPOSITORY__\_h3era_Plugins_\Amethyst2\Release\amethyst2.4.exp
^C:\DEV\__REPOSITORY__\_h3era_Plugins_\Amethyst2\amethyst\amethyst.vcxproj
C:\DEV\__REPOSITORY__\_h3era_Plugins_\Amethyst2\Release\amethyst2.4.lib
C:\DEV\__REPOSITORY__\_h3era_Plugins_\Amethyst2\Release\amethyst2.4.exp
^C:\DEV\__REPOSITORY__\_h3era_Plugins_\Amethyst2\amethyst\amethyst.vcxproj
C:\DEV\__REPOSITORY__\_h3era_Plugins_\Amethyst2\Release\amethyst2.4.lib
C:\DEV\__REPOSITORY__\_h3era_Plugins_\Amethyst2\Release\amethyst2.4.exp
^C:\DEV\__REPOSITORY__\_h3era_Plugins_\Amethyst2\amethyst\amethyst.vcxproj
C:\DEV\__REPOSITORY__\_h3era_Plugins_\Amethyst2\Release\amethyst2.4.lib
C:\DEV\__REPOSITORY__\_h3era_Plugins_\Amethyst2\Release\amethyst2.4.exp
^C:\DEV\__REPOSITORY__\_h3era_Plugins_\Amethyst2\amethyst\amethyst.vcxproj
C:\DEV\__REPOSITORY__\_h3era_Plugins_\Amethyst2\Release\amethyst2.4.lib
C:\DEV\__REPOSITORY__\_h3era_Plugins_\Amethyst2\Release\amethyst2.4.exp
^C:\DEV\__REPOSITORY__\_h3era_Plugins_\Amethyst2\amethyst\amethyst.vcxproj
C:\DEV\__REPOSITORY__\_h3era_Plugins_\Amethyst2\Release\amethyst2.4.lib
C:\DEV\__REPOSITORY__\_h3era_Plugins_\Amethyst2\Release\amethyst2.4.exp
^C:\DEV\__REPOSITORY__\_h3era_Plugins_\Amethyst2\amethyst\amethyst.vcxproj
C:\DEV\__REPOSITORY__\_h3era_Plugins_\Amethyst2\Release\amethyst2.4.lib
C:\DEV\__REPOSITORY__\_h3era_Plugins_\Amethyst2\Release\amethyst2.4.exp
^C:\DEV\__REPOSITORY__\_h3era_Plugins_\Amethyst2\amethyst\amethyst.vcxproj
C:\DEV\__REPOSITORY__\_h3era_Plugins_\Amethyst2\Release\amethyst2.4.lib
C:\DEV\__REPOSITORY__\_h3era_Plugins_\Amethyst2\Release\amethyst2.4.exp
^C:\DEV\__REPOSITORY__\_h3era_Plugins_\Amethyst2\amethyst\amethyst.vcxproj
C:\DEV\__REPOSITORY__\_h3era_Plugins_\Amethyst2\Release\amethyst2.4.lib
C:\DEV\__REPOSITORY__\_h3era_Plugins_\Amethyst2\Release\amethyst2.4.exp
^C:\DEV\__REPOSITORY__\_h3era_Plugins_\Amethyst2\amethyst\amethyst.vcxproj
C:\DEV\__REPOSITORY__\_h3era_Plugins_\Amethyst2\Release\amethyst2.4.lib
C:\DEV\__REPOSITORY__\_h3era_Plugins_\Amethyst2\Release\amethyst2.4.exp
^C:\DEV\__REPOSITORY__\_h3era_Plugins_\Amethyst2\amethyst\amethyst.vcxproj
C:\DEV\__REPOSITORY__\_h3era_Plugins_\Amethyst2\Release\amethyst2.4.lib
C:\DEV\__REPOSITORY__\_h3era_Plugins_\Amethyst2\Release\amethyst2.4.exp
^C:\DEV\__REPOSITORY__\_h3era_Plugins_\Amethyst2\amethyst\amethyst.vcxproj
C:\DEV\__REPOSITORY__\_h3era_Plugins_\Amethyst2\Release\amethyst2.4.lib
C:\DEV\__REPOSITORY__\_h3era_Plugins_\Amethyst2\Release\amethyst2.4.exp
^C:\DEV\__REPOSITORY__\_h3era_Plugins_\Amethyst2\amethyst\amethyst.vcxproj
C:\DEV\__REPOSITORY__\_h3era_Plugins_\Amethyst2\Release\amethyst2.4.lib
C:\DEV\__REPOSITORY__\_h3era_Plugins_\Amethyst2\Release\amethyst2.4.exp
^C:\DEV\__REPOSITORY__\_h3era_Plugins_\Amethyst2\amethyst\amethyst.vcxproj
C:\DEV\__REPOSITORY__\_h3era_Plugins_\Amethyst2\Release\amethyst2.4.lib
C:\DEV\__REPOSITORY__\_h3era_Plugins_\Amethyst2\Release\amethyst2.4.exp
^C:\DEV\__REPOSITORY__\_h3era_Plugins_\Amethyst2\amethyst\amethyst.vcxproj
C:\DEV\__REPOSITORY__\_h3era_Plugins_\Amethyst2\Release\amethyst2.4.lib
C:\DEV\__REPOSITORY__\_h3era_Plugins_\Amethyst2\Release\amethyst2.4.exp
^C:\DEV\__REPOSITORY__\_h3era_Plugins_\Amethyst2\amethyst\amethyst.vcxproj
C:\DEV\__REPOSITORY__\_h3era_Plugins_\Amethyst2\Release\amethyst2.4.lib
C:\DEV\__REPOSITORY__\_h3era_Plugins_\Amethyst2\Release\amethyst2.4.exp
^C:\DEV\__REPOSITORY__\_h3era_Plugins_\Amethyst2\amethyst\amethyst.vcxproj
C:\DEV\__REPOSITORY__\_h3era_Plugins_\Amethyst2\Release\amethyst2.4.lib
C:\DEV\__REPOSITORY__\_h3era_Plugins_\Amethyst2\Release\amethyst2.4.exp
^C:\DEV\__REPOSITORY__\_h3era_Plugins_\Amethyst2\amethyst\amethyst.vcxproj
C:\DEV\__REPOSITORY__\_h3era_Plugins_\Amethyst2\Release\amethyst2.4.lib
C:\DEV\__REPOSITORY__\_h3era_Plugins_\Amethyst2\Release\amethyst2.4.exp
^C:\DEV\__REPOSITORY__\_h3era_Plugins_\Amethyst2\amethyst\amethyst.vcxproj
C:\DEV\__REPOSITORY__\_h3era_Plugins_\Amethyst2\Release\amethyst2.4.lib
C:\DEV\__REPOSITORY__\_h3era_Plugins_\Amethyst2\Release\amethyst2.4.exp
^C:\DEV\__REPOSITORY__\_h3era_Plugins_\Amethyst2\amethyst\amethyst.vcxproj
C:\DEV\__REPOSITORY__\_h3era_Plugins_\Amethyst2\Release\amethyst2.4.lib
C:\DEV\__REPOSITORY__\_h3era_Plugins_\Amethyst2\Release\amethyst2.4.exp
^C:\DEV\__REPOSITORY__\_h3era_Plugins_\Amethyst2\amethyst\amethyst.vcxproj
C:\DEV\__REPOSITORY__\_h3era_Plugins_\Amethyst2\Release\amethyst2.4.lib
C:\DEV\__REPOSITORY__\_h3era_Plugins_\Amethyst2\Release\amethyst2.4.exp
^C:\DEV\__REPOSITORY__\_h3era_Plugins_\Amethyst2\amethyst\amethyst.vcxproj
C:\DEV\__REPOSITORY__\_h3era_Plugins_\Amethyst2\Release\amethyst2.4.lib
C:\DEV\__REPOSITORY__\_h3era_Plugins_\Amethyst2\Release\amethyst2.4.exp
^C:\DEV\__REPOSITORY__\_h3era_Plugins_\Amethyst2\amethyst\amethyst.vcxproj
C:\DEV\__REPOSITORY__\_h3era_Plugins_\Amethyst2\Release\amethyst2.4.lib
C:\DEV\__REPOSITORY__\_h3era_Plugins_\Amethyst2\Release\amethyst2.4.exp
^C:\DEV\__REPOSITORY__\_h3era_Plugins_\Amethyst2\amethyst\amethyst.vcxproj
C:\DEV\__REPOSITORY__\_h3era_Plugins_\Amethyst2\Release\amethyst2.4.lib
C:\DEV\__REPOSITORY__\_h3era_Plugins_\Amethyst2\Release\amethyst2.4.exp
^C:\DEV\__REPOSITORY__\_h3era_Plugins_\Amethyst2\amethyst\amethyst.vcxproj
C:\DEV\__REPOSITORY__\_h3era_Plugins_\Amethyst2\Release\amethyst2.4.lib
C:\DEV\__REPOSITORY__\_h3era_Plugins_\Amethyst2\Release\amethyst2.4.exp
^C:\DEV\__REPOSITORY__\_h3era_Plugins_\Amethyst2\amethyst\amethyst.vcxproj
C:\DEV\__REPOSITORY__\_h3era_Plugins_\Amethyst2\Release\amethyst2.4.lib
C:\DEV\__REPOSITORY__\_h3era_Plugins_\Amethyst2\Release\amethyst2.4.exp
^C:\DEV\__REPOSITORY__\_h3era_Plugins_\Amethyst2\amethyst\amethyst.vcxproj
C:\DEV\__REPOSITORY__\_h3era_Plugins_\Amethyst2\Release\amethyst2.4.lib
C:\DEV\__REPOSITORY__\_h3era_Plugins_\Amethyst2\Release\amethyst2.4.exp
^C:\DEV\__REPOSITORY__\_h3era_Plugins_\Amethyst2\amethyst\amethyst.vcxproj
C:\DEV\__REPOSITORY__\_h3era_Plugins_\Amethyst2\Release\amethyst2.4.lib
C:\DEV\__REPOSITORY__\_h3era_Plugins_\Amethyst2\Release\amethyst2.4.exp
^C:\DEV\__REPOSITORY__\_h3era_Plugins_\Amethyst2\amethyst\amethyst.vcxproj
C:\DEV\__REPOSITORY__\_h3era_Plugins_\Amethyst2\Release\amethyst2.4.lib
C:\DEV\__REPOSITORY__\_h3era_Plugins_\Amethyst2\Release\amethyst2.4.exp
^C:\DEV\__REPOSITORY__\_h3era_Plugins_\Amethyst2\amethyst\amethyst.vcxproj
C:\DEV\__REPOSITORY__\_h3era_Plugins_\Amethyst2\Release\amethyst2.4.lib
C:\DEV\__REPOSITORY__\_h3era_Plugins_\Amethyst2\Release\amethyst2.4.exp
^C:\DEV\__REPOSITORY__\_h3era_Plugins_\Amethyst2\amethyst\amethyst.vcxproj
C:\DEV\__REPOSITORY__\_h3era_Plugins_\Amethyst2\Release\amethyst2.4.lib
C:\DEV\__REPOSITORY__\_h3era_Plugins_\Amethyst2\Release\amethyst2.4.exp
^C:\DEV\__REPOSITORY__\_h3era_Plugins_\Amethyst2\amethyst\amethyst.vcxproj
C:\DEV\__REPOSITORY__\_h3era_Plugins_\Amethyst2\Release\amethyst2.4.lib
C:\DEV\__REPOSITORY__\_h3era_Plugins_\Amethyst2\Release\amethyst2.4.exp
^C:\DEV\__REPOSITORY__\_h3era_Plugins_\Amethyst2\amethyst\amethyst.vcxproj
C:\DEV\__REPOSITORY__\_h3era_Plugins_\Amethyst2\Release\amethyst2.4.lib
C:\DEV\__REPOSITORY__\_h3era_Plugins_\Amethyst2\Release\amethyst2.4.exp
^C:\DEV\__REPOSITORY__\_h3era_Plugins_\Amethyst2\amethyst\amethyst.vcxproj
C:\DEV\__REPOSITORY__\_h3era_Plugins_\Amethyst2\Release\amethyst2.4.lib
C:\DEV\__REPOSITORY__\_h3era_Plugins_\Amethyst2\Release\amethyst2.4.exp
^C:\DEV\__REPOSITORY__\_h3era_Plugins_\Amethyst2\amethyst\amethyst.vcxproj
C:\DEV\__REPOSITORY__\_h3era_Plugins_\Amethyst2\Release\amethyst2_4.lib
C:\DEV\__REPOSITORY__\_h3era_Plugins_\Amethyst2\Release\amethyst2_4.exp
