^C:\DEV\__REPOSITORY__\_H3ERA_PLUGINS_\AMETHYST2\AMETHYST\AMETHYST.CPP|C:\DEV\__REPOSITORY__\_H3ERA_PLUGINS_\AMETHYST2\AMETHYST\CORE.CPP|C:\DEV\__REPOSITORY__\_H3ERA_PLUGINS_\AMETHYST2\AMETHYST\TABLES.CPP|C:\DEV\__REPOSITORY__\_H3ERA_PLUGINS_\AMETHYST2\__INCLUDE\HEROES.CPP
C:\DEV\__REPOSITORY__\_H3ERA_PLUGINS_\AMETHYST2\AMETHYST\RELEASE\VC140.PDB
C:\DEV\__REPOSITORY__\_H3ERA_PLUGINS_\AMETHYST2\AMETHYST\RELEASE\TABLES.OBJ
C:\DEV\__REPOSITORY__\_H3ERA_PLUGINS_\AMETHYST2\AMETHYST\RELEASE\CORE.OBJ
C:\DEV\__REPOSITORY__\_H3ERA_PLUGINS_\AMETHYST2\AMETHYST\RELEASE\AMETHYST.OBJ
C:\DEV\__REPOSITORY__\_H3ERA_PLUGINS_\AMETHYST2\AMETHYST\RELEASE\HEROES.OBJ
^C:\DEV\__REPOSITORY__\_H3ERA_PLUGINS_\AMETHYST2\__INCLUDE\HEROES.CPP
C:\DEV\__REPOSITORY__\_H3ERA_PLUGINS_\AMETHYST2\AMETHYST\RELEASE\VC140.PDB
^C:\DEV\__REPOSITORY__\_H3ERA_PLUGINS_\AMETHYST2\AMETHYST\CORE.CPP|C:\DEV\__REPOSITORY__\_H3ERA_PLUGINS_\AMETHYST2\AMETHYST\CREEXPO1024.CPP
C:\DEV\__REPOSITORY__\_H3ERA_PLUGINS_\AMETHYST2\AMETHYST\RELEASE\VC140.PDB
C:\DEV\__REPOSITORY__\_H3ERA_PLUGINS_\AMETHYST2\AMETHYST\RELEASE\CREEXPO1024.OBJ
^C:\DEV\__REPOSITORY__\_H3ERA_PLUGINS_\AMETHYST2\AMETHYST\CORE.CPP|C:\DEV\__REPOSITORY__\_H3ERA_PLUGINS_\AMETHYST2\AMETHYST\MAJACZEK.CPP
C:\DEV\__REPOSITORY__\_H3ERA_PLUGINS_\AMETHYST2\AMETHYST\RELEASE\VC140.PDB
C:\DEV\__REPOSITORY__\_H3ERA_PLUGINS_\AMETHYST2\AMETHYST\RELEASE\MAJACZEK.OBJ
C:\DEV\__REPOSITORY__\_H3ERA_PLUGINS_\AMETHYST2\AMETHYST\RELEASE\CORE.OBJ
^C:\DEV\__REPOSITORY__\_H3ERA_PLUGINS_\AMETHYST2\AMETHYST\AMETHYST.CPP|C:\DEV\__REPOSITORY__\_H3ERA_PLUGINS_\AMETHYST2\AMETHYST\CORE.CPP|C:\DEV\__REPOSITORY__\_H3ERA_PLUGINS_\AMETHYST2\AMETHYST\CREEXPO1024.CPP|C:\DEV\__REPOSITORY__\_H3ERA_PLUGINS_\AMETHYST2\AMETHYST\MAJACZEK.CPP|C:\DEV\__REPOSITORY__\_H3ERA_PLUGINS_\AMETHYST2\AMETHYST\TABLES.CPP
C:\DEV\__REPOSITORY__\_H3ERA_PLUGINS_\AMETHYST2\AMETHYST\RELEASE\VC140.PDB
C:\DEV\__REPOSITORY__\_H3ERA_PLUGINS_\AMETHYST2\AMETHYST\RELEASE\TABLES.OBJ
C:\DEV\__REPOSITORY__\_H3ERA_PLUGINS_\AMETHYST2\AMETHYST\RELEASE\MAJACZEK.OBJ
C:\DEV\__REPOSITORY__\_H3ERA_PLUGINS_\AMETHYST2\AMETHYST\RELEASE\CREEXPO1024.OBJ
C:\DEV\__REPOSITORY__\_H3ERA_PLUGINS_\AMETHYST2\AMETHYST\RELEASE\CORE.OBJ
C:\DEV\__REPOSITORY__\_H3ERA_PLUGINS_\AMETHYST2\AMETHYST\RELEASE\AMETHYST.OBJ
^C:\DEV\__REPOSITORY__\_H3ERA_PLUGINS_\AMETHYST2\AMETHYST\AMETHYST.CPP|C:\DEV\__REPOSITORY__\_H3ERA_PLUGINS_\AMETHYST2\AMETHYST\CORE.CPP|C:\DEV\__REPOSITORY__\_H3ERA_PLUGINS_\AMETHYST2\AMETHYST\TABLES.CPP
C:\DEV\__REPOSITORY__\_H3ERA_PLUGINS_\AMETHYST2\AMETHYST\RELEASE\VC140.PDB
C:\DEV\__REPOSITORY__\_H3ERA_PLUGINS_\AMETHYST2\AMETHYST\RELEASE\TABLES.OBJ
C:\DEV\__REPOSITORY__\_H3ERA_PLUGINS_\AMETHYST2\AMETHYST\RELEASE\CORE.OBJ
C:\DEV\__REPOSITORY__\_H3ERA_PLUGINS_\AMETHYST2\AMETHYST\RELEASE\AMETHYST.OBJ
^C:\DEV\__REPOSITORY__\_H3ERA_PLUGINS_\AMETHYST2\AMETHYST\AMETHYST.CPP|C:\DEV\__REPOSITORY__\_H3ERA_PLUGINS_\AMETHYST2\AMETHYST\CORE.CPP|C:\DEV\__REPOSITORY__\_H3ERA_PLUGINS_\AMETHYST2\AMETHYST\CREEXPO1024.CPP|C:\DEV\__REPOSITORY__\_H3ERA_PLUGINS_\AMETHYST2\AMETHYST\TABLES.CPP
C:\DEV\__REPOSITORY__\_H3ERA_PLUGINS_\AMETHYST2\AMETHYST\RELEASE\VC140.PDB
C:\DEV\__REPOSITORY__\_H3ERA_PLUGINS_\AMETHYST2\AMETHYST\RELEASE\TABLES.OBJ
C:\DEV\__REPOSITORY__\_H3ERA_PLUGINS_\AMETHYST2\AMETHYST\RELEASE\CREEXPO1024.OBJ
C:\DEV\__REPOSITORY__\_H3ERA_PLUGINS_\AMETHYST2\AMETHYST\RELEASE\CORE.OBJ
C:\DEV\__REPOSITORY__\_H3ERA_PLUGINS_\AMETHYST2\AMETHYST\RELEASE\AMETHYST.OBJ
^C:\DEV\__REPOSITORY__\_H3ERA_PLUGINS_\AMETHYST2\AMETHYST\CREEXPO1024.CPP|C:\DEV\__REPOSITORY__\_H3ERA_PLUGINS_\AMETHYST2\AMETHYST\MAJACZEK.CPP
C:\DEV\__REPOSITORY__\_H3ERA_PLUGINS_\AMETHYST2\AMETHYST\RELEASE\VC140.PDB
C:\DEV\__REPOSITORY__\_H3ERA_PLUGINS_\AMETHYST2\AMETHYST\RELEASE\MAJACZEK.OBJ
C:\DEV\__REPOSITORY__\_H3ERA_PLUGINS_\AMETHYST2\AMETHYST\RELEASE\CREEXPO1024.OBJ
^C:\DEV\__REPOSITORY__\_H3ERA_PLUGINS_\AMETHYST2\AMETHYST\AMETHYST.CPP|C:\DEV\__REPOSITORY__\_H3ERA_PLUGINS_\AMETHYST2\AMETHYST\CORE.CPP|C:\DEV\__REPOSITORY__\_H3ERA_PLUGINS_\AMETHYST2\AMETHYST\CREEXPO1024.CPP|C:\DEV\__REPOSITORY__\_H3ERA_PLUGINS_\AMETHYST2\AMETHYST\MAJACZEK.CPP|C:\DEV\__REPOSITORY__\_H3ERA_PLUGINS_\AMETHYST2\AMETHYST\TABLES.CPP|C:\DEV\__REPOSITORY__\_H3ERA_PLUGINS_\AMETHYST2\AMETHYST\__ASSEMBLY__.CPP
C:\DEV\__REPOSITORY__\_H3ERA_PLUGINS_\AMETHYST2\AMETHYST\RELEASE\VC140.PDB
C:\DEV\__REPOSITORY__\_H3ERA_PLUGINS_\AMETHYST2\AMETHYST\RELEASE\TABLES.OBJ
C:\DEV\__REPOSITORY__\_H3ERA_PLUGINS_\AMETHYST2\AMETHYST\RELEASE\MAJACZEK.OBJ
C:\DEV\__REPOSITORY__\_H3ERA_PLUGINS_\AMETHYST2\AMETHYST\RELEASE\CREEXPO1024.OBJ
C:\DEV\__REPOSITORY__\_H3ERA_PLUGINS_\AMETHYST2\AMETHYST\RELEASE\CORE.OBJ
C:\DEV\__REPOSITORY__\_H3ERA_PLUGINS_\AMETHYST2\AMETHYST\RELEASE\AMETHYST.OBJ
C:\DEV\__REPOSITORY__\_H3ERA_PLUGINS_\AMETHYST2\AMETHYST\RELEASE\__ASSEMBLY__.OBJ
^C:\DEV\__REPOSITORY__\_H3ERA_PLUGINS_\AMETHYST2\AMETHYST\MAJACZEK.CPP
C:\DEV\__REPOSITORY__\_H3ERA_PLUGINS_\AMETHYST2\AMETHYST\RELEASE\VC140.PDB
^C:\DEV\__REPOSITORY__\_H3ERA_PLUGINS_\AMETHYST2\AMETHYST\AMETHYST.CPP|C:\DEV\__REPOSITORY__\_H3ERA_PLUGINS_\AMETHYST2\AMETHYST\CORE.CPP|C:\DEV\__REPOSITORY__\_H3ERA_PLUGINS_\AMETHYST2\AMETHYST\CREEXPO1024.CPP|C:\DEV\__REPOSITORY__\_H3ERA_PLUGINS_\AMETHYST2\AMETHYST\TABLES.CPP|C:\DEV\__REPOSITORY__\_H3ERA_PLUGINS_\AMETHYST2\AMETHYST\__ASSEMBLY__.CPP
C:\DEV\__REPOSITORY__\_H3ERA_PLUGINS_\AMETHYST2\AMETHYST\RELEASE\VC140.PDB
C:\DEV\__REPOSITORY__\_H3ERA_PLUGINS_\AMETHYST2\AMETHYST\RELEASE\TABLES.OBJ
C:\DEV\__REPOSITORY__\_H3ERA_PLUGINS_\AMETHYST2\AMETHYST\RELEASE\CREEXPO1024.OBJ
C:\DEV\__REPOSITORY__\_H3ERA_PLUGINS_\AMETHYST2\AMETHYST\RELEASE\CORE.OBJ
C:\DEV\__REPOSITORY__\_H3ERA_PLUGINS_\AMETHYST2\AMETHYST\RELEASE\AMETHYST.OBJ
C:\DEV\__REPOSITORY__\_H3ERA_PLUGINS_\AMETHYST2\AMETHYST\RELEASE\__ASSEMBLY__.OBJ
^C:\DEV\__REPOSITORY__\_H3ERA_PLUGINS_\AMETHYST2\AMETHYST\__ASSEMBLY__.CPP
C:\DEV\__REPOSITORY__\_H3ERA_PLUGINS_\AMETHYST2\AMETHYST\RELEASE\VC140.PDB
^C:\DEV\__REPOSITORY__\_H3ERA_PLUGINS_\AMETHYST2\AMETHYST\AMETHYST.CPP
C:\DEV\__REPOSITORY__\_H3ERA_PLUGINS_\AMETHYST2\AMETHYST\RELEASE\VC140.PDB
^C:\DEV\__REPOSITORY__\_H3ERA_PLUGINS_\AMETHYST2\AMETHYST\CREEXPO1024.CPP
C:\DEV\__REPOSITORY__\_H3ERA_PLUGINS_\AMETHYST2\AMETHYST\RELEASE\VC140.PDB
C:\DEV\__REPOSITORY__\_H3ERA_PLUGINS_\AMETHYST2\AMETHYST\RELEASE\CREEXPO1024.OBJ
^C:\DEV\__REPOSITORY__\_H3ERA_PLUGINS_\AMETHYST2\AMETHYST\CORE.CPP
C:\DEV\__REPOSITORY__\_H3ERA_PLUGINS_\AMETHYST2\AMETHYST\RELEASE\VC140.PDB
C:\DEV\__REPOSITORY__\_H3ERA_PLUGINS_\AMETHYST2\AMETHYST\RELEASE\CORE.OBJ
^C:\DEV\__REPOSITORY__\_H3ERA_PLUGINS_\AMETHYST2\AMETHYST\DLLMAIN.CPP
C:\DEV\__REPOSITORY__\_H3ERA_PLUGINS_\AMETHYST2\AMETHYST\RELEASE\VC140.PDB
C:\DEV\__REPOSITORY__\_H3ERA_PLUGINS_\AMETHYST2\AMETHYST\RELEASE\DLLMAIN.OBJ
^C:\DEV\__REPOSITORY__\_H3ERA_PLUGINS_\AMETHYST2\AMETHYST\TABLES.CPP
C:\DEV\__REPOSITORY__\_H3ERA_PLUGINS_\AMETHYST2\AMETHYST\RELEASE\VC140.PDB
C:\DEV\__REPOSITORY__\_H3ERA_PLUGINS_\AMETHYST2\AMETHYST\RELEASE\TABLES.OBJ
^C:\DEV\__REPOSITORY__\_H3ERA_PLUGINS_\AMETHYST2\AMETHYST\STDAFX.CPP
C:\DEV\__REPOSITORY__\_H3ERA_PLUGINS_\AMETHYST2\AMETHYST\RELEASE\AMETHYST2_4.PCH
C:\DEV\__REPOSITORY__\_H3ERA_PLUGINS_\AMETHYST2\AMETHYST\RELEASE\VC140.PDB
C:\DEV\__REPOSITORY__\_H3ERA_PLUGINS_\AMETHYST2\AMETHYST\RELEASE\STDAFX.OBJ
