^C:\DEV\__REPOSITORY__\_H3ERA_PLUGINS_\NEW_CHEATS\NEW_CHEATS\CHEATS.CPP
/c /ZI /nologo /W3 /WX- /sdl /Od /Oy- /D _MBCS /Gm /EHsc /RTC1 /MDd /GS /fp:precise /Zc:wchar_t /Zc:forScope /Zc:inline /Fo"DEBUG\\" /Fd"DEBUG\VC140.PDB" /Gd /TP /analyze- C:\DEV\__REPOSITORY__\_H3ERA_PLUGINS_\NEW_CHEATS\NEW_CHEATS\CHEATS.CPP
^C:\DEV\__REPOSITORY__\_H3ERA_PLUGINS_\NEW_CHEATS\__INCLUDE\ERA.CPP
/c /ZI /nologo /W3 /WX- /sdl /Od /Oy- /D _MBCS /Gm /EHsc /RTC1 /MDd /GS /fp:precise /Zc:wchar_t /Zc:forScope /Zc:inline /Fo"DEBUG\\" /Fd"DEBUG\VC140.PDB" /Gd /TP /analyze- C:\DEV\__REPOSITORY__\_H3ERA_PLUGINS_\NEW_CHEATS\__INCLUDE\ERA.CPP
^C:\DEV\__REPOSITORY__\_H3ERA_PLUGINS_\NEW_CHEATS\__INCLUDE\HEROES.CPP
/c /ZI /nologo /W3 /WX- /sdl /Od /Oy- /D _MBCS /Gm /EHsc /RTC1 /MDd /GS /fp:precise /Zc:wchar_t /Zc:forScope /Zc:inline /Fo"DEBUG\\" /Fd"DEBUG\VC140.PDB" /Gd /TP /analyze- C:\DEV\__REPOSITORY__\_H3ERA_PLUGINS_\NEW_CHEATS\__INCLUDE\HEROES.CPP
