^C:\DEV\__REPOSITORY__\_H3ERA_PLUGINS_\NEW_CHEATS\NEW_CHEATS\CHEATS.CPP|C:\DEV\__REPOSITORY__\_H3ERA_PLUGINS_\NEW_CHEATS\__INCLUDE\ERA.CPP|C:\DEV\__REPOSITORY__\_H3ERA_PLUGINS_\NEW_CHEATS\__INCLUDE\HEROES.CPP
C:\DEV\__REPOSITORY__\_H3ERA_PLUGINS_\NEW_CHEATS\PROJECT1\DEBUG\VC140.PDB
C:\DEV\__REPOSITORY__\_H3ERA_PLUGINS_\NEW_CHEATS\PROJECT1\DEBUG\VC140.IDB
C:\DEV\__REPOSITORY__\_H3ERA_PLUGINS_\NEW_CHEATS\PROJECT1\DEBUG\HEROES.OBJ
^C:\DEV\__REPOSITORY__\_H3ERA_PLUGINS_\NEW_CHEATS\NEW_CHEATS\CHEATS.CPP
C:\DEV\__REPOSITORY__\_H3ERA_PLUGINS_\NEW_CHEATS\PROJECT1\DEBUG\VC140.PDB
C:\DEV\__REPOSITORY__\_H3ERA_PLUGINS_\NEW_CHEATS\PROJECT1\DEBUG\VC140.IDB
C:\DEV\__REPOSITORY__\_H3ERA_PLUGINS_\NEW_CHEATS\PROJECT1\DEBUG\CHEATS.OBJ
^C:\DEV\__REPOSITORY__\_H3ERA_PLUGINS_\NEW_CHEATS\__INCLUDE\ERA.CPP
C:\DEV\__REPOSITORY__\_H3ERA_PLUGINS_\NEW_CHEATS\PROJECT1\DEBUG\VC140.PDB
^C:\DEV\__REPOSITORY__\_H3ERA_PLUGINS_\NEW_CHEATS\__INCLUDE\HEROES.CPP
C:\DEV\__REPOSITORY__\_H3ERA_PLUGINS_\NEW_CHEATS\PROJECT1\DEBUG\VC140.PDB
^C:\DEV\__REPOSITORY__\_H3ERA_PLUGINS_\NEW_CHEATS\NEW_CHEATS\CHEATS.CPP|C:\DEV\__REPOSITORY__\_H3ERA_PLUGINS_\NEW_CHEATS\__INCLUDE\ERA.CPP
C:\DEV\__REPOSITORY__\_H3ERA_PLUGINS_\NEW_CHEATS\PROJECT1\DEBUG\VC140.PDB
C:\DEV\__REPOSITORY__\_H3ERA_PLUGINS_\NEW_CHEATS\PROJECT1\DEBUG\VC140.IDB
C:\DEV\__REPOSITORY__\_H3ERA_PLUGINS_\NEW_CHEATS\PROJECT1\DEBUG\ERA.OBJ
