^C:\DEV\__REPOSITORY__\_H3ERA_PLUGINS_\__ WOG SOURCES (1)\AI.CPP|C:\DEV\__REPOSITORY__\_H3ERA_PLUGINS_\__ WOG SOURCES (1)\ANIM.CPP|C:\DEV\__REPOSITORY__\_H3ERA_PLUGINS_\__ WOG SOURCES (1)\ANIMDLG.CPP|C:\DEV\__REPOSITORY__\_H3ERA_PLUGINS_\__ WOG SOURCES (1)\ARTIFACT.CPP|C:\DEV\__REPOSITORY__\_H3ERA_PLUGINS_\__ WOG SOURCES (1)\CASDEM.CPP|C:\DEV\__REPOSITORY__\_H3ERA_PLUGINS_\__ WOG SOURCES (1)\COMMON.CPP|C:\DEV\__REPOSITORY__\_H3ERA_PLUGINS_\__ WOG SOURCES (1)\CREXPO.CPP|C:\DEV\__REPOSITORY__\_H3ERA_PLUGINS_\__ WOG SOURCES (1)\DLG.CPP|C:\DEV\__REPOSITORY__\_H3ERA_PLUGINS_\__ WOG SOURCES (1)\ERM.CPP|C:\DEV\__REPOSITORY__\_H3ERA_PLUGINS_\__ WOG SOURCES (1)\HEROSPEC.CPP|C:\DEV\__REPOSITORY__\_H3ERA_PLUGINS_\__ WOG SOURCES (1)\LOD.CPP|C:\DEV\__REPOSITORY__\_H3ERA_PLUGINS_\__ WOG SOURCES (1)\MONSTERS.CPP|C:\DEV\__REPOSITORY__\_H3ERA_PLUGINS_\__ WOG SOURCES (1)\NPC.CPP|C:\DEV\__REPOSITORY__\_H3ERA_PLUGINS_\__ WOG SOURCES (1)\SERVICE.CPP|C:\DEV\__REPOSITORY__\_H3ERA_PLUGINS_\__ WOG SOURCES (1)\SOUND.CPP|C:\DEV\__REPOSITORY__\_H3ERA_PLUGINS_\__ WOG SOURCES (1)\SPELL.CPP|C:\DEV\__REPOSITORY__\_H3ERA_PLUGINS_\__ WOG SOURCES (1)\STRING.CPP|C:\DEV\__REPOSITORY__\_H3ERA_PLUGINS_\__ WOG SOURCES (1)\TIMER.CPP|C:\DEV\__REPOSITORY__\_H3ERA_PLUGINS_\__ WOG SOURCES (1)\TXTFILE.CPP|C:\DEV\__REPOSITORY__\_H3ERA_PLUGINS_\__ WOG SOURCES (1)\WOGSETUP.CPP|C:\DEV\__REPOSITORY__\_H3ERA_PLUGINS_\__ WOG SOURCES (1)\WOMO.CPP|C:\DEV\__REPOSITORY__\_H3ERA_PLUGINS_\__ WOG SOURCES (1)\ZZZZ.CPP|C:\DEV\__REPOSITORY__\_H3ERA_PLUGINS_\__ WOG SOURCES (1)\_B1.CPP
C:\DEV\__REPOSITORY__\_H3ERA_PLUGINS_\__ WOG SOURCES (1)\RELEASE\VC140.PDB
C:\DEV\__REPOSITORY__\_H3ERA_PLUGINS_\__ WOG SOURCES (1)\RELEASE\AI.SBR
C:\DEV\__REPOSITORY__\_H3ERA_PLUGINS_\__ WOG SOURCES (1)\RELEASE\ANIM.SBR
C:\DEV\__REPOSITORY__\_H3ERA_PLUGINS_\__ WOG SOURCES (1)\RELEASE\ANIMDLG.SBR
C:\DEV\__REPOSITORY__\_H3ERA_PLUGINS_\__ WOG SOURCES (1)\RELEASE\ARTIFACT.SBR
C:\DEV\__REPOSITORY__\_H3ERA_PLUGINS_\__ WOG SOURCES (1)\RELEASE\CASDEM.SBR
C:\DEV\__REPOSITORY__\_H3ERA_PLUGINS_\__ WOG SOURCES (1)\RELEASE\COMMON.SBR
C:\DEV\__REPOSITORY__\_H3ERA_PLUGINS_\__ WOG SOURCES (1)\RELEASE\CREXPO.SBR
C:\DEV\__REPOSITORY__\_H3ERA_PLUGINS_\__ WOG SOURCES (1)\RELEASE\DLG.SBR
C:\DEV\__REPOSITORY__\_H3ERA_PLUGINS_\__ WOG SOURCES (1)\RELEASE\ERM.SBR
C:\DEV\__REPOSITORY__\_H3ERA_PLUGINS_\__ WOG SOURCES (1)\RELEASE\HEROSPEC.SBR
C:\DEV\__REPOSITORY__\_H3ERA_PLUGINS_\__ WOG SOURCES (1)\RELEASE\LOD.SBR
C:\DEV\__REPOSITORY__\_H3ERA_PLUGINS_\__ WOG SOURCES (1)\RELEASE\MONSTERS.SBR
C:\DEV\__REPOSITORY__\_H3ERA_PLUGINS_\__ WOG SOURCES (1)\RELEASE\NPC.SBR
C:\DEV\__REPOSITORY__\_H3ERA_PLUGINS_\__ WOG SOURCES (1)\RELEASE\SERVICE.SBR
C:\DEV\__REPOSITORY__\_H3ERA_PLUGINS_\__ WOG SOURCES (1)\RELEASE\SOUND.SBR
C:\DEV\__REPOSITORY__\_H3ERA_PLUGINS_\__ WOG SOURCES (1)\RELEASE\SPELL.SBR
C:\DEV\__REPOSITORY__\_H3ERA_PLUGINS_\__ WOG SOURCES (1)\RELEASE\STRING.SBR
C:\DEV\__REPOSITORY__\_H3ERA_PLUGINS_\__ WOG SOURCES (1)\RELEASE\TIMER.SBR
C:\DEV\__REPOSITORY__\_H3ERA_PLUGINS_\__ WOG SOURCES (1)\RELEASE\TXTFILE.SBR
C:\DEV\__REPOSITORY__\_H3ERA_PLUGINS_\__ WOG SOURCES (1)\RELEASE\WOGSETUP.SBR
C:\DEV\__REPOSITORY__\_H3ERA_PLUGINS_\__ WOG SOURCES (1)\RELEASE\WOGSETUP.OBJ
C:\DEV\__REPOSITORY__\_H3ERA_PLUGINS_\__ WOG SOURCES (1)\RELEASE\WOGSETUP.COD
C:\DEV\__REPOSITORY__\_H3ERA_PLUGINS_\__ WOG SOURCES (1)\RELEASE\TXTFILE.OBJ
C:\DEV\__REPOSITORY__\_H3ERA_PLUGINS_\__ WOG SOURCES (1)\RELEASE\TXTFILE.COD
C:\DEV\__REPOSITORY__\_H3ERA_PLUGINS_\__ WOG SOURCES (1)\RELEASE\TIMER.OBJ
C:\DEV\__REPOSITORY__\_H3ERA_PLUGINS_\__ WOG SOURCES (1)\RELEASE\TIMER.COD
C:\DEV\__REPOSITORY__\_H3ERA_PLUGINS_\__ WOG SOURCES (1)\RELEASE\STRING.OBJ
C:\DEV\__REPOSITORY__\_H3ERA_PLUGINS_\__ WOG SOURCES (1)\RELEASE\STRING.COD
C:\DEV\__REPOSITORY__\_H3ERA_PLUGINS_\__ WOG SOURCES (1)\RELEASE\SPELL.OBJ
C:\DEV\__REPOSITORY__\_H3ERA_PLUGINS_\__ WOG SOURCES (1)\RELEASE\SPELL.COD
C:\DEV\__REPOSITORY__\_H3ERA_PLUGINS_\__ WOG SOURCES (1)\RELEASE\SOUND.OBJ
C:\DEV\__REPOSITORY__\_H3ERA_PLUGINS_\__ WOG SOURCES (1)\RELEASE\SOUND.COD
C:\DEV\__REPOSITORY__\_H3ERA_PLUGINS_\__ WOG SOURCES (1)\RELEASE\SERVICE.OBJ
C:\DEV\__REPOSITORY__\_H3ERA_PLUGINS_\__ WOG SOURCES (1)\RELEASE\SERVICE.COD
C:\DEV\__REPOSITORY__\_H3ERA_PLUGINS_\__ WOG SOURCES (1)\RELEASE\LOD.OBJ
C:\DEV\__REPOSITORY__\_H3ERA_PLUGINS_\__ WOG SOURCES (1)\RELEASE\LOD.COD
C:\DEV\__REPOSITORY__\_H3ERA_PLUGINS_\__ WOG SOURCES (1)\RELEASE\CASDEM.OBJ
C:\DEV\__REPOSITORY__\_H3ERA_PLUGINS_\__ WOG SOURCES (1)\RELEASE\CASDEM.COD
C:\DEV\__REPOSITORY__\_H3ERA_PLUGINS_\__ WOG SOURCES (1)\RELEASE\ARTIFACT.OBJ
C:\DEV\__REPOSITORY__\_H3ERA_PLUGINS_\__ WOG SOURCES (1)\RELEASE\ARTIFACT.COD
C:\DEV\__REPOSITORY__\_H3ERA_PLUGINS_\__ WOG SOURCES (1)\RELEASE\ANIMDLG.OBJ
C:\DEV\__REPOSITORY__\_H3ERA_PLUGINS_\__ WOG SOURCES (1)\RELEASE\ANIMDLG.COD
C:\DEV\__REPOSITORY__\_H3ERA_PLUGINS_\__ WOG SOURCES (1)\RELEASE\ANIM.OBJ
C:\DEV\__REPOSITORY__\_H3ERA_PLUGINS_\__ WOG SOURCES (1)\RELEASE\ANIM.COD
C:\DEV\__REPOSITORY__\_H3ERA_PLUGINS_\__ WOG SOURCES (1)\RELEASE\WOMO.SBR
C:\DEV\__REPOSITORY__\_H3ERA_PLUGINS_\__ WOG SOURCES (1)\RELEASE\ZZZZ.SBR
C:\DEV\__REPOSITORY__\_H3ERA_PLUGINS_\__ WOG SOURCES (1)\RELEASE\_B1.SBR
C:\DEV\__REPOSITORY__\_H3ERA_PLUGINS_\__ WOG SOURCES (1)\RELEASE\ZZZZ.OBJ
C:\DEV\__REPOSITORY__\_H3ERA_PLUGINS_\__ WOG SOURCES (1)\RELEASE\ZZZZ.COD
^C:\DEV\__REPOSITORY__\_H3ERA_PLUGINS_\__ WOG SOURCES (1)\ANIM.CPP
C:\DEV\__REPOSITORY__\_H3ERA_PLUGINS_\__ WOG SOURCES (1)\RELEASE\ANIM.OBJ
C:\DEV\__REPOSITORY__\_H3ERA_PLUGINS_\__ WOG SOURCES (1)\RELEASE\
^C:\DEV\__REPOSITORY__\_H3ERA_PLUGINS_\__ WOG SOURCES (1)\ANIMDLG.CPP
C:\DEV\__REPOSITORY__\_H3ERA_PLUGINS_\__ WOG SOURCES (1)\RELEASE\ANIMDLG.OBJ
C:\DEV\__REPOSITORY__\_H3ERA_PLUGINS_\__ WOG SOURCES (1)\RELEASE\
^C:\DEV\__REPOSITORY__\_H3ERA_PLUGINS_\__ WOG SOURCES (1)\ARTIFACT.CPP
C:\DEV\__REPOSITORY__\_H3ERA_PLUGINS_\__ WOG SOURCES (1)\RELEASE\ARTIFACT.OBJ
C:\DEV\__REPOSITORY__\_H3ERA_PLUGINS_\__ WOG SOURCES (1)\RELEASE\
^C:\DEV\__REPOSITORY__\_H3ERA_PLUGINS_\__ WOG SOURCES (1)\CASDEM.CPP
C:\DEV\__REPOSITORY__\_H3ERA_PLUGINS_\__ WOG SOURCES (1)\RELEASE\CASDEM.OBJ
C:\DEV\__REPOSITORY__\_H3ERA_PLUGINS_\__ WOG SOURCES (1)\RELEASE\
^C:\DEV\__REPOSITORY__\_H3ERA_PLUGINS_\__ WOG SOURCES (1)\LOD.CPP
C:\DEV\__REPOSITORY__\_H3ERA_PLUGINS_\__ WOG SOURCES (1)\RELEASE\LOD.OBJ
C:\DEV\__REPOSITORY__\_H3ERA_PLUGINS_\__ WOG SOURCES (1)\RELEASE\
^C:\DEV\__REPOSITORY__\_H3ERA_PLUGINS_\__ WOG SOURCES (1)\SERVICE.CPP
C:\DEV\__REPOSITORY__\_H3ERA_PLUGINS_\__ WOG SOURCES (1)\RELEASE\SERVICE.OBJ
C:\DEV\__REPOSITORY__\_H3ERA_PLUGINS_\__ WOG SOURCES (1)\RELEASE\
^C:\DEV\__REPOSITORY__\_H3ERA_PLUGINS_\__ WOG SOURCES (1)\SOUND.CPP
C:\DEV\__REPOSITORY__\_H3ERA_PLUGINS_\__ WOG SOURCES (1)\RELEASE\SOUND.OBJ
C:\DEV\__REPOSITORY__\_H3ERA_PLUGINS_\__ WOG SOURCES (1)\RELEASE\
^C:\DEV\__REPOSITORY__\_H3ERA_PLUGINS_\__ WOG SOURCES (1)\SPELL.CPP
C:\DEV\__REPOSITORY__\_H3ERA_PLUGINS_\__ WOG SOURCES (1)\RELEASE\SPELL.OBJ
C:\DEV\__REPOSITORY__\_H3ERA_PLUGINS_\__ WOG SOURCES (1)\RELEASE\
^C:\DEV\__REPOSITORY__\_H3ERA_PLUGINS_\__ WOG SOURCES (1)\STRING.CPP
C:\DEV\__REPOSITORY__\_H3ERA_PLUGINS_\__ WOG SOURCES (1)\RELEASE\STRING.OBJ
C:\DEV\__REPOSITORY__\_H3ERA_PLUGINS_\__ WOG SOURCES (1)\RELEASE\
^C:\DEV\__REPOSITORY__\_H3ERA_PLUGINS_\__ WOG SOURCES (1)\TIMER.CPP
C:\DEV\__REPOSITORY__\_H3ERA_PLUGINS_\__ WOG SOURCES (1)\RELEASE\TIMER.OBJ
C:\DEV\__REPOSITORY__\_H3ERA_PLUGINS_\__ WOG SOURCES (1)\RELEASE\
^C:\DEV\__REPOSITORY__\_H3ERA_PLUGINS_\__ WOG SOURCES (1)\TXTFILE.CPP
C:\DEV\__REPOSITORY__\_H3ERA_PLUGINS_\__ WOG SOURCES (1)\RELEASE\TXTFILE.OBJ
C:\DEV\__REPOSITORY__\_H3ERA_PLUGINS_\__ WOG SOURCES (1)\RELEASE\
^C:\DEV\__REPOSITORY__\_H3ERA_PLUGINS_\__ WOG SOURCES (1)\WOGSETUP.CPP
C:\DEV\__REPOSITORY__\_H3ERA_PLUGINS_\__ WOG SOURCES (1)\RELEASE\WOGSETUP.OBJ
C:\DEV\__REPOSITORY__\_H3ERA_PLUGINS_\__ WOG SOURCES (1)\RELEASE\
^C:\DEV\__REPOSITORY__\_H3ERA_PLUGINS_\__ WOG SOURCES (1)\ZZZZ.CPP
C:\DEV\__REPOSITORY__\_H3ERA_PLUGINS_\__ WOG SOURCES (1)\RELEASE\ZZZZ.OBJ
C:\DEV\__REPOSITORY__\_H3ERA_PLUGINS_\__ WOG SOURCES (1)\RELEASE\
^C:\DEV\__REPOSITORY__\_H3ERA_PLUGINS_\__ WOG SOURCES (1)\AI.CPP|C:\DEV\__REPOSITORY__\_H3ERA_PLUGINS_\__ WOG SOURCES (1)\COMMON.CPP|C:\DEV\__REPOSITORY__\_H3ERA_PLUGINS_\__ WOG SOURCES (1)\CREXPO.CPP|C:\DEV\__REPOSITORY__\_H3ERA_PLUGINS_\__ WOG SOURCES (1)\DLG.CPP|C:\DEV\__REPOSITORY__\_H3ERA_PLUGINS_\__ WOG SOURCES (1)\ERM.CPP|C:\DEV\__REPOSITORY__\_H3ERA_PLUGINS_\__ WOG SOURCES (1)\HEROSPEC.CPP|C:\DEV\__REPOSITORY__\_H3ERA_PLUGINS_\__ WOG SOURCES (1)\MONSTERS.CPP|C:\DEV\__REPOSITORY__\_H3ERA_PLUGINS_\__ WOG SOURCES (1)\NPC.CPP|C:\DEV\__REPOSITORY__\_H3ERA_PLUGINS_\__ WOG SOURCES (1)\WOMO.CPP|C:\DEV\__REPOSITORY__\_H3ERA_PLUGINS_\__ WOG SOURCES (1)\_B1.CPP
C:\DEV\__REPOSITORY__\_H3ERA_PLUGINS_\__ WOG SOURCES (1)\RELEASE\VC140.PDB
C:\DEV\__REPOSITORY__\_H3ERA_PLUGINS_\__ WOG SOURCES (1)\RELEASE\AI.SBR
C:\DEV\__REPOSITORY__\_H3ERA_PLUGINS_\__ WOG SOURCES (1)\RELEASE\COMMON.SBR
C:\DEV\__REPOSITORY__\_H3ERA_PLUGINS_\__ WOG SOURCES (1)\RELEASE\CREXPO.SBR
C:\DEV\__REPOSITORY__\_H3ERA_PLUGINS_\__ WOG SOURCES (1)\RELEASE\DLG.SBR
C:\DEV\__REPOSITORY__\_H3ERA_PLUGINS_\__ WOG SOURCES (1)\RELEASE\ERM.SBR
C:\DEV\__REPOSITORY__\_H3ERA_PLUGINS_\__ WOG SOURCES (1)\RELEASE\HEROSPEC.SBR
C:\DEV\__REPOSITORY__\_H3ERA_PLUGINS_\__ WOG SOURCES (1)\RELEASE\MONSTERS.SBR
C:\DEV\__REPOSITORY__\_H3ERA_PLUGINS_\__ WOG SOURCES (1)\RELEASE\NPC.SBR
C:\DEV\__REPOSITORY__\_H3ERA_PLUGINS_\__ WOG SOURCES (1)\RELEASE\WOMO.SBR
C:\DEV\__REPOSITORY__\_H3ERA_PLUGINS_\__ WOG SOURCES (1)\RELEASE\_B1.SBR
C:\DEV\__REPOSITORY__\_H3ERA_PLUGINS_\__ WOG SOURCES (1)\RELEASE\NPC.OBJ
C:\DEV\__REPOSITORY__\_H3ERA_PLUGINS_\__ WOG SOURCES (1)\RELEASE\NPC.COD
C:\DEV\__REPOSITORY__\_H3ERA_PLUGINS_\__ WOG SOURCES (1)\RELEASE\HEROSPEC.OBJ
C:\DEV\__REPOSITORY__\_H3ERA_PLUGINS_\__ WOG SOURCES (1)\RELEASE\HEROSPEC.COD
C:\DEV\__REPOSITORY__\_H3ERA_PLUGINS_\__ WOG SOURCES (1)\RELEASE\CREXPO.OBJ
C:\DEV\__REPOSITORY__\_H3ERA_PLUGINS_\__ WOG SOURCES (1)\RELEASE\CREXPO.COD
C:\DEV\__REPOSITORY__\_H3ERA_PLUGINS_\__ WOG SOURCES (1)\RELEASE\COMMON.OBJ
C:\DEV\__REPOSITORY__\_H3ERA_PLUGINS_\__ WOG SOURCES (1)\RELEASE\COMMON.COD
^C:\DEV\__REPOSITORY__\_H3ERA_PLUGINS_\__ WOG SOURCES (1)\COMMON.CPP
C:\DEV\__REPOSITORY__\_H3ERA_PLUGINS_\__ WOG SOURCES (1)\RELEASE\COMMON.OBJ
C:\DEV\__REPOSITORY__\_H3ERA_PLUGINS_\__ WOG SOURCES (1)\RELEASE\COMMON.SBR
^C:\DEV\__REPOSITORY__\_H3ERA_PLUGINS_\__ WOG SOURCES (1)\CREXPO.CPP
C:\DEV\__REPOSITORY__\_H3ERA_PLUGINS_\__ WOG SOURCES (1)\RELEASE\CREXPO.OBJ
C:\DEV\__REPOSITORY__\_H3ERA_PLUGINS_\__ WOG SOURCES (1)\RELEASE\CREXPO.SBR
^C:\DEV\__REPOSITORY__\_H3ERA_PLUGINS_\__ WOG SOURCES (1)\HEROSPEC.CPP
C:\DEV\__REPOSITORY__\_H3ERA_PLUGINS_\__ WOG SOURCES (1)\RELEASE\HEROSPEC.OBJ
C:\DEV\__REPOSITORY__\_H3ERA_PLUGINS_\__ WOG SOURCES (1)\RELEASE\HEROSPEC.SBR
^C:\DEV\__REPOSITORY__\_H3ERA_PLUGINS_\__ WOG SOURCES (1)\NPC.CPP
C:\DEV\__REPOSITORY__\_H3ERA_PLUGINS_\__ WOG SOURCES (1)\RELEASE\NPC.OBJ
C:\DEV\__REPOSITORY__\_H3ERA_PLUGINS_\__ WOG SOURCES (1)\RELEASE\NPC.SBR
^C:\DEV\__REPOSITORY__\_H3ERA_PLUGINS_\__ WOG SOURCES (1)\AI.CPP|C:\DEV\__REPOSITORY__\_H3ERA_PLUGINS_\__ WOG SOURCES (1)\DLG.CPP|C:\DEV\__REPOSITORY__\_H3ERA_PLUGINS_\__ WOG SOURCES (1)\ERM.CPP|C:\DEV\__REPOSITORY__\_H3ERA_PLUGINS_\__ WOG SOURCES (1)\MONSTERS.CPP|C:\DEV\__REPOSITORY__\_H3ERA_PLUGINS_\__ WOG SOURCES (1)\WOMO.CPP|C:\DEV\__REPOSITORY__\_H3ERA_PLUGINS_\__ WOG SOURCES (1)\_B1.CPP
C:\DEV\__REPOSITORY__\_H3ERA_PLUGINS_\__ WOG SOURCES (1)\RELEASE\VC140.PDB
C:\DEV\__REPOSITORY__\_H3ERA_PLUGINS_\__ WOG SOURCES (1)\RELEASE\AI.SBR
C:\DEV\__REPOSITORY__\_H3ERA_PLUGINS_\__ WOG SOURCES (1)\RELEASE\DLG.SBR
C:\DEV\__REPOSITORY__\_H3ERA_PLUGINS_\__ WOG SOURCES (1)\RELEASE\ERM.SBR
C:\DEV\__REPOSITORY__\_H3ERA_PLUGINS_\__ WOG SOURCES (1)\RELEASE\MONSTERS.SBR
C:\DEV\__REPOSITORY__\_H3ERA_PLUGINS_\__ WOG SOURCES (1)\RELEASE\WOMO.SBR
C:\DEV\__REPOSITORY__\_H3ERA_PLUGINS_\__ WOG SOURCES (1)\RELEASE\_B1.SBR
C:\DEV\__REPOSITORY__\_H3ERA_PLUGINS_\__ WOG SOURCES (1)\RELEASE\WOMO.OBJ
C:\DEV\__REPOSITORY__\_H3ERA_PLUGINS_\__ WOG SOURCES (1)\RELEASE\WOMO.COD
C:\DEV\__REPOSITORY__\_H3ERA_PLUGINS_\__ WOG SOURCES (1)\RELEASE\ERM.OBJ
C:\DEV\__REPOSITORY__\_H3ERA_PLUGINS_\__ WOG SOURCES (1)\RELEASE\ERM.COD
C:\DEV\__REPOSITORY__\_H3ERA_PLUGINS_\__ WOG SOURCES (1)\RELEASE\AI.OBJ
C:\DEV\__REPOSITORY__\_H3ERA_PLUGINS_\__ WOG SOURCES (1)\RELEASE\AI.COD
^C:\DEV\__REPOSITORY__\_H3ERA_PLUGINS_\__ WOG SOURCES (1)\AI.CPP
C:\DEV\__REPOSITORY__\_H3ERA_PLUGINS_\__ WOG SOURCES (1)\RELEASE\AI.OBJ
C:\DEV\__REPOSITORY__\_H3ERA_PLUGINS_\__ WOG SOURCES (1)\RELEASE\AI.SBR
^C:\DEV\__REPOSITORY__\_H3ERA_PLUGINS_\__ WOG SOURCES (1)\ERM.CPP
C:\DEV\__REPOSITORY__\_H3ERA_PLUGINS_\__ WOG SOURCES (1)\RELEASE\ERM.OBJ
C:\DEV\__REPOSITORY__\_H3ERA_PLUGINS_\__ WOG SOURCES (1)\RELEASE\ERM.SBR
^C:\DEV\__REPOSITORY__\_H3ERA_PLUGINS_\__ WOG SOURCES (1)\WOMO.CPP
C:\DEV\__REPOSITORY__\_H3ERA_PLUGINS_\__ WOG SOURCES (1)\RELEASE\WOMO.OBJ
C:\DEV\__REPOSITORY__\_H3ERA_PLUGINS_\__ WOG SOURCES (1)\RELEASE\WOMO.SBR
