^F:\__REPOSITORY__\_H3ERA_PLUGINS_\ELEMLORD\ELEMLORD\ELEMLORD.CPP|F:\__REPOSITORY__\_H3ERA_PLUGINS_\ELEMLORD\ERA.CPP|F:\__REPOSITORY__\_H3ERA_PLUGINS_\ELEMLORD\HEROES.CPP
F:\__REPOSITORY__\_H3ERA_PLUGINS_\ELEMLORD\ELEMLORD\DEBUG\VC140.PDB
F:\__REPOSITORY__\_H3ERA_PLUGINS_\ELEMLORD\ELEMLORD\DEBUG\VC140.IDB
F:\__REPOSITORY__\_H3ERA_PLUGINS_\ELEMLORD\ELEMLORD\DEBUG\HEROES.OBJ
F:\__REPOSITORY__\_H3ERA_PLUGINS_\ELEMLORD\ELEMLORD\DEBUG\ELEMLORD.OBJ
^F:\__REPOSITORY__\_H3ERA_PLUGINS_\ELEMLORD\ERA.CPP
F:\__REPOSITORY__\_H3ERA_PLUGINS_\ELEMLORD\ELEMLORD\DEBUG\VC140.PDB
^F:\__REPOSITORY__\_H3ERA_PLUGINS_\ELEMLORD\HEROES.CPP
F:\__REPOSITORY__\_H3ERA_PLUGINS_\ELEMLORD\ELEMLORD\DEBUG\VC140.PDB
^F:\__REPOSITORY__\_H3ERA_PLUGINS_\ELEMLORD\ELEMLORD\ELEMLORD.CPP
F:\__REPOSITORY__\_H3ERA_PLUGINS_\ELEMLORD\ELEMLORD\DEBUG\VC140.PDB
F:\__REPOSITORY__\_H3ERA_PLUGINS_\ELEMLORD\ELEMLORD\DEBUG\VC140.IDB
F:\__REPOSITORY__\_H3ERA_PLUGINS_\ELEMLORD\ELEMLORD\DEBUG\ELEMLORD.OBJ
