; Applies to = Memory
; Generator  = BinMagic
0071804D 03
00718052 16
0071840A 16
0071840D 03
00718425 03
0071842A 16
00718447 03
0071844C 16
0071853E 16
00718542 03
007192D7 16
007192DB 03
00719308 03
0071930D 16
0071943E 16
0071944C 03
00719477 16
0071947B 03
00726D74 03
00726D79 16
00726DAD 16
00726DB0 03
00727304 03
00727309 16
0072748F 03
00727494 16
0072787A 16
0072787E 03
00727B4E 16
00727B52 03
00727C89 16
00727C8D 03
00727CC9 16
00727CCD 03
007398F2 16
007398F6 03
00739939 16
0073993C 03
00739947 03
0073994C 16
00739968 16
0073996C 03
0073997D 03
00739982 16
0073AC26 16
0073AC29 03
0073AC4E 03
0073AC53 16
0073CA9B 16
0073CA9E 03
0073CAC7 03
0073CACC 16
0073CB2D 16
0073CB30 03
0073CBBD 03
0073CBC2 16
0076213A 03
0076213F 16
00766547 16
0076654A 03
00766569 03
0076656E 16
00766726 16
0076672A 03
00766746 03
0076674B 16
