^C:\USERS\MAJC89\DOCUMENTS\DEVELOPMENT\HEROES3.5_REPO\_PLUGINS_\NEW_WAR_MACHINES\PROJECT1\DEBUG\MACHINES.OBJ|C:\USERS\MAJC89\DOCUMENTS\DEVELOPMENT\HEROES3.5_REPO\_PLUGINS_\NEW_WAR_MACHINES\PROJECT1\DEBUG\PUTSTACK.OBJ
/OUT:"C:\USERS\MAJC89\DOCUMENTS\DEVELOPMENT\HEROES3.5_REPO\_PLUGINS_\NEW_WAR_MACHINES\PROJECT1\DEBUG\KNIGHTMARE WAR MACHINES.ERA" /INCREMENTAL /NOLOGO KERNEL32.LIB USER32.LIB GDI32.LIB WINSPOOL.LIB COMDLG32.LIB ADVAPI32.LIB SHELL32.LIB OLE32.LIB OLEAUT32.LIB UUID.LIB ODBC32.LIB ODBCCP32.LIB /MANIFEST /MANIFESTUAC:"level='asInvoker' uiAccess='false'" /manifest:embed /DEBUG:FASTLINK /PDB:"C:\USERS\MAJC89\DOCUMENTS\DEVELOPMENT\HEROES3.5_REPO\_PLUGINS_\NEW_WAR_MACHINES\PROJECT1\DEBUG\KNIGHTMARE WAR MACHINES.PDB" /SUBSYSTEM:WINDOWS /TLBID:1 /DYNAMICBASE /NXCOMPAT /IMPLIB:"C:\USERS\MAJC89\DOCUMENTS\DEVELOPMENT\HEROES3.5_REPO\_PLUGINS_\NEW_WAR_MACHINES\PROJECT1\DEBUG\KNIGHTMARE WAR MACHINES.LIB" /MACHINE:X86 /DLL DEBUG\MACHINES.OBJDEBUG\PUTSTACK.OBJ
^F:\__REPOSITORY__\KNIGHTMARE_KINGDOMS\_PLUGINS_\NEW_WAR_MACHINES\PROJECT1\DEBUG\MACHINES.OBJ|F:\__REPOSITORY__\KNIGHTMARE_KINGDOMS\_PLUGINS_\NEW_WAR_MACHINES\PROJECT1\DEBUG\PUTSTACK.OBJ
/OUT:"F:\__REPOSITORY__\KNIGHTMARE_KINGDOMS\_PLUGINS_\NEW_WAR_MACHINES\PROJECT1\DEBUG\KNIGHTMARE WAR MACHINES.ERA" /INCREMENTAL /NOLOGO KERNEL32.LIB USER32.LIB GDI32.LIB WINSPOOL.LIB COMDLG32.LIB ADVAPI32.LIB SHELL32.LIB OLE32.LIB OLEAUT32.LIB UUID.LIB ODBC32.LIB ODBCCP32.LIB /MANIFEST /MANIFESTUAC:"level='asInvoker' uiAccess='false'" /manifest:embed /DEBUG:FASTLINK /PDB:"F:\__REPOSITORY__\KNIGHTMARE_KINGDOMS\_PLUGINS_\NEW_WAR_MACHINES\PROJECT1\DEBUG\KNIGHTMARE WAR MACHINES.PDB" /SUBSYSTEM:WINDOWS /TLBID:1 /DYNAMICBASE /NXCOMPAT /IMPLIB:"F:\__REPOSITORY__\KNIGHTMARE_KINGDOMS\_PLUGINS_\NEW_WAR_MACHINES\PROJECT1\DEBUG\KNIGHTMARE WAR MACHINES.LIB" /MACHINE:X86 /DLL DEBUG\MACHINES.OBJDEBUG\PUTSTACK.OBJ
