^C:\Users\MAJC89\Documents\Development\heroes3.5_repo\_Plugins_\new_war_machines\Project1\Project1.vcxproj
C:\Users\MAJC89\Documents\Development\heroes3.5_repo\_Plugins_\new_war_machines\Project1\Debug\Knightmare War Machines.lib
C:\Users\MAJC89\Documents\Development\heroes3.5_repo\_Plugins_\new_war_machines\Project1\Debug\Knightmare War Machines.exp
^F:\__REPOSITORY__\knightmare_kingdoms\_Plugins_\new_war_machines\Project1\Project1.vcxproj
F:\__REPOSITORY__\knightmare_kingdoms\_Plugins_\new_war_machines\Project1\Debug\Knightmare War Machines.lib
F:\__REPOSITORY__\knightmare_kingdoms\_Plugins_\new_war_machines\Project1\Debug\Knightmare War Machines.exp
