^C:\DEV\__REPOSITORY__\_H3ERA_PLUGINS_\__ WOG SOURCES (1)\AI.CPP|C:\DEV\__REPOSITORY__\_H3ERA_PLUGINS_\__ WOG SOURCES (1)\ANIM.CPP|C:\DEV\__REPOSITORY__\_H3ERA_PLUGINS_\__ WOG SOURCES (1)\ARTIFACT.CPP|C:\DEV\__REPOSITORY__\_H3ERA_PLUGINS_\__ WOG SOURCES (1)\CASDEM.CPP|C:\DEV\__REPOSITORY__\_H3ERA_PLUGINS_\__ WOG SOURCES (1)\COMMON.CPP|C:\DEV\__REPOSITORY__\_H3ERA_PLUGINS_\__ WOG SOURCES (1)\CREXPO.CPP|C:\DEV\__REPOSITORY__\_H3ERA_PLUGINS_\__ WOG SOURCES (1)\ERM.CPP|C:\DEV\__REPOSITORY__\_H3ERA_PLUGINS_\__ WOG SOURCES (1)\HEROSPEC.CPP|C:\DEV\__REPOSITORY__\_H3ERA_PLUGINS_\__ WOG SOURCES (1)\MONSTERS.CPP|C:\DEV\__REPOSITORY__\_H3ERA_PLUGINS_\__ WOG SOURCES (1)\NPC.CPP|C:\DEV\__REPOSITORY__\_H3ERA_PLUGINS_\__ WOG SOURCES (1)\SERVICE.CPP|C:\DEV\__REPOSITORY__\_H3ERA_PLUGINS_\__ WOG SOURCES (1)\SOUND.CPP|C:\DEV\__REPOSITORY__\_H3ERA_PLUGINS_\__ WOG SOURCES (1)\STRING.CPP|C:\DEV\__REPOSITORY__\_H3ERA_PLUGINS_\__ WOG SOURCES (1)\TXTFILE.CPP|C:\DEV\__REPOSITORY__\_H3ERA_PLUGINS_\__ WOG SOURCES (1)\WOGSETUP.CPP|C:\DEV\__REPOSITORY__\_H3ERA_PLUGINS_\__ WOG SOURCES (1)\WOMO.CPP
C:\DEV\__REPOSITORY__\_H3ERA_PLUGINS_\__ WOG SOURCES (1)\DEBUG\VC140.PDB
C:\DEV\__REPOSITORY__\_H3ERA_PLUGINS_\__ WOG SOURCES (1)\DEBUG\AI.SBR
C:\DEV\__REPOSITORY__\_H3ERA_PLUGINS_\__ WOG SOURCES (1)\DEBUG\ANIM.SBR
C:\DEV\__REPOSITORY__\_H3ERA_PLUGINS_\__ WOG SOURCES (1)\DEBUG\ARTIFACT.SBR
C:\DEV\__REPOSITORY__\_H3ERA_PLUGINS_\__ WOG SOURCES (1)\DEBUG\CASDEM.SBR
C:\DEV\__REPOSITORY__\_H3ERA_PLUGINS_\__ WOG SOURCES (1)\DEBUG\COMMON.SBR
C:\DEV\__REPOSITORY__\_H3ERA_PLUGINS_\__ WOG SOURCES (1)\DEBUG\CREXPO.SBR
C:\DEV\__REPOSITORY__\_H3ERA_PLUGINS_\__ WOG SOURCES (1)\DEBUG\ERM.SBR
C:\DEV\__REPOSITORY__\_H3ERA_PLUGINS_\__ WOG SOURCES (1)\DEBUG\HEROSPEC.SBR
C:\DEV\__REPOSITORY__\_H3ERA_PLUGINS_\__ WOG SOURCES (1)\DEBUG\MONSTERS.SBR
C:\DEV\__REPOSITORY__\_H3ERA_PLUGINS_\__ WOG SOURCES (1)\DEBUG\NPC.SBR
C:\DEV\__REPOSITORY__\_H3ERA_PLUGINS_\__ WOG SOURCES (1)\DEBUG\SERVICE.SBR
C:\DEV\__REPOSITORY__\_H3ERA_PLUGINS_\__ WOG SOURCES (1)\DEBUG\SOUND.SBR
C:\DEV\__REPOSITORY__\_H3ERA_PLUGINS_\__ WOG SOURCES (1)\DEBUG\STRING.SBR
C:\DEV\__REPOSITORY__\_H3ERA_PLUGINS_\__ WOG SOURCES (1)\DEBUG\TXTFILE.SBR
C:\DEV\__REPOSITORY__\_H3ERA_PLUGINS_\__ WOG SOURCES (1)\DEBUG\WOGSETUP.SBR
C:\DEV\__REPOSITORY__\_H3ERA_PLUGINS_\__ WOG SOURCES (1)\DEBUG\WOMO.SBR
C:\DEV\__REPOSITORY__\_H3ERA_PLUGINS_\__ WOG SOURCES (1)\DEBUG\TXTFILE.OBJ
C:\DEV\__REPOSITORY__\_H3ERA_PLUGINS_\__ WOG SOURCES (1)\DEBUG\TXTFILE.COD
C:\DEV\__REPOSITORY__\_H3ERA_PLUGINS_\__ WOG SOURCES (1)\DEBUG\STRING.OBJ
C:\DEV\__REPOSITORY__\_H3ERA_PLUGINS_\__ WOG SOURCES (1)\DEBUG\STRING.COD
C:\DEV\__REPOSITORY__\_H3ERA_PLUGINS_\__ WOG SOURCES (1)\DEBUG\SERVICE.OBJ
C:\DEV\__REPOSITORY__\_H3ERA_PLUGINS_\__ WOG SOURCES (1)\DEBUG\SERVICE.COD
C:\DEV\__REPOSITORY__\_H3ERA_PLUGINS_\__ WOG SOURCES (1)\DEBUG\CASDEM.OBJ
C:\DEV\__REPOSITORY__\_H3ERA_PLUGINS_\__ WOG SOURCES (1)\DEBUG\CASDEM.COD
C:\DEV\__REPOSITORY__\_H3ERA_PLUGINS_\__ WOG SOURCES (1)\DEBUG\ARTIFACT.OBJ
C:\DEV\__REPOSITORY__\_H3ERA_PLUGINS_\__ WOG SOURCES (1)\DEBUG\ARTIFACT.COD
C:\DEV\__REPOSITORY__\_H3ERA_PLUGINS_\__ WOG SOURCES (1)\DEBUG\ANIM.OBJ
C:\DEV\__REPOSITORY__\_H3ERA_PLUGINS_\__ WOG SOURCES (1)\DEBUG\ANIM.COD
^C:\DEV\__REPOSITORY__\_H3ERA_PLUGINS_\__ WOG SOURCES (1)\ANIM.CPP
C:\DEV\__REPOSITORY__\_H3ERA_PLUGINS_\__ WOG SOURCES (1)\DEBUG\ANIM.OBJ
C:\DEV\__REPOSITORY__\_H3ERA_PLUGINS_\__ WOG SOURCES (1)\DEBUG\
^C:\DEV\__REPOSITORY__\_H3ERA_PLUGINS_\__ WOG SOURCES (1)\ARTIFACT.CPP
C:\DEV\__REPOSITORY__\_H3ERA_PLUGINS_\__ WOG SOURCES (1)\DEBUG\ARTIFACT.OBJ
C:\DEV\__REPOSITORY__\_H3ERA_PLUGINS_\__ WOG SOURCES (1)\DEBUG\
^C:\DEV\__REPOSITORY__\_H3ERA_PLUGINS_\__ WOG SOURCES (1)\CASDEM.CPP
C:\DEV\__REPOSITORY__\_H3ERA_PLUGINS_\__ WOG SOURCES (1)\DEBUG\CASDEM.OBJ
C:\DEV\__REPOSITORY__\_H3ERA_PLUGINS_\__ WOG SOURCES (1)\DEBUG\
^C:\DEV\__REPOSITORY__\_H3ERA_PLUGINS_\__ WOG SOURCES (1)\SERVICE.CPP
C:\DEV\__REPOSITORY__\_H3ERA_PLUGINS_\__ WOG SOURCES (1)\DEBUG\SERVICE.OBJ
C:\DEV\__REPOSITORY__\_H3ERA_PLUGINS_\__ WOG SOURCES (1)\DEBUG\
^C:\DEV\__REPOSITORY__\_H3ERA_PLUGINS_\__ WOG SOURCES (1)\STRING.CPP
C:\DEV\__REPOSITORY__\_H3ERA_PLUGINS_\__ WOG SOURCES (1)\DEBUG\STRING.OBJ
C:\DEV\__REPOSITORY__\_H3ERA_PLUGINS_\__ WOG SOURCES (1)\DEBUG\
^C:\DEV\__REPOSITORY__\_H3ERA_PLUGINS_\__ WOG SOURCES (1)\TXTFILE.CPP
C:\DEV\__REPOSITORY__\_H3ERA_PLUGINS_\__ WOG SOURCES (1)\DEBUG\TXTFILE.OBJ
C:\DEV\__REPOSITORY__\_H3ERA_PLUGINS_\__ WOG SOURCES (1)\DEBUG\
^C:\DEV\__REPOSITORY__\_H3ERA_PLUGINS_\__ WOG SOURCES (1)\AI.CPP|C:\DEV\__REPOSITORY__\_H3ERA_PLUGINS_\__ WOG SOURCES (1)\COMMON.CPP|C:\DEV\__REPOSITORY__\_H3ERA_PLUGINS_\__ WOG SOURCES (1)\CREXPO.CPP|C:\DEV\__REPOSITORY__\_H3ERA_PLUGINS_\__ WOG SOURCES (1)\ERM.CPP|C:\DEV\__REPOSITORY__\_H3ERA_PLUGINS_\__ WOG SOURCES (1)\HEROSPEC.CPP|C:\DEV\__REPOSITORY__\_H3ERA_PLUGINS_\__ WOG SOURCES (1)\MONSTERS.CPP|C:\DEV\__REPOSITORY__\_H3ERA_PLUGINS_\__ WOG SOURCES (1)\NPC.CPP|C:\DEV\__REPOSITORY__\_H3ERA_PLUGINS_\__ WOG SOURCES (1)\SOUND.CPP|C:\DEV\__REPOSITORY__\_H3ERA_PLUGINS_\__ WOG SOURCES (1)\WOGSETUP.CPP|C:\DEV\__REPOSITORY__\_H3ERA_PLUGINS_\__ WOG SOURCES (1)\WOMO.CPP
C:\DEV\__REPOSITORY__\_H3ERA_PLUGINS_\__ WOG SOURCES (1)\DEBUG\VC140.PDB
C:\DEV\__REPOSITORY__\_H3ERA_PLUGINS_\__ WOG SOURCES (1)\DEBUG\AI.SBR
C:\DEV\__REPOSITORY__\_H3ERA_PLUGINS_\__ WOG SOURCES (1)\DEBUG\COMMON.SBR
C:\DEV\__REPOSITORY__\_H3ERA_PLUGINS_\__ WOG SOURCES (1)\DEBUG\CREXPO.SBR
C:\DEV\__REPOSITORY__\_H3ERA_PLUGINS_\__ WOG SOURCES (1)\DEBUG\ERM.SBR
C:\DEV\__REPOSITORY__\_H3ERA_PLUGINS_\__ WOG SOURCES (1)\DEBUG\HEROSPEC.SBR
C:\DEV\__REPOSITORY__\_H3ERA_PLUGINS_\__ WOG SOURCES (1)\DEBUG\MONSTERS.SBR
C:\DEV\__REPOSITORY__\_H3ERA_PLUGINS_\__ WOG SOURCES (1)\DEBUG\NPC.SBR
C:\DEV\__REPOSITORY__\_H3ERA_PLUGINS_\__ WOG SOURCES (1)\DEBUG\SOUND.SBR
C:\DEV\__REPOSITORY__\_H3ERA_PLUGINS_\__ WOG SOURCES (1)\DEBUG\WOGSETUP.SBR
C:\DEV\__REPOSITORY__\_H3ERA_PLUGINS_\__ WOG SOURCES (1)\DEBUG\WOMO.SBR
C:\DEV\__REPOSITORY__\_H3ERA_PLUGINS_\__ WOG SOURCES (1)\DEBUG\WOGSETUP.OBJ
C:\DEV\__REPOSITORY__\_H3ERA_PLUGINS_\__ WOG SOURCES (1)\DEBUG\WOGSETUP.COD
C:\DEV\__REPOSITORY__\_H3ERA_PLUGINS_\__ WOG SOURCES (1)\DEBUG\SOUND.OBJ
C:\DEV\__REPOSITORY__\_H3ERA_PLUGINS_\__ WOG SOURCES (1)\DEBUG\SOUND.COD
^C:\DEV\__REPOSITORY__\_H3ERA_PLUGINS_\__ WOG SOURCES (1)\SOUND.CPP
C:\DEV\__REPOSITORY__\_H3ERA_PLUGINS_\__ WOG SOURCES (1)\DEBUG\SOUND.OBJ
C:\DEV\__REPOSITORY__\_H3ERA_PLUGINS_\__ WOG SOURCES (1)\DEBUG\SOUND.SBR
^C:\DEV\__REPOSITORY__\_H3ERA_PLUGINS_\__ WOG SOURCES (1)\WOGSETUP.CPP
C:\DEV\__REPOSITORY__\_H3ERA_PLUGINS_\__ WOG SOURCES (1)\DEBUG\WOGSETUP.OBJ
C:\DEV\__REPOSITORY__\_H3ERA_PLUGINS_\__ WOG SOURCES (1)\DEBUG\WOGSETUP.SBR
