^C:\DEV\__REPOSITORY__\_H3ERA_PLUGINS_\BATTERY2\BATTERY2\DLL_MAIN.CPP
C:\DEV\__REPOSITORY__\_H3ERA_PLUGINS_\BATTERY2\BATTERY2\DEBUG\VC140.PDB
C:\DEV\__REPOSITORY__\_H3ERA_PLUGINS_\BATTERY2\BATTERY2\DEBUG\VC140.IDB
C:\DEV\__REPOSITORY__\_H3ERA_PLUGINS_\BATTERY2\BATTERY2\DEBUG\DLL_MAIN.OBJ
