^C:\USERS\MAJC89\DROPBOX\WORKING CODE\HEROES3.5\_PLUGINS_\EMERALD3\__INCLUDE\HEROES.CPP
/c /ZI /nologo /W3 /WX- /Od /Oy- /D WIN32 /D _DEBUG /D _WINDOWS /D _USRDLL /D EMERALD_EXPORTS /D _WINDLL /D _UNICODE /D UNICODE /Gm /EHsc /RTC1 /MDd /GS /fp:precise /Zc:wchar_t /Zc:forScope /Zc:inline /Fo"DEBUG\\" /Fd"DEBUG\VC140.PDB" /Gd /TP /analyze- C:\USERS\MAJC89\DROPBOX\WORKING CODE\HEROES3.5\_PLUGINS_\EMERALD3\__INCLUDE\HEROES.CPP
^C:\USERS\MAJC89\DROPBOX\WORKING CODE\HEROES3.5\_PLUGINS_\EMERALD3\EMERALD\CONFIG.CPP
/c /ZI /nologo /W3 /WX- /Od /Oy- /D WIN32 /D _DEBUG /D _WINDOWS /D _USRDLL /D EMERALD_EXPORTS /D _WINDLL /D _UNICODE /D UNICODE /Gm /EHsc /RTC1 /MDd /GS /fp:precise /Zc:wchar_t /Zc:forScope /Zc:inline /Fo"DEBUG\\" /Fd"DEBUG\VC140.PDB" /Gd /TP /analyze- C:\USERS\MAJC89\DROPBOX\WORKING CODE\HEROES3.5\_PLUGINS_\EMERALD3\EMERALD\CONFIG.CPP
^C:\USERS\MAJC89\DROPBOX\WORKING CODE\HEROES3.5\_PLUGINS_\EMERALD3\EMERALD\DUPLICATE.CPP
/c /ZI /nologo /W3 /WX- /Od /Oy- /D WIN32 /D _DEBUG /D _WINDOWS /D _USRDLL /D EMERALD_EXPORTS /D _WINDLL /D _UNICODE /D UNICODE /Gm /EHsc /RTC1 /MDd /GS /fp:precise /Zc:wchar_t /Zc:forScope /Zc:inline /Fo"DEBUG\\" /Fd"DEBUG\VC140.PDB" /Gd /TP /analyze- C:\USERS\MAJC89\DROPBOX\WORKING CODE\HEROES3.5\_PLUGINS_\EMERALD3\EMERALD\DUPLICATE.CPP
^C:\USERS\MAJC89\DROPBOX\WORKING CODE\HEROES3.5\_PLUGINS_\EMERALD3\EMERALD\EMERALD.CPP
/c /ZI /nologo /W3 /WX- /Od /Oy- /D WIN32 /D _DEBUG /D _WINDOWS /D _USRDLL /D EMERALD_EXPORTS /D _WINDLL /D _UNICODE /D UNICODE /Gm /EHsc /RTC1 /MDd /GS /fp:precise /Zc:wchar_t /Zc:forScope /Zc:inline /Fo"DEBUG\\" /Fd"DEBUG\VC140.PDB" /Gd /TP /analyze- C:\USERS\MAJC89\DROPBOX\WORKING CODE\HEROES3.5\_PLUGINS_\EMERALD3\EMERALD\EMERALD.CPP
^C:\USERS\MAJC89\DROPBOX\WORKING CODE\HEROES3.5\_PLUGINS_\EMERALD3\EMERALD\EVENTS.CPP
/c /ZI /nologo /W3 /WX- /Od /Oy- /D WIN32 /D _DEBUG /D _WINDOWS /D _USRDLL /D EMERALD_EXPORTS /D _WINDLL /D _UNICODE /D UNICODE /Gm /EHsc /RTC1 /MDd /GS /fp:precise /Zc:wchar_t /Zc:forScope /Zc:inline /Fo"DEBUG\\" /Fd"DEBUG\VC140.PDB" /Gd /TP /analyze- C:\USERS\MAJC89\DROPBOX\WORKING CODE\HEROES3.5\_PLUGINS_\EMERALD3\EMERALD\EVENTS.CPP
^C:\USERS\MAJC89\DROPBOX\WORKING CODE\HEROES3.5\_PLUGINS_\EMERALD3\EMERALD\LUCKMORALE.CPP
/c /ZI /nologo /W3 /WX- /Od /Oy- /D WIN32 /D _DEBUG /D _WINDOWS /D _USRDLL /D EMERALD_EXPORTS /D _WINDLL /D _UNICODE /D UNICODE /Gm /EHsc /RTC1 /MDd /GS /fp:precise /Zc:wchar_t /Zc:forScope /Zc:inline /Fo"DEBUG\\" /Fd"DEBUG\VC140.PDB" /Gd /TP /analyze- C:\USERS\MAJC89\DROPBOX\WORKING CODE\HEROES3.5\_PLUGINS_\EMERALD3\EMERALD\LUCKMORALE.CPP
^C:\USERS\MAJC89\DROPBOX\WORKING CODE\HEROES3.5\_PLUGINS_\EMERALD3\EMERALD\PROPERTIES.CPP
/c /ZI /nologo /W3 /WX- /Od /Oy- /D WIN32 /D _DEBUG /D _WINDOWS /D _USRDLL /D EMERALD_EXPORTS /D _WINDLL /D _UNICODE /D UNICODE /Gm /EHsc /RTC1 /MDd /GS /fp:precise /Zc:wchar_t /Zc:forScope /Zc:inline /Fo"DEBUG\\" /Fd"DEBUG\VC140.PDB" /Gd /TP /analyze- C:\USERS\MAJC89\DROPBOX\WORKING CODE\HEROES3.5\_PLUGINS_\EMERALD3\EMERALD\PROPERTIES.CPP
^C:\USERS\MAJC89\DROPBOX\WORKING CODE\HEROES3.5\_PLUGINS_\EMERALD3\EMERALD\RANDOM.CPP
/c /ZI /nologo /W3 /WX- /Od /Oy- /D WIN32 /D _DEBUG /D _WINDOWS /D _USRDLL /D EMERALD_EXPORTS /D _WINDLL /D _UNICODE /D UNICODE /Gm /EHsc /RTC1 /MDd /GS /fp:precise /Zc:wchar_t /Zc:forScope /Zc:inline /Fo"DEBUG\\" /Fd"DEBUG\VC140.PDB" /Gd /TP /analyze- C:\USERS\MAJC89\DROPBOX\WORKING CODE\HEROES3.5\_PLUGINS_\EMERALD3\EMERALD\RANDOM.CPP
^C:\USERS\MAJC89\DROPBOX\WORKING CODE\HEROES3.5\_PLUGINS_\EMERALD3\EMERALD\RESISTANCE.CPP
/c /ZI /nologo /W3 /WX- /Od /Oy- /D WIN32 /D _DEBUG /D _WINDOWS /D _USRDLL /D EMERALD_EXPORTS /D _WINDLL /D _UNICODE /D UNICODE /Gm /EHsc /RTC1 /MDd /GS /fp:precise /Zc:wchar_t /Zc:forScope /Zc:inline /Fo"DEBUG\\" /Fd"DEBUG\VC140.PDB" /Gd /TP /analyze- C:\USERS\MAJC89\DROPBOX\WORKING CODE\HEROES3.5\_PLUGINS_\EMERALD3\EMERALD\RESISTANCE.CPP
^C:\USERS\MAJC89\DROPBOX\WORKING CODE\HEROES3.5\_PLUGINS_\EMERALD3\EMERALD\DLLMAIN.CPP
/c /ZI /nologo /W3 /WX- /Od /Oy- /D WIN32 /D _DEBUG /D _WINDOWS /D _USRDLL /D EMERALD_EXPORTS /D _WINDLL /D _UNICODE /D UNICODE /Gm /EHsc /RTC1 /MDd /GS /fp:precise /Zc:wchar_t /Zc:forScope /Zc:inline /Fo"DEBUG\\" /Fd"DEBUG\VC140.PDB" /Gd /TP /analyze- C:\USERS\MAJC89\DROPBOX\WORKING CODE\HEROES3.5\_PLUGINS_\EMERALD3\EMERALD\DLLMAIN.CPP
