c:\users\majc89\dropbox\working code\heroes3.5\_plugins_\emerald3\emerald\release\config.obj
c:\users\majc89\dropbox\working code\heroes3.5\_plugins_\emerald3\emerald\release\dllmain.obj
c:\users\majc89\dropbox\working code\heroes3.5\_plugins_\emerald3\emerald\release\duplicate.obj
c:\users\majc89\dropbox\working code\heroes3.5\_plugins_\emerald3\emerald\release\emerald.obj
c:\users\majc89\dropbox\working code\heroes3.5\_plugins_\emerald3\emerald\release\events.obj
c:\users\majc89\dropbox\working code\heroes3.5\_plugins_\emerald3\emerald\release\heroes.obj
c:\users\majc89\dropbox\working code\heroes3.5\_plugins_\emerald3\emerald\release\luckmorale.obj
c:\users\majc89\dropbox\working code\heroes3.5\_plugins_\emerald3\emerald\release\properties.obj
c:\users\majc89\dropbox\working code\heroes3.5\_plugins_\emerald3\emerald\release\random.obj
c:\users\majc89\dropbox\working code\heroes3.5\_plugins_\emerald3\emerald\release\resistance.obj
c:\users\majc89\dropbox\working code\heroes3.5\_plugins_\emerald3\emerald\release\emerald.dll.intermediate.manifest
c:\users\majc89\dropbox\working code\heroes3.5\_plugins_\emerald3\emerald\release\vc90.idb
c:\users\majc89\dropbox\working code\heroes3.5\_plugins_\emerald3\emerald\release\vc140.pdb
c:\users\majc89\dropbox\working code\heroes3.5\_plugins_\emerald3\emerald\release\vc90.pdb
c:\users\majc89\dropbox\working code\heroes3.5\_plugins_\emerald3\release\emerald.pdb
c:\users\majc89\dropbox\working code\heroes3.5\_plugins_\emerald3\release\emerald.dll
c:\users\majc89\dropbox\working code\heroes3.5\_plugins_\emerald3\emerald\release\emerald.tlog\cl.command.1.tlog
