^C:\USERS\MAJC89\DOCUMENTS\DEVELOPMENT\HEROES3.5_REPO\_PLUGINS_\SKIRMISH\PROJECT1\DEBUG\PROJECT1.RES|C:\USERS\MAJC89\DOCUMENTS\DEVELOPMENT\HEROES3.5_REPO\_PLUGINS_\SKIRMISH\PROJECT1\DEBUG\SKIRMISH_PLUGIN.OBJ
C:\USERS\MAJC89\DOCUMENTS\DEVELOPMENT\HEROES3.5_REPO\_PLUGINS_\SKIRMISH\PROJECT1\DEBUG\SKIRMISH.ILK
C:\USERS\MAJC89\DOCUMENTS\DEVELOPMENT\HEROES3.5_REPO\_PLUGINS_\SKIRMISH\PROJECT1\DEBUG\SKIRMISH.ERA
C:\USERS\MAJC89\DOCUMENTS\DEVELOPMENT\HEROES3.5_REPO\_PLUGINS_\SKIRMISH\PROJECT1\DEBUG\SKIRMISH.PDB
