^C:\DEV\__REPOSITORY__\_H3ERA_PLUGINS_\NEW_CHEATS\__INCLUDE\ERA.CPP
/c /Zi /nologo /W3 /WX- /sdl /Od /Oi /Oy- /D _WINDLL /D _MBCS /Gm- /EHsc /MD /GS /Gy /fp:precise /Zc:wchar_t /Zc:forScope /Zc:inline /Fo"RELEASE\\" /Fd"RELEASE\VC140.PDB" /Gd /TP /analyze- C:\DEV\__REPOSITORY__\_H3ERA_PLUGINS_\NEW_CHEATS\__INCLUDE\ERA.CPP
^C:\DEV\__REPOSITORY__\_H3ERA_PLUGINS_\NEW_CHEATS\__INCLUDE\HEROES.CPP
/c /Zi /nologo /W3 /WX- /sdl /Od /Oi /Oy- /D _WINDLL /D _MBCS /Gm- /EHsc /MD /GS /Gy /fp:precise /Zc:wchar_t /Zc:forScope /Zc:inline /Fo"RELEASE\\" /Fd"RELEASE\VC140.PDB" /Gd /TP /analyze- C:\DEV\__REPOSITORY__\_H3ERA_PLUGINS_\NEW_CHEATS\__INCLUDE\HEROES.CPP
^C:\DEV\__REPOSITORY__\_H3ERA_PLUGINS_\NEW_CHEATS\NEW_CHEATS\DLL_MAIN.CPP
/c /Zi /nologo /W3 /WX- /sdl /Od /Oi /Oy- /D _WINDLL /D _MBCS /Gm- /EHsc /MD /GS /Gy /fp:precise /Zc:wchar_t /Zc:forScope /Zc:inline /Fo"RELEASE\\" /Fd"RELEASE\VC140.PDB" /Gd /TP /analyze- C:\DEV\__REPOSITORY__\_H3ERA_PLUGINS_\NEW_CHEATS\NEW_CHEATS\DLL_MAIN.CPP
^C:\DEV\__REPOSITORY__\_H3ERA_PLUGINS_\NEW_CHEATS\NEW_CHEATS\CHEATS.CPP
/c /Zi /nologo /W3 /WX- /sdl /Od /Oi /Oy- /D _WINDLL /D _MBCS /Gm- /EHsc /MD /GS /Gy /fp:precise /Zc:wchar_t /Zc:forScope /Zc:inline /Fo"RELEASE\\" /Fd"RELEASE\VC140.PDB" /Gd /TP /analyze- C:\DEV\__REPOSITORY__\_H3ERA_PLUGINS_\NEW_CHEATS\NEW_CHEATS\CHEATS.CPP
