^C:\DEV\__REPOSITORY__\_h3era_Plugins_\new_cheats\Project1\Project1.vcxproj
C:\DEV\__REPOSITORY__\_h3era_Plugins_\new_cheats\Project1\Release\custom_cheats.lib
C:\DEV\__REPOSITORY__\_h3era_Plugins_\new_cheats\Project1\Release\custom_cheats.exp
^C:\DEV\__REPOSITORY__\_h3era_Plugins_\new_cheats\Project1\Project1.vcxproj
C:\DEV\__REPOSITORY__\_h3era_Plugins_\new_cheats\Project1\Release\custom_cheats.lib
C:\DEV\__REPOSITORY__\_h3era_Plugins_\new_cheats\Project1\Release\custom_cheats.exp
^C:\DEV\__REPOSITORY__\_h3era_Plugins_\new_cheats\Project1\Project1.vcxproj
C:\DEV\__REPOSITORY__\_h3era_Plugins_\new_cheats\Project1\Release\custom_cheats.lib
C:\DEV\__REPOSITORY__\_h3era_Plugins_\new_cheats\Project1\Release\custom_cheats.exp
^C:\DEV\__REPOSITORY__\_h3era_Plugins_\new_cheats\Project1\Project1.vcxproj
C:\DEV\__REPOSITORY__\_h3era_Plugins_\new_cheats\Project1\Release\custom_cheats.lib
C:\DEV\__REPOSITORY__\_h3era_Plugins_\new_cheats\Project1\Release\custom_cheats.exp
^C:\DEV\__REPOSITORY__\_h3era_Plugins_\new_cheats\Project1\Project1.vcxproj
C:\DEV\__REPOSITORY__\_h3era_Plugins_\new_cheats\Project1\Release\custom_cheats.lib
C:\DEV\__REPOSITORY__\_h3era_Plugins_\new_cheats\Project1\Release\custom_cheats.exp
^C:\DEV\__REPOSITORY__\_h3era_Plugins_\new_cheats\Project1\Project1.vcxproj
C:\DEV\__REPOSITORY__\_h3era_Plugins_\new_cheats\Project1\Release\custom_cheats.lib
C:\DEV\__REPOSITORY__\_h3era_Plugins_\new_cheats\Project1\Release\custom_cheats.exp
^C:\DEV\__REPOSITORY__\_h3era_Plugins_\new_cheats\Project1\Project1.vcxproj
C:\DEV\__REPOSITORY__\_h3era_Plugins_\new_cheats\Project1\Release\custom_cheats.lib
C:\DEV\__REPOSITORY__\_h3era_Plugins_\new_cheats\Project1\Release\custom_cheats.exp
^C:\DEV\__REPOSITORY__\_h3era_Plugins_\new_cheats\Project1\Project1.vcxproj
C:\DEV\__REPOSITORY__\_h3era_Plugins_\new_cheats\Project1\Release\custom_cheats.lib
C:\DEV\__REPOSITORY__\_h3era_Plugins_\new_cheats\Project1\Release\custom_cheats.exp
^C:\DEV\__REPOSITORY__\_h3era_Plugins_\new_cheats\Project1\Project1.vcxproj
C:\DEV\__REPOSITORY__\_h3era_Plugins_\new_cheats\Project1\Release\custom_cheats.lib
C:\DEV\__REPOSITORY__\_h3era_Plugins_\new_cheats\Project1\Release\custom_cheats.exp
^C:\DEV\__REPOSITORY__\_h3era_Plugins_\new_cheats\Project1\Project1.vcxproj
C:\DEV\__REPOSITORY__\_h3era_Plugins_\new_cheats\Project1\Release\custom_cheats.lib
C:\DEV\__REPOSITORY__\_h3era_Plugins_\new_cheats\Project1\Release\custom_cheats.exp
^C:\DEV\__REPOSITORY__\_h3era_Plugins_\new_cheats\Project1\Project1.vcxproj
C:\DEV\__REPOSITORY__\_h3era_Plugins_\new_cheats\Project1\Release\custom_cheats.lib
C:\DEV\__REPOSITORY__\_h3era_Plugins_\new_cheats\Project1\Release\custom_cheats.exp
^C:\DEV\__REPOSITORY__\_h3era_Plugins_\new_cheats\Project1\Project1.vcxproj
C:\DEV\__REPOSITORY__\_h3era_Plugins_\new_cheats\Project1\Release\custom_cheats.lib
C:\DEV\__REPOSITORY__\_h3era_Plugins_\new_cheats\Project1\Release\custom_cheats.exp
^C:\DEV\__REPOSITORY__\_h3era_Plugins_\new_cheats\Project1\Project1.vcxproj
C:\DEV\__REPOSITORY__\_h3era_Plugins_\new_cheats\Project1\Release\custom_cheats.lib
C:\DEV\__REPOSITORY__\_h3era_Plugins_\new_cheats\Project1\Release\custom_cheats.exp
^C:\DEV\__REPOSITORY__\_h3era_Plugins_\new_cheats\Project1\Project1.vcxproj
C:\DEV\__REPOSITORY__\_h3era_Plugins_\new_cheats\Project1\Release\custom_cheats.lib
C:\DEV\__REPOSITORY__\_h3era_Plugins_\new_cheats\Project1\Release\custom_cheats.exp
^C:\DEV\__REPOSITORY__\_h3era_Plugins_\new_cheats\Project1\Project1.vcxproj
C:\DEV\__REPOSITORY__\_h3era_Plugins_\new_cheats\Project1\Release\custom_cheats.lib
C:\DEV\__REPOSITORY__\_h3era_Plugins_\new_cheats\Project1\Release\custom_cheats.exp
^C:\DEV\__REPOSITORY__\_h3era_Plugins_\new_cheats\Project1\Project1.vcxproj
C:\DEV\__REPOSITORY__\_h3era_Plugins_\new_cheats\Project1\Release\custom_cheats.lib
C:\DEV\__REPOSITORY__\_h3era_Plugins_\new_cheats\Project1\Release\custom_cheats.exp
^C:\DEV\__REPOSITORY__\_h3era_Plugins_\new_cheats\Project1\Project1.vcxproj
C:\DEV\__REPOSITORY__\_h3era_Plugins_\new_cheats\Project1\Release\custom_cheats.lib
C:\DEV\__REPOSITORY__\_h3era_Plugins_\new_cheats\Project1\Release\custom_cheats.exp
^C:\DEV\__REPOSITORY__\_h3era_Plugins_\new_cheats\Project1\Project1.vcxproj
C:\DEV\__REPOSITORY__\_h3era_Plugins_\new_cheats\Project1\Release\custom_cheats.lib
C:\DEV\__REPOSITORY__\_h3era_Plugins_\new_cheats\Project1\Release\custom_cheats.exp
^C:\DEV\__REPOSITORY__\_h3era_Plugins_\new_cheats\Project1\Project1.vcxproj
C:\DEV\__REPOSITORY__\_h3era_Plugins_\new_cheats\Project1\Release\custom_cheats.lib
C:\DEV\__REPOSITORY__\_h3era_Plugins_\new_cheats\Project1\Release\custom_cheats.exp
^C:\DEV\__REPOSITORY__\_h3era_Plugins_\new_cheats\Project1\Project1.vcxproj
C:\DEV\__REPOSITORY__\_h3era_Plugins_\new_cheats\Project1\Release\custom_cheats.lib
C:\DEV\__REPOSITORY__\_h3era_Plugins_\new_cheats\Project1\Release\custom_cheats.exp
^C:\DEV\__REPOSITORY__\_h3era_Plugins_\new_cheats\Project1\Project1.vcxproj
C:\DEV\__REPOSITORY__\_h3era_Plugins_\new_cheats\Project1\Release\custom_cheats.lib
C:\DEV\__REPOSITORY__\_h3era_Plugins_\new_cheats\Project1\Release\custom_cheats.exp
^C:\DEV\__REPOSITORY__\_h3era_Plugins_\new_cheats\Project1\Project1.vcxproj
C:\DEV\__REPOSITORY__\_h3era_Plugins_\new_cheats\Project1\Release\custom_cheats.lib
C:\DEV\__REPOSITORY__\_h3era_Plugins_\new_cheats\Project1\Release\custom_cheats.exp
^C:\DEV\__REPOSITORY__\_h3era_Plugins_\new_cheats\Project1\Project1.vcxproj
C:\DEV\__REPOSITORY__\_h3era_Plugins_\new_cheats\Project1\Release\custom_cheats.lib
C:\DEV\__REPOSITORY__\_h3era_Plugins_\new_cheats\Project1\Release\custom_cheats.exp
^C:\DEV\__REPOSITORY__\_h3era_Plugins_\new_cheats\Project1\Project1.vcxproj
C:\DEV\__REPOSITORY__\_h3era_Plugins_\new_cheats\Project1\Release\custom_cheats.lib
C:\DEV\__REPOSITORY__\_h3era_Plugins_\new_cheats\Project1\Release\custom_cheats.exp
^C:\DEV\__REPOSITORY__\_h3era_Plugins_\new_cheats\Project1\Project1.vcxproj
C:\DEV\__REPOSITORY__\_h3era_Plugins_\new_cheats\Project1\Release\custom_cheats.lib
C:\DEV\__REPOSITORY__\_h3era_Plugins_\new_cheats\Project1\Release\custom_cheats.exp
^C:\DEV\__REPOSITORY__\_h3era_Plugins_\new_cheats\Project1\Project1.vcxproj
C:\DEV\__REPOSITORY__\_h3era_Plugins_\new_cheats\Project1\Release\custom_cheats.lib
C:\DEV\__REPOSITORY__\_h3era_Plugins_\new_cheats\Project1\Release\custom_cheats.exp
^C:\DEV\__REPOSITORY__\_h3era_Plugins_\new_cheats\Project1\Project1.vcxproj
C:\DEV\__REPOSITORY__\_h3era_Plugins_\new_cheats\Project1\Release\custom_cheats.lib
C:\DEV\__REPOSITORY__\_h3era_Plugins_\new_cheats\Project1\Release\custom_cheats.exp
^C:\DEV\__REPOSITORY__\_h3era_Plugins_\new_cheats\Project1\Project1.vcxproj
C:\DEV\__REPOSITORY__\_h3era_Plugins_\new_cheats\Project1\Release\custom_cheats.lib
C:\DEV\__REPOSITORY__\_h3era_Plugins_\new_cheats\Project1\Release\custom_cheats.exp
^C:\DEV\__REPOSITORY__\_h3era_Plugins_\new_cheats\Project1\Project1.vcxproj
C:\DEV\__REPOSITORY__\_h3era_Plugins_\new_cheats\Project1\Release\custom_cheats.lib
C:\DEV\__REPOSITORY__\_h3era_Plugins_\new_cheats\Project1\Release\custom_cheats.exp
^C:\DEV\__REPOSITORY__\_h3era_Plugins_\new_cheats\Project1\Project1.vcxproj
C:\DEV\__REPOSITORY__\_h3era_Plugins_\new_cheats\Project1\Release\custom_cheats.lib
C:\DEV\__REPOSITORY__\_h3era_Plugins_\new_cheats\Project1\Release\custom_cheats.exp
^C:\DEV\__REPOSITORY__\_h3era_Plugins_\new_cheats\Project1\Project1.vcxproj
C:\DEV\__REPOSITORY__\_h3era_Plugins_\new_cheats\Project1\Release\custom_cheats.lib
C:\DEV\__REPOSITORY__\_h3era_Plugins_\new_cheats\Project1\Release\custom_cheats.exp
^C:\DEV\__REPOSITORY__\_h3era_Plugins_\new_cheats\Project1\Project1.vcxproj
C:\DEV\__REPOSITORY__\_h3era_Plugins_\new_cheats\Project1\Release\custom_cheats.lib
C:\DEV\__REPOSITORY__\_h3era_Plugins_\new_cheats\Project1\Release\custom_cheats.exp
^C:\DEV\__REPOSITORY__\_h3era_Plugins_\new_cheats\Project1\Project1.vcxproj
C:\DEV\__REPOSITORY__\_h3era_Plugins_\new_cheats\Project1\Release\custom_cheats.lib
C:\DEV\__REPOSITORY__\_h3era_Plugins_\new_cheats\Project1\Release\custom_cheats.exp
^C:\DEV\__REPOSITORY__\_h3era_Plugins_\new_cheats\Project1\Project1.vcxproj
C:\DEV\__REPOSITORY__\_h3era_Plugins_\new_cheats\Project1\Release\custom_cheats.lib
C:\DEV\__REPOSITORY__\_h3era_Plugins_\new_cheats\Project1\Release\custom_cheats.exp
^C:\DEV\__REPOSITORY__\_h3era_Plugins_\new_cheats\Project1\Project1.vcxproj
C:\DEV\__REPOSITORY__\_h3era_Plugins_\new_cheats\Project1\Release\custom_cheats.lib
C:\DEV\__REPOSITORY__\_h3era_Plugins_\new_cheats\Project1\Release\custom_cheats.exp
^C:\DEV\__REPOSITORY__\_h3era_Plugins_\new_cheats\Project1\Project1.vcxproj
C:\DEV\__REPOSITORY__\_h3era_Plugins_\new_cheats\Project1\Release\custom_cheats.lib
C:\DEV\__REPOSITORY__\_h3era_Plugins_\new_cheats\Project1\Release\custom_cheats.exp
^C:\DEV\__REPOSITORY__\_h3era_Plugins_\new_cheats\Project1\Project1.vcxproj
C:\DEV\__REPOSITORY__\_h3era_Plugins_\new_cheats\Project1\Release\custom_cheats.lib
C:\DEV\__REPOSITORY__\_h3era_Plugins_\new_cheats\Project1\Release\custom_cheats.exp
^C:\DEV\__REPOSITORY__\_h3era_Plugins_\new_cheats\Project1\Project1.vcxproj
C:\DEV\__REPOSITORY__\_h3era_Plugins_\new_cheats\Project1\Release\custom_cheats.lib
C:\DEV\__REPOSITORY__\_h3era_Plugins_\new_cheats\Project1\Release\custom_cheats.exp
^C:\DEV\__REPOSITORY__\_h3era_Plugins_\new_cheats\Project1\Project1.vcxproj
C:\DEV\__REPOSITORY__\_h3era_Plugins_\new_cheats\Project1\Release\custom_cheats.lib
C:\DEV\__REPOSITORY__\_h3era_Plugins_\new_cheats\Project1\Release\custom_cheats.exp
^C:\DEV\__REPOSITORY__\_h3era_Plugins_\new_cheats\Project1\Project1.vcxproj
C:\DEV\__REPOSITORY__\_h3era_Plugins_\new_cheats\Project1\Release\custom_cheats.lib
C:\DEV\__REPOSITORY__\_h3era_Plugins_\new_cheats\Project1\Release\custom_cheats.exp
^C:\DEV\__REPOSITORY__\_h3era_Plugins_\new_cheats\Project1\Project1.vcxproj
C:\DEV\__REPOSITORY__\_h3era_Plugins_\new_cheats\Project1\Release\custom_cheats.lib
C:\DEV\__REPOSITORY__\_h3era_Plugins_\new_cheats\Project1\Release\custom_cheats.exp
^C:\DEV\__REPOSITORY__\_h3era_Plugins_\new_cheats\Project1\Project1.vcxproj
C:\DEV\__REPOSITORY__\_h3era_Plugins_\new_cheats\Project1\Release\custom_cheats.lib
C:\DEV\__REPOSITORY__\_h3era_Plugins_\new_cheats\Project1\Release\custom_cheats.exp
^C:\DEV\__REPOSITORY__\_h3era_Plugins_\new_cheats\Project1\Project1.vcxproj
C:\DEV\__REPOSITORY__\_h3era_Plugins_\new_cheats\Project1\Release\custom_cheats.lib
C:\DEV\__REPOSITORY__\_h3era_Plugins_\new_cheats\Project1\Release\custom_cheats.exp
^C:\DEV\__REPOSITORY__\_h3era_Plugins_\new_cheats\Project1\Project1.vcxproj
C:\DEV\__REPOSITORY__\_h3era_Plugins_\new_cheats\Project1\Release\custom_cheats.lib
C:\DEV\__REPOSITORY__\_h3era_Plugins_\new_cheats\Project1\Release\custom_cheats.exp
^C:\DEV\__REPOSITORY__\_h3era_Plugins_\new_cheats\Project1\Project1.vcxproj
C:\DEV\__REPOSITORY__\_h3era_Plugins_\new_cheats\Project1\Release\custom_cheats.lib
C:\DEV\__REPOSITORY__\_h3era_Plugins_\new_cheats\Project1\Release\custom_cheats.exp
^C:\DEV\__REPOSITORY__\_h3era_Plugins_\new_cheats\Project1\Project1.vcxproj
C:\DEV\__REPOSITORY__\_h3era_Plugins_\new_cheats\Project1\Release\custom_cheats.lib
C:\DEV\__REPOSITORY__\_h3era_Plugins_\new_cheats\Project1\Release\custom_cheats.exp
^C:\DEV\__REPOSITORY__\_h3era_Plugins_\new_cheats\Project1\Project1.vcxproj
C:\DEV\__REPOSITORY__\_h3era_Plugins_\new_cheats\Project1\Release\custom_cheats.lib
C:\DEV\__REPOSITORY__\_h3era_Plugins_\new_cheats\Project1\Release\custom_cheats.exp
^C:\DEV\__REPOSITORY__\_h3era_Plugins_\new_cheats\Project1\Project1.vcxproj
C:\DEV\__REPOSITORY__\_h3era_Plugins_\new_cheats\Project1\Release\custom_cheats.lib
C:\DEV\__REPOSITORY__\_h3era_Plugins_\new_cheats\Project1\Release\custom_cheats.exp
^C:\DEV\__REPOSITORY__\_h3era_Plugins_\new_cheats\Project1\Project1.vcxproj
C:\DEV\__REPOSITORY__\_h3era_Plugins_\new_cheats\Project1\Release\custom_cheats.lib
C:\DEV\__REPOSITORY__\_h3era_Plugins_\new_cheats\Project1\Release\custom_cheats.exp
^C:\DEV\__REPOSITORY__\_h3era_Plugins_\new_cheats\Project1\Project1.vcxproj
C:\DEV\__REPOSITORY__\_h3era_Plugins_\new_cheats\Project1\Release\custom_cheats.lib
C:\DEV\__REPOSITORY__\_h3era_Plugins_\new_cheats\Project1\Release\custom_cheats.exp
^C:\DEV\__REPOSITORY__\_h3era_Plugins_\new_cheats\Project1\Project1.vcxproj
C:\DEV\__REPOSITORY__\_h3era_Plugins_\new_cheats\Project1\Release\custom_cheats.lib
C:\DEV\__REPOSITORY__\_h3era_Plugins_\new_cheats\Project1\Release\custom_cheats.exp
^C:\DEV\__REPOSITORY__\_h3era_Plugins_\new_cheats\Project1\Project1.vcxproj
C:\DEV\__REPOSITORY__\_h3era_Plugins_\new_cheats\Project1\Release\custom_cheats.lib
C:\DEV\__REPOSITORY__\_h3era_Plugins_\new_cheats\Project1\Release\custom_cheats.exp
^C:\DEV\__REPOSITORY__\_h3era_Plugins_\new_cheats\Project1\Project1.vcxproj
C:\DEV\__REPOSITORY__\_h3era_Plugins_\new_cheats\Project1\Release\custom_cheats.lib
C:\DEV\__REPOSITORY__\_h3era_Plugins_\new_cheats\Project1\Release\custom_cheats.exp
^C:\DEV\__REPOSITORY__\_h3era_Plugins_\new_cheats\Project1\Project1.vcxproj
C:\DEV\__REPOSITORY__\_h3era_Plugins_\new_cheats\Project1\Release\custom_cheats.lib
C:\DEV\__REPOSITORY__\_h3era_Plugins_\new_cheats\Project1\Release\custom_cheats.exp
^C:\DEV\__REPOSITORY__\_h3era_Plugins_\new_cheats\Project1\Project1.vcxproj
C:\DEV\__REPOSITORY__\_h3era_Plugins_\new_cheats\Project1\Release\custom_cheats.lib
C:\DEV\__REPOSITORY__\_h3era_Plugins_\new_cheats\Project1\Release\custom_cheats.exp
^C:\DEV\__REPOSITORY__\_h3era_Plugins_\new_cheats\Project1\Project1.vcxproj
C:\DEV\__REPOSITORY__\_h3era_Plugins_\new_cheats\Project1\Release\custom_cheats.lib
C:\DEV\__REPOSITORY__\_h3era_Plugins_\new_cheats\Project1\Release\custom_cheats.exp
^C:\DEV\__REPOSITORY__\_h3era_Plugins_\new_cheats\Project1\Project1.vcxproj
C:\DEV\__REPOSITORY__\_h3era_Plugins_\new_cheats\Project1\Release\custom_cheats.lib
C:\DEV\__REPOSITORY__\_h3era_Plugins_\new_cheats\Project1\Release\custom_cheats.exp
^C:\DEV\__REPOSITORY__\_h3era_Plugins_\new_cheats\Project1\Project1.vcxproj
C:\DEV\__REPOSITORY__\_h3era_Plugins_\new_cheats\Project1\Release\custom_cheats.lib
C:\DEV\__REPOSITORY__\_h3era_Plugins_\new_cheats\Project1\Release\custom_cheats.exp
^C:\DEV\__REPOSITORY__\_h3era_Plugins_\new_cheats\Project1\Project1.vcxproj
C:\DEV\__REPOSITORY__\_h3era_Plugins_\new_cheats\Project1\Release\custom_cheats.lib
C:\DEV\__REPOSITORY__\_h3era_Plugins_\new_cheats\Project1\Release\custom_cheats.exp
^C:\DEV\__REPOSITORY__\_h3era_Plugins_\new_cheats\Project1\Project1.vcxproj
C:\DEV\__REPOSITORY__\_h3era_Plugins_\new_cheats\Project1\Release\custom_cheats.lib
C:\DEV\__REPOSITORY__\_h3era_Plugins_\new_cheats\Project1\Release\custom_cheats.exp
^C:\DEV\__REPOSITORY__\_h3era_Plugins_\new_cheats\Project1\Project1.vcxproj
C:\DEV\__REPOSITORY__\_h3era_Plugins_\new_cheats\Project1\Release\custom_cheats.lib
C:\DEV\__REPOSITORY__\_h3era_Plugins_\new_cheats\Project1\Release\custom_cheats.exp
^C:\DEV\__REPOSITORY__\_h3era_Plugins_\new_cheats\Project1\Project1.vcxproj
C:\DEV\__REPOSITORY__\_h3era_Plugins_\new_cheats\Project1\Release\custom_cheats.lib
C:\DEV\__REPOSITORY__\_h3era_Plugins_\new_cheats\Project1\Release\custom_cheats.exp
^C:\DEV\__REPOSITORY__\_h3era_Plugins_\new_cheats\Project1\Project1.vcxproj
C:\DEV\__REPOSITORY__\_h3era_Plugins_\new_cheats\Project1\Release\custom_cheats.lib
C:\DEV\__REPOSITORY__\_h3era_Plugins_\new_cheats\Project1\Release\custom_cheats.exp
^C:\DEV\__REPOSITORY__\_h3era_Plugins_\new_cheats\Project1\Project1.vcxproj
C:\DEV\__REPOSITORY__\_h3era_Plugins_\new_cheats\Project1\Release\custom_cheats.lib
C:\DEV\__REPOSITORY__\_h3era_Plugins_\new_cheats\Project1\Release\custom_cheats.exp
^C:\DEV\__REPOSITORY__\_h3era_Plugins_\new_cheats\Project1\Project1.vcxproj
C:\DEV\__REPOSITORY__\_h3era_Plugins_\new_cheats\Project1\Release\custom_cheats.lib
C:\DEV\__REPOSITORY__\_h3era_Plugins_\new_cheats\Project1\Release\custom_cheats.exp
^C:\DEV\__REPOSITORY__\_h3era_Plugins_\new_cheats\Project1\Project1.vcxproj
C:\DEV\__REPOSITORY__\_h3era_Plugins_\new_cheats\Project1\Release\custom_cheats.lib
C:\DEV\__REPOSITORY__\_h3era_Plugins_\new_cheats\Project1\Release\custom_cheats.exp
^C:\DEV\__REPOSITORY__\_h3era_Plugins_\new_cheats\Project1\Project1.vcxproj
C:\DEV\__REPOSITORY__\_h3era_Plugins_\new_cheats\Project1\Release\custom_cheats.lib
C:\DEV\__REPOSITORY__\_h3era_Plugins_\new_cheats\Project1\Release\custom_cheats.exp
^C:\DEV\__REPOSITORY__\_h3era_Plugins_\new_cheats\Project1\Project1.vcxproj
C:\DEV\__REPOSITORY__\_h3era_Plugins_\new_cheats\Project1\Release\custom_cheats.lib
C:\DEV\__REPOSITORY__\_h3era_Plugins_\new_cheats\Project1\Release\custom_cheats.exp
^C:\DEV\__REPOSITORY__\_h3era_Plugins_\new_cheats\Project1\Project1.vcxproj
C:\DEV\__REPOSITORY__\_h3era_Plugins_\new_cheats\Project1\Release\custom_cheats.lib
C:\DEV\__REPOSITORY__\_h3era_Plugins_\new_cheats\Project1\Release\custom_cheats.exp
^C:\DEV\__REPOSITORY__\_h3era_Plugins_\new_cheats\Project1\Project1.vcxproj
C:\DEV\__REPOSITORY__\_h3era_Plugins_\new_cheats\Project1\Release\custom_cheats.lib
C:\DEV\__REPOSITORY__\_h3era_Plugins_\new_cheats\Project1\Release\custom_cheats.exp
^C:\DEV\__REPOSITORY__\_h3era_Plugins_\new_cheats\Project1\Project1.vcxproj
C:\DEV\__REPOSITORY__\_h3era_Plugins_\new_cheats\Project1\Release\custom_cheats.lib
C:\DEV\__REPOSITORY__\_h3era_Plugins_\new_cheats\Project1\Release\custom_cheats.exp
^C:\DEV\__REPOSITORY__\_h3era_Plugins_\new_cheats\Project1\Project1.vcxproj
C:\DEV\__REPOSITORY__\_h3era_Plugins_\new_cheats\Project1\Release\custom_cheats.lib
C:\DEV\__REPOSITORY__\_h3era_Plugins_\new_cheats\Project1\Release\custom_cheats.exp
^C:\DEV\__REPOSITORY__\_h3era_Plugins_\new_cheats\Project1\Project1.vcxproj
C:\DEV\__REPOSITORY__\_h3era_Plugins_\new_cheats\Project1\Release\custom_cheats.lib
C:\DEV\__REPOSITORY__\_h3era_Plugins_\new_cheats\Project1\Release\custom_cheats.exp
^C:\DEV\__REPOSITORY__\_h3era_Plugins_\new_cheats\Project1\Project1.vcxproj
C:\DEV\__REPOSITORY__\_h3era_Plugins_\new_cheats\Project1\Release\custom_cheats.lib
C:\DEV\__REPOSITORY__\_h3era_Plugins_\new_cheats\Project1\Release\custom_cheats.exp
^C:\DEV\__REPOSITORY__\_h3era_Plugins_\new_cheats\Project1\Project1.vcxproj
C:\DEV\__REPOSITORY__\_h3era_Plugins_\new_cheats\Project1\Release\custom_cheats.lib
C:\DEV\__REPOSITORY__\_h3era_Plugins_\new_cheats\Project1\Release\custom_cheats.exp
^C:\DEV\__REPOSITORY__\_h3era_Plugins_\new_cheats\Project1\Project1.vcxproj
C:\DEV\__REPOSITORY__\_h3era_Plugins_\new_cheats\Project1\Release\custom_cheats.lib
C:\DEV\__REPOSITORY__\_h3era_Plugins_\new_cheats\Project1\Release\custom_cheats.exp
^C:\DEV\__REPOSITORY__\_h3era_Plugins_\new_cheats\Project1\Project1.vcxproj
C:\DEV\__REPOSITORY__\_h3era_Plugins_\new_cheats\Project1\Release\custom_cheats.lib
C:\DEV\__REPOSITORY__\_h3era_Plugins_\new_cheats\Project1\Release\custom_cheats.exp
^C:\DEV\__REPOSITORY__\_h3era_Plugins_\new_cheats\Project1\Project1.vcxproj
C:\DEV\__REPOSITORY__\_h3era_Plugins_\new_cheats\Project1\Release\custom_cheats.lib
C:\DEV\__REPOSITORY__\_h3era_Plugins_\new_cheats\Project1\Release\custom_cheats.exp
^C:\DEV\__REPOSITORY__\_h3era_Plugins_\new_cheats\Project1\Project1.vcxproj
C:\DEV\__REPOSITORY__\_h3era_Plugins_\new_cheats\Project1\Release\custom_cheats.lib
C:\DEV\__REPOSITORY__\_h3era_Plugins_\new_cheats\Project1\Release\custom_cheats.exp
^C:\DEV\__REPOSITORY__\_h3era_Plugins_\new_cheats\Project1\Project1.vcxproj
C:\DEV\__REPOSITORY__\_h3era_Plugins_\new_cheats\Project1\Release\custom_cheats.lib
C:\DEV\__REPOSITORY__\_h3era_Plugins_\new_cheats\Project1\Release\custom_cheats.exp
^C:\DEV\__REPOSITORY__\_h3era_Plugins_\new_cheats\Project1\Project1.vcxproj
C:\DEV\__REPOSITORY__\_h3era_Plugins_\new_cheats\Project1\Release\custom_cheats.lib
C:\DEV\__REPOSITORY__\_h3era_Plugins_\new_cheats\Project1\Release\custom_cheats.exp
^C:\DEV\__REPOSITORY__\_h3era_Plugins_\new_cheats\Project1\Project1.vcxproj
C:\DEV\__REPOSITORY__\_h3era_Plugins_\new_cheats\Project1\Release\custom_cheats.lib
C:\DEV\__REPOSITORY__\_h3era_Plugins_\new_cheats\Project1\Release\custom_cheats.exp
^C:\DEV\__REPOSITORY__\_h3era_Plugins_\new_cheats\Project1\Project1.vcxproj
C:\DEV\__REPOSITORY__\_h3era_Plugins_\new_cheats\Project1\Release\custom_cheats.lib
C:\DEV\__REPOSITORY__\_h3era_Plugins_\new_cheats\Project1\Release\custom_cheats.exp
^C:\DEV\__REPOSITORY__\_h3era_Plugins_\new_cheats\Project1\Project1.vcxproj
C:\DEV\__REPOSITORY__\_h3era_Plugins_\new_cheats\Project1\Release\custom_cheats.lib
C:\DEV\__REPOSITORY__\_h3era_Plugins_\new_cheats\Project1\Release\custom_cheats.exp
^C:\DEV\__REPOSITORY__\_h3era_Plugins_\new_cheats\Project1\Project1.vcxproj
C:\DEV\__REPOSITORY__\_h3era_Plugins_\new_cheats\Project1\Release\custom_cheats.lib
C:\DEV\__REPOSITORY__\_h3era_Plugins_\new_cheats\Project1\Release\custom_cheats.exp
^C:\DEV\__REPOSITORY__\_h3era_Plugins_\new_cheats\Project1\Project1.vcxproj
C:\DEV\__REPOSITORY__\_h3era_Plugins_\new_cheats\Project1\Release\custom_cheats.lib
C:\DEV\__REPOSITORY__\_h3era_Plugins_\new_cheats\Project1\Release\custom_cheats.exp
^C:\DEV\__REPOSITORY__\_h3era_Plugins_\new_cheats\Project1\Project1.vcxproj
C:\DEV\__REPOSITORY__\_h3era_Plugins_\new_cheats\Project1\Release\custom_cheats.lib
C:\DEV\__REPOSITORY__\_h3era_Plugins_\new_cheats\Project1\Release\custom_cheats.exp
^C:\DEV\__REPOSITORY__\_h3era_Plugins_\new_cheats\Project1\Project1.vcxproj
C:\DEV\__REPOSITORY__\_h3era_Plugins_\new_cheats\Project1\Release\custom_cheats.lib
C:\DEV\__REPOSITORY__\_h3era_Plugins_\new_cheats\Project1\Release\custom_cheats.exp
^C:\DEV\__REPOSITORY__\_h3era_Plugins_\new_cheats\Project1\Project1.vcxproj
C:\DEV\__REPOSITORY__\_h3era_Plugins_\new_cheats\Project1\Release\custom_cheats.lib
C:\DEV\__REPOSITORY__\_h3era_Plugins_\new_cheats\Project1\Release\custom_cheats.exp
^C:\DEV\__REPOSITORY__\_h3era_Plugins_\new_cheats\Project1\Project1.vcxproj
C:\DEV\__REPOSITORY__\_h3era_Plugins_\new_cheats\Project1\Release\custom_cheats.lib
C:\DEV\__REPOSITORY__\_h3era_Plugins_\new_cheats\Project1\Release\custom_cheats.exp
^C:\DEV\__REPOSITORY__\_h3era_Plugins_\new_cheats\Project1\Project1.vcxproj
C:\DEV\__REPOSITORY__\_h3era_Plugins_\new_cheats\Project1\Release\custom_cheats.lib
C:\DEV\__REPOSITORY__\_h3era_Plugins_\new_cheats\Project1\Release\custom_cheats.exp
^C:\DEV\__REPOSITORY__\_h3era_Plugins_\new_cheats\Project1\Project1.vcxproj
C:\DEV\__REPOSITORY__\_h3era_Plugins_\new_cheats\Project1\Release\custom_cheats.lib
C:\DEV\__REPOSITORY__\_h3era_Plugins_\new_cheats\Project1\Release\custom_cheats.exp
^C:\DEV\__REPOSITORY__\_h3era_Plugins_\new_cheats\Project1\Project1.vcxproj
C:\DEV\__REPOSITORY__\_h3era_Plugins_\new_cheats\Project1\Release\custom_cheats.lib
C:\DEV\__REPOSITORY__\_h3era_Plugins_\new_cheats\Project1\Release\custom_cheats.exp
^C:\DEV\__REPOSITORY__\_h3era_Plugins_\new_cheats\Project1\Project1.vcxproj
C:\DEV\__REPOSITORY__\_h3era_Plugins_\new_cheats\Project1\Release\custom_cheats.lib
C:\DEV\__REPOSITORY__\_h3era_Plugins_\new_cheats\Project1\Release\custom_cheats.exp
^C:\DEV\__REPOSITORY__\_h3era_Plugins_\new_cheats\Project1\Project1.vcxproj
C:\DEV\__REPOSITORY__\_h3era_Plugins_\new_cheats\Project1\Release\custom_cheats.lib
C:\DEV\__REPOSITORY__\_h3era_Plugins_\new_cheats\Project1\Release\custom_cheats.exp
^C:\DEV\__REPOSITORY__\_h3era_Plugins_\new_cheats\Project1\Project1.vcxproj
C:\DEV\__REPOSITORY__\_h3era_Plugins_\new_cheats\Project1\Release\custom_cheats.lib
C:\DEV\__REPOSITORY__\_h3era_Plugins_\new_cheats\Project1\Release\custom_cheats.exp
^C:\DEV\__REPOSITORY__\_h3era_Plugins_\new_cheats\Project1\Project1.vcxproj
C:\DEV\__REPOSITORY__\_h3era_Plugins_\new_cheats\Project1\Release\custom_cheats.lib
C:\DEV\__REPOSITORY__\_h3era_Plugins_\new_cheats\Project1\Release\custom_cheats.exp
^C:\DEV\__REPOSITORY__\_h3era_Plugins_\new_cheats\Project1\Project1.vcxproj
C:\DEV\__REPOSITORY__\_h3era_Plugins_\new_cheats\Project1\Release\custom_cheats.lib
C:\DEV\__REPOSITORY__\_h3era_Plugins_\new_cheats\Project1\Release\custom_cheats.exp
^C:\DEV\__REPOSITORY__\_h3era_Plugins_\new_cheats\Project1\Project1.vcxproj
C:\DEV\__REPOSITORY__\_h3era_Plugins_\new_cheats\Project1\Release\custom_cheats.lib
C:\DEV\__REPOSITORY__\_h3era_Plugins_\new_cheats\Project1\Release\custom_cheats.exp
^C:\DEV\__REPOSITORY__\_h3era_Plugins_\new_cheats\Project1\Project1.vcxproj
C:\DEV\__REPOSITORY__\_h3era_Plugins_\new_cheats\Project1\Release\custom_cheats.lib
C:\DEV\__REPOSITORY__\_h3era_Plugins_\new_cheats\Project1\Release\custom_cheats.exp
^C:\DEV\__REPOSITORY__\_h3era_Plugins_\new_cheats\Project1\Project1.vcxproj
C:\DEV\__REPOSITORY__\_h3era_Plugins_\new_cheats\Project1\Release\custom_cheats.lib
C:\DEV\__REPOSITORY__\_h3era_Plugins_\new_cheats\Project1\Release\custom_cheats.exp
^C:\DEV\__REPOSITORY__\_h3era_Plugins_\new_cheats\Project1\Project1.vcxproj
C:\DEV\__REPOSITORY__\_h3era_Plugins_\new_cheats\Project1\Release\custom_cheats.lib
C:\DEV\__REPOSITORY__\_h3era_Plugins_\new_cheats\Project1\Release\custom_cheats.exp
^C:\DEV\__REPOSITORY__\_h3era_Plugins_\new_cheats\Project1\Project1.vcxproj
C:\DEV\__REPOSITORY__\_h3era_Plugins_\new_cheats\Project1\Release\custom_cheats.lib
C:\DEV\__REPOSITORY__\_h3era_Plugins_\new_cheats\Project1\Release\custom_cheats.exp
^C:\DEV\__REPOSITORY__\_h3era_Plugins_\new_cheats\Project1\Project1.vcxproj
C:\DEV\__REPOSITORY__\_h3era_Plugins_\new_cheats\Project1\Release\custom_cheats.lib
C:\DEV\__REPOSITORY__\_h3era_Plugins_\new_cheats\Project1\Release\custom_cheats.exp
^C:\DEV\__REPOSITORY__\_h3era_Plugins_\new_cheats\Project1\Project1.vcxproj
C:\DEV\__REPOSITORY__\_h3era_Plugins_\new_cheats\Project1\Release\custom_cheats.lib
C:\DEV\__REPOSITORY__\_h3era_Plugins_\new_cheats\Project1\Release\custom_cheats.exp
^C:\DEV\__REPOSITORY__\_h3era_Plugins_\new_cheats\Project1\Project1.vcxproj
C:\DEV\__REPOSITORY__\_h3era_Plugins_\new_cheats\Project1\Release\custom_cheats.lib
C:\DEV\__REPOSITORY__\_h3era_Plugins_\new_cheats\Project1\Release\custom_cheats.exp
^C:\DEV\__REPOSITORY__\_h3era_Plugins_\new_cheats\Project1\Project1.vcxproj
C:\DEV\__REPOSITORY__\_h3era_Plugins_\new_cheats\Project1\Release\custom_cheats.lib
C:\DEV\__REPOSITORY__\_h3era_Plugins_\new_cheats\Project1\Release\custom_cheats.exp
^C:\DEV\__REPOSITORY__\_h3era_Plugins_\new_cheats\Project1\Project1.vcxproj
C:\DEV\__REPOSITORY__\_h3era_Plugins_\new_cheats\Project1\Release\custom_cheats.lib
C:\DEV\__REPOSITORY__\_h3era_Plugins_\new_cheats\Project1\Release\custom_cheats.exp
^C:\DEV\__REPOSITORY__\_h3era_Plugins_\new_cheats\Project1\Project1.vcxproj
C:\DEV\__REPOSITORY__\_h3era_Plugins_\new_cheats\Project1\Release\custom_cheats.lib
C:\DEV\__REPOSITORY__\_h3era_Plugins_\new_cheats\Project1\Release\custom_cheats.exp
^C:\DEV\__REPOSITORY__\_h3era_Plugins_\new_cheats\Project1\Project1.vcxproj
C:\DEV\__REPOSITORY__\_h3era_Plugins_\new_cheats\Project1\Release\custom_cheats.lib
C:\DEV\__REPOSITORY__\_h3era_Plugins_\new_cheats\Project1\Release\custom_cheats.exp
^C:\DEV\__REPOSITORY__\_h3era_Plugins_\new_cheats\Project1\Project1.vcxproj
C:\DEV\__REPOSITORY__\_h3era_Plugins_\new_cheats\Project1\Release\custom_cheats.lib
C:\DEV\__REPOSITORY__\_h3era_Plugins_\new_cheats\Project1\Release\custom_cheats.exp
^C:\DEV\__REPOSITORY__\_h3era_Plugins_\new_cheats\Project1\Project1.vcxproj
C:\DEV\__REPOSITORY__\_h3era_Plugins_\new_cheats\Project1\Release\custom_cheats.lib
C:\DEV\__REPOSITORY__\_h3era_Plugins_\new_cheats\Project1\Release\custom_cheats.exp
^C:\DEV\__REPOSITORY__\_h3era_Plugins_\new_cheats\Project1\Project1.vcxproj
C:\DEV\__REPOSITORY__\_h3era_Plugins_\new_cheats\Project1\Release\custom_cheats.lib
C:\DEV\__REPOSITORY__\_h3era_Plugins_\new_cheats\Project1\Release\custom_cheats.exp
^C:\DEV\__REPOSITORY__\_h3era_Plugins_\new_cheats\Project1\Project1.vcxproj
C:\DEV\__REPOSITORY__\_h3era_Plugins_\new_cheats\Project1\Release\custom_cheats.lib
C:\DEV\__REPOSITORY__\_h3era_Plugins_\new_cheats\Project1\Release\custom_cheats.exp
^C:\DEV\__REPOSITORY__\_h3era_Plugins_\new_cheats\Project1\Project1.vcxproj
C:\DEV\__REPOSITORY__\_h3era_Plugins_\new_cheats\Project1\Release\custom_cheats.lib
C:\DEV\__REPOSITORY__\_h3era_Plugins_\new_cheats\Project1\Release\custom_cheats.exp
^C:\DEV\__REPOSITORY__\_h3era_Plugins_\new_cheats\Project1\Project1.vcxproj
C:\DEV\__REPOSITORY__\_h3era_Plugins_\new_cheats\Project1\Release\custom_cheats.lib
C:\DEV\__REPOSITORY__\_h3era_Plugins_\new_cheats\Project1\Release\custom_cheats.exp
^C:\DEV\__REPOSITORY__\_h3era_Plugins_\new_cheats\Project1\Project1.vcxproj
C:\DEV\__REPOSITORY__\_h3era_Plugins_\new_cheats\Project1\Release\custom_cheats.lib
C:\DEV\__REPOSITORY__\_h3era_Plugins_\new_cheats\Project1\Release\custom_cheats.exp
^C:\DEV\__REPOSITORY__\_h3era_Plugins_\new_cheats\Project1\Project1.vcxproj
C:\DEV\__REPOSITORY__\_h3era_Plugins_\new_cheats\Project1\Release\custom_cheats.lib
C:\DEV\__REPOSITORY__\_h3era_Plugins_\new_cheats\Project1\Release\custom_cheats.exp
^C:\DEV\__REPOSITORY__\_h3era_Plugins_\new_cheats\Project1\Project1.vcxproj
C:\DEV\__REPOSITORY__\_h3era_Plugins_\new_cheats\Project1\Release\custom_cheats.lib
C:\DEV\__REPOSITORY__\_h3era_Plugins_\new_cheats\Project1\Release\custom_cheats.exp
^C:\DEV\__REPOSITORY__\_h3era_Plugins_\new_cheats\Project1\Project1.vcxproj
C:\DEV\__REPOSITORY__\_h3era_Plugins_\new_cheats\Project1\Release\custom_cheats.lib
C:\DEV\__REPOSITORY__\_h3era_Plugins_\new_cheats\Project1\Release\custom_cheats.exp
^C:\DEV\__REPOSITORY__\_h3era_Plugins_\new_cheats\Project1\Project1.vcxproj
C:\DEV\__REPOSITORY__\_h3era_Plugins_\new_cheats\Project1\Release\custom_cheats.lib
C:\DEV\__REPOSITORY__\_h3era_Plugins_\new_cheats\Project1\Release\custom_cheats.exp
^C:\DEV\__REPOSITORY__\_h3era_Plugins_\new_cheats\Project1\Project1.vcxproj
C:\DEV\__REPOSITORY__\_h3era_Plugins_\new_cheats\Project1\Release\custom_cheats.lib
C:\DEV\__REPOSITORY__\_h3era_Plugins_\new_cheats\Project1\Release\custom_cheats.exp
^C:\DEV\__REPOSITORY__\_h3era_Plugins_\new_cheats\Project1\Project1.vcxproj
C:\DEV\__REPOSITORY__\_h3era_Plugins_\new_cheats\Project1\Release\custom_cheats.lib
C:\DEV\__REPOSITORY__\_h3era_Plugins_\new_cheats\Project1\Release\custom_cheats.exp
^C:\DEV\__REPOSITORY__\_h3era_Plugins_\new_cheats\Project1\Project1.vcxproj
C:\DEV\__REPOSITORY__\_h3era_Plugins_\new_cheats\Project1\Release\custom_cheats.lib
C:\DEV\__REPOSITORY__\_h3era_Plugins_\new_cheats\Project1\Release\custom_cheats.exp
^C:\DEV\__REPOSITORY__\_h3era_Plugins_\new_cheats\Project1\Project1.vcxproj
C:\DEV\__REPOSITORY__\_h3era_Plugins_\new_cheats\Project1\Release\custom_cheats.lib
C:\DEV\__REPOSITORY__\_h3era_Plugins_\new_cheats\Project1\Release\custom_cheats.exp
^C:\DEV\__REPOSITORY__\_h3era_Plugins_\new_cheats\Project1\Project1.vcxproj
C:\DEV\__REPOSITORY__\_h3era_Plugins_\new_cheats\Project1\Release\custom_cheats.lib
C:\DEV\__REPOSITORY__\_h3era_Plugins_\new_cheats\Project1\Release\custom_cheats.exp
^C:\DEV\__REPOSITORY__\_h3era_Plugins_\new_cheats\Project1\Project1.vcxproj
C:\DEV\__REPOSITORY__\_h3era_Plugins_\new_cheats\Project1\Release\custom_cheats.lib
C:\DEV\__REPOSITORY__\_h3era_Plugins_\new_cheats\Project1\Release\custom_cheats.exp
^C:\DEV\__REPOSITORY__\_h3era_Plugins_\new_cheats\Project1\Project1.vcxproj
C:\DEV\__REPOSITORY__\_h3era_Plugins_\new_cheats\Project1\Release\custom_cheats.lib
C:\DEV\__REPOSITORY__\_h3era_Plugins_\new_cheats\Project1\Release\custom_cheats.exp
^C:\DEV\__REPOSITORY__\_h3era_Plugins_\new_cheats\Project1\Project1.vcxproj
C:\DEV\__REPOSITORY__\_h3era_Plugins_\new_cheats\Project1\Release\custom_cheats.lib
C:\DEV\__REPOSITORY__\_h3era_Plugins_\new_cheats\Project1\Release\custom_cheats.exp
^C:\DEV\__REPOSITORY__\_h3era_Plugins_\new_cheats\Project1\Project1.vcxproj
C:\DEV\__REPOSITORY__\_h3era_Plugins_\new_cheats\Project1\Release\custom_cheats.lib
C:\DEV\__REPOSITORY__\_h3era_Plugins_\new_cheats\Project1\Release\custom_cheats.exp
^C:\DEV\__REPOSITORY__\_h3era_Plugins_\new_cheats\Project1\Project1.vcxproj
C:\DEV\__REPOSITORY__\_h3era_Plugins_\new_cheats\Project1\Release\custom_cheats.lib
C:\DEV\__REPOSITORY__\_h3era_Plugins_\new_cheats\Project1\Release\custom_cheats.exp
^C:\DEV\__REPOSITORY__\_h3era_Plugins_\new_cheats\Project1\Project1.vcxproj
C:\DEV\__REPOSITORY__\_h3era_Plugins_\new_cheats\Project1\Release\custom_cheats.lib
C:\DEV\__REPOSITORY__\_h3era_Plugins_\new_cheats\Project1\Release\custom_cheats.exp
^C:\DEV\__REPOSITORY__\_h3era_Plugins_\new_cheats\Project1\Project1.vcxproj
C:\DEV\__REPOSITORY__\_h3era_Plugins_\new_cheats\Project1\Release\custom_cheats.lib
C:\DEV\__REPOSITORY__\_h3era_Plugins_\new_cheats\Project1\Release\custom_cheats.exp
^C:\DEV\__REPOSITORY__\_h3era_Plugins_\new_cheats\Project1\Project1.vcxproj
C:\DEV\__REPOSITORY__\_h3era_Plugins_\new_cheats\Project1\Release\custom_cheats.lib
C:\DEV\__REPOSITORY__\_h3era_Plugins_\new_cheats\Project1\Release\custom_cheats.exp
^C:\DEV\__REPOSITORY__\_h3era_Plugins_\new_cheats\Project1\Project1.vcxproj
C:\DEV\__REPOSITORY__\_h3era_Plugins_\new_cheats\Project1\Release\custom_cheats.lib
C:\DEV\__REPOSITORY__\_h3era_Plugins_\new_cheats\Project1\Release\custom_cheats.exp
^C:\DEV\__REPOSITORY__\_h3era_Plugins_\new_cheats\Project1\Project1.vcxproj
C:\DEV\__REPOSITORY__\_h3era_Plugins_\new_cheats\Project1\Release\custom_cheats.lib
C:\DEV\__REPOSITORY__\_h3era_Plugins_\new_cheats\Project1\Release\custom_cheats.exp
^C:\DEV\__REPOSITORY__\_h3era_Plugins_\new_cheats\Project1\Project1.vcxproj
C:\DEV\__REPOSITORY__\_h3era_Plugins_\new_cheats\Project1\Release\custom_cheats.lib
C:\DEV\__REPOSITORY__\_h3era_Plugins_\new_cheats\Project1\Release\custom_cheats.exp
^C:\DEV\__REPOSITORY__\_h3era_Plugins_\new_cheats\Project1\Project1.vcxproj
C:\DEV\__REPOSITORY__\_h3era_Plugins_\new_cheats\Project1\Release\custom_cheats.lib
C:\DEV\__REPOSITORY__\_h3era_Plugins_\new_cheats\Project1\Release\custom_cheats.exp
^C:\DEV\__REPOSITORY__\_h3era_Plugins_\new_cheats\Project1\Project1.vcxproj
C:\DEV\__REPOSITORY__\_h3era_Plugins_\new_cheats\Project1\Release\custom_cheats.lib
C:\DEV\__REPOSITORY__\_h3era_Plugins_\new_cheats\Project1\Release\custom_cheats.exp
^C:\DEV\__REPOSITORY__\_h3era_Plugins_\new_cheats\Project1\Project1.vcxproj
C:\DEV\__REPOSITORY__\_h3era_Plugins_\new_cheats\Project1\Release\custom_cheats.lib
C:\DEV\__REPOSITORY__\_h3era_Plugins_\new_cheats\Project1\Release\custom_cheats.exp
^C:\DEV\__REPOSITORY__\_h3era_Plugins_\new_cheats\Project1\Project1.vcxproj
C:\DEV\__REPOSITORY__\_h3era_Plugins_\new_cheats\Project1\Release\custom_cheats.lib
C:\DEV\__REPOSITORY__\_h3era_Plugins_\new_cheats\Project1\Release\custom_cheats.exp
^C:\DEV\__REPOSITORY__\_h3era_Plugins_\new_cheats\Project1\Project1.vcxproj
C:\DEV\__REPOSITORY__\_h3era_Plugins_\new_cheats\Project1\Release\custom_cheats.lib
C:\DEV\__REPOSITORY__\_h3era_Plugins_\new_cheats\Project1\Release\custom_cheats.exp
^C:\DEV\__REPOSITORY__\_h3era_Plugins_\new_cheats\Project1\Project1.vcxproj
C:\DEV\__REPOSITORY__\_h3era_Plugins_\new_cheats\Project1\Release\custom_cheats.lib
C:\DEV\__REPOSITORY__\_h3era_Plugins_\new_cheats\Project1\Release\custom_cheats.exp
^C:\DEV\__REPOSITORY__\_h3era_Plugins_\new_cheats\Project1\Project1.vcxproj
C:\DEV\__REPOSITORY__\_h3era_Plugins_\new_cheats\Project1\Release\custom_cheats.lib
C:\DEV\__REPOSITORY__\_h3era_Plugins_\new_cheats\Project1\Release\custom_cheats.exp
^C:\DEV\__REPOSITORY__\_h3era_Plugins_\new_cheats\Project1\Project1.vcxproj
C:\DEV\__REPOSITORY__\_h3era_Plugins_\new_cheats\Project1\Release\custom_cheats.lib
C:\DEV\__REPOSITORY__\_h3era_Plugins_\new_cheats\Project1\Release\custom_cheats.exp
^C:\DEV\__REPOSITORY__\_h3era_Plugins_\new_cheats\Project1\Project1.vcxproj
C:\DEV\__REPOSITORY__\_h3era_Plugins_\new_cheats\Project1\Release\custom_cheats.lib
C:\DEV\__REPOSITORY__\_h3era_Plugins_\new_cheats\Project1\Release\custom_cheats.exp
^C:\DEV\__REPOSITORY__\_h3era_Plugins_\new_cheats\Project1\Project1.vcxproj
C:\DEV\__REPOSITORY__\_h3era_Plugins_\new_cheats\Project1\Release\custom_cheats.lib
C:\DEV\__REPOSITORY__\_h3era_Plugins_\new_cheats\Project1\Release\custom_cheats.exp
^C:\DEV\__REPOSITORY__\_h3era_Plugins_\new_cheats\Project1\Project1.vcxproj
C:\DEV\__REPOSITORY__\_h3era_Plugins_\new_cheats\Project1\Release\custom_cheats.lib
C:\DEV\__REPOSITORY__\_h3era_Plugins_\new_cheats\Project1\Release\custom_cheats.exp
^C:\DEV\__REPOSITORY__\_h3era_Plugins_\new_cheats\Project1\Project1.vcxproj
C:\DEV\__REPOSITORY__\_h3era_Plugins_\new_cheats\Project1\Release\custom_cheats.lib
C:\DEV\__REPOSITORY__\_h3era_Plugins_\new_cheats\Project1\Release\custom_cheats.exp
^C:\DEV\__REPOSITORY__\_h3era_Plugins_\new_cheats\Project1\Project1.vcxproj
C:\DEV\__REPOSITORY__\_h3era_Plugins_\new_cheats\Project1\Release\custom_cheats.lib
C:\DEV\__REPOSITORY__\_h3era_Plugins_\new_cheats\Project1\Release\custom_cheats.exp
^C:\DEV\__REPOSITORY__\_h3era_Plugins_\new_cheats\Project1\Project1.vcxproj
C:\DEV\__REPOSITORY__\_h3era_Plugins_\new_cheats\Project1\Release\custom_cheats.lib
C:\DEV\__REPOSITORY__\_h3era_Plugins_\new_cheats\Project1\Release\custom_cheats.exp
^C:\DEV\__REPOSITORY__\_h3era_Plugins_\new_cheats\Project1\Project1.vcxproj
C:\DEV\__REPOSITORY__\_h3era_Plugins_\new_cheats\Project1\Release\custom_cheats.lib
C:\DEV\__REPOSITORY__\_h3era_Plugins_\new_cheats\Project1\Release\custom_cheats.exp
^C:\DEV\__REPOSITORY__\_h3era_Plugins_\new_cheats\Project1\Project1.vcxproj
C:\DEV\__REPOSITORY__\_h3era_Plugins_\new_cheats\Project1\Release\custom_cheats.lib
C:\DEV\__REPOSITORY__\_h3era_Plugins_\new_cheats\Project1\Release\custom_cheats.exp
^C:\DEV\__REPOSITORY__\_h3era_Plugins_\new_cheats\Project1\Project1.vcxproj
C:\DEV\__REPOSITORY__\_h3era_Plugins_\new_cheats\Project1\Release\custom_cheats.lib
C:\DEV\__REPOSITORY__\_h3era_Plugins_\new_cheats\Project1\Release\custom_cheats.exp
^C:\DEV\__REPOSITORY__\_h3era_Plugins_\new_cheats\Project1\Project1.vcxproj
C:\DEV\__REPOSITORY__\_h3era_Plugins_\new_cheats\Project1\Release\custom_cheats.lib
C:\DEV\__REPOSITORY__\_h3era_Plugins_\new_cheats\Project1\Release\custom_cheats.exp
^C:\DEV\__REPOSITORY__\_h3era_Plugins_\new_cheats\Project1\Project1.vcxproj
C:\DEV\__REPOSITORY__\_h3era_Plugins_\new_cheats\Project1\Release\custom_cheats.lib
C:\DEV\__REPOSITORY__\_h3era_Plugins_\new_cheats\Project1\Release\custom_cheats.exp
^C:\DEV\__REPOSITORY__\_h3era_Plugins_\new_cheats\Project1\Project1.vcxproj
C:\DEV\__REPOSITORY__\_h3era_Plugins_\new_cheats\Project1\Release\custom_cheats.lib
C:\DEV\__REPOSITORY__\_h3era_Plugins_\new_cheats\Project1\Release\custom_cheats.exp
^C:\DEV\__REPOSITORY__\_h3era_Plugins_\new_cheats\Project1\Project1.vcxproj
C:\DEV\__REPOSITORY__\_h3era_Plugins_\new_cheats\Project1\Release\custom_cheats.lib
C:\DEV\__REPOSITORY__\_h3era_Plugins_\new_cheats\Project1\Release\custom_cheats.exp
^C:\DEV\__REPOSITORY__\_h3era_Plugins_\new_cheats\Project1\Project1.vcxproj
C:\DEV\__REPOSITORY__\_h3era_Plugins_\new_cheats\Project1\Release\custom_cheats.lib
C:\DEV\__REPOSITORY__\_h3era_Plugins_\new_cheats\Project1\Release\custom_cheats.exp
^C:\DEV\__REPOSITORY__\_h3era_Plugins_\new_cheats\Project1\Project1.vcxproj
C:\DEV\__REPOSITORY__\_h3era_Plugins_\new_cheats\Project1\Release\custom_cheats.lib
C:\DEV\__REPOSITORY__\_h3era_Plugins_\new_cheats\Project1\Release\custom_cheats.exp
^C:\DEV\__REPOSITORY__\_h3era_Plugins_\new_cheats\Project1\Project1.vcxproj
C:\DEV\__REPOSITORY__\_h3era_Plugins_\new_cheats\Project1\Release\custom_cheats.lib
C:\DEV\__REPOSITORY__\_h3era_Plugins_\new_cheats\Project1\Release\custom_cheats.exp
^C:\DEV\__REPOSITORY__\_h3era_Plugins_\new_cheats\Project1\Project1.vcxproj
C:\DEV\__REPOSITORY__\_h3era_Plugins_\new_cheats\Project1\Release\custom_cheats.lib
C:\DEV\__REPOSITORY__\_h3era_Plugins_\new_cheats\Project1\Release\custom_cheats.exp
^C:\DEV\__REPOSITORY__\_h3era_Plugins_\new_cheats\Project1\Project1.vcxproj
C:\DEV\__REPOSITORY__\_h3era_Plugins_\new_cheats\Project1\Release\custom_cheats.lib
C:\DEV\__REPOSITORY__\_h3era_Plugins_\new_cheats\Project1\Release\custom_cheats.exp
^C:\DEV\__REPOSITORY__\_h3era_Plugins_\new_cheats\Project1\Project1.vcxproj
C:\DEV\__REPOSITORY__\_h3era_Plugins_\new_cheats\Project1\Release\custom_cheats.lib
C:\DEV\__REPOSITORY__\_h3era_Plugins_\new_cheats\Project1\Release\custom_cheats.exp
^C:\DEV\__REPOSITORY__\_h3era_Plugins_\new_cheats\Project1\Project1.vcxproj
C:\DEV\__REPOSITORY__\_h3era_Plugins_\new_cheats\Project1\Release\custom_cheats.lib
C:\DEV\__REPOSITORY__\_h3era_Plugins_\new_cheats\Project1\Release\custom_cheats.exp
^C:\DEV\__REPOSITORY__\_h3era_Plugins_\new_cheats\Project1\Project1.vcxproj
C:\DEV\__REPOSITORY__\_h3era_Plugins_\new_cheats\Project1\Release\custom_cheats.lib
C:\DEV\__REPOSITORY__\_h3era_Plugins_\new_cheats\Project1\Release\custom_cheats.exp
^C:\DEV\__REPOSITORY__\_h3era_Plugins_\new_cheats\Project1\Project1.vcxproj
C:\DEV\__REPOSITORY__\_h3era_Plugins_\new_cheats\Project1\Release\custom_cheats.lib
C:\DEV\__REPOSITORY__\_h3era_Plugins_\new_cheats\Project1\Release\custom_cheats.exp
^C:\DEV\__REPOSITORY__\_h3era_Plugins_\new_cheats\Project1\Project1.vcxproj
C:\DEV\__REPOSITORY__\_h3era_Plugins_\new_cheats\Project1\Release\custom_cheats.lib
C:\DEV\__REPOSITORY__\_h3era_Plugins_\new_cheats\Project1\Release\custom_cheats.exp
^C:\DEV\__REPOSITORY__\_h3era_Plugins_\new_cheats\Project1\Project1.vcxproj
C:\DEV\__REPOSITORY__\_h3era_Plugins_\new_cheats\Project1\Release\custom_cheats.lib
C:\DEV\__REPOSITORY__\_h3era_Plugins_\new_cheats\Project1\Release\custom_cheats.exp
^C:\DEV\__REPOSITORY__\_h3era_Plugins_\new_cheats\Project1\Project1.vcxproj
C:\DEV\__REPOSITORY__\_h3era_Plugins_\new_cheats\Project1\Release\custom_cheats.lib
C:\DEV\__REPOSITORY__\_h3era_Plugins_\new_cheats\Project1\Release\custom_cheats.exp
^C:\DEV\__REPOSITORY__\_h3era_Plugins_\new_cheats\Project1\Project1.vcxproj
C:\DEV\__REPOSITORY__\_h3era_Plugins_\new_cheats\Project1\Release\custom_cheats.lib
C:\DEV\__REPOSITORY__\_h3era_Plugins_\new_cheats\Project1\Release\custom_cheats.exp
^C:\DEV\__REPOSITORY__\_h3era_Plugins_\new_cheats\Project1\Project1.vcxproj
C:\DEV\__REPOSITORY__\_h3era_Plugins_\new_cheats\Project1\Release\custom_cheats.lib
C:\DEV\__REPOSITORY__\_h3era_Plugins_\new_cheats\Project1\Release\custom_cheats.exp
^C:\DEV\__REPOSITORY__\_h3era_Plugins_\new_cheats\Project1\Project1.vcxproj
C:\DEV\__REPOSITORY__\_h3era_Plugins_\new_cheats\Project1\Release\custom_cheats.lib
C:\DEV\__REPOSITORY__\_h3era_Plugins_\new_cheats\Project1\Release\custom_cheats.exp
^C:\DEV\__REPOSITORY__\_h3era_Plugins_\new_cheats\Project1\Project1.vcxproj
C:\DEV\__REPOSITORY__\_h3era_Plugins_\new_cheats\Project1\Release\custom_cheats.lib
C:\DEV\__REPOSITORY__\_h3era_Plugins_\new_cheats\Project1\Release\custom_cheats.exp
^C:\DEV\__REPOSITORY__\_h3era_Plugins_\new_cheats\Project1\Project1.vcxproj
C:\DEV\__REPOSITORY__\_h3era_Plugins_\new_cheats\Project1\Release\custom_cheats.lib
C:\DEV\__REPOSITORY__\_h3era_Plugins_\new_cheats\Project1\Release\custom_cheats.exp
^C:\DEV\__REPOSITORY__\_h3era_Plugins_\new_cheats\Project1\Project1.vcxproj
C:\DEV\__REPOSITORY__\_h3era_Plugins_\new_cheats\Project1\Release\custom_cheats.lib
C:\DEV\__REPOSITORY__\_h3era_Plugins_\new_cheats\Project1\Release\custom_cheats.exp
^C:\DEV\__REPOSITORY__\_h3era_Plugins_\new_cheats\Project1\Project1.vcxproj
C:\DEV\__REPOSITORY__\_h3era_Plugins_\new_cheats\Project1\Release\custom_cheats.lib
C:\DEV\__REPOSITORY__\_h3era_Plugins_\new_cheats\Project1\Release\custom_cheats.exp
^C:\DEV\__REPOSITORY__\_h3era_Plugins_\new_cheats\Project1\Project1.vcxproj
C:\DEV\__REPOSITORY__\_h3era_Plugins_\new_cheats\Project1\Release\custom_cheats.lib
C:\DEV\__REPOSITORY__\_h3era_Plugins_\new_cheats\Project1\Release\custom_cheats.exp
^C:\DEV\__REPOSITORY__\_h3era_Plugins_\new_cheats\Project1\Project1.vcxproj
C:\DEV\__REPOSITORY__\_h3era_Plugins_\new_cheats\Project1\Release\custom_cheats.lib
C:\DEV\__REPOSITORY__\_h3era_Plugins_\new_cheats\Project1\Release\custom_cheats.exp
^C:\DEV\__REPOSITORY__\_h3era_Plugins_\new_cheats\Project1\Project1.vcxproj
C:\DEV\__REPOSITORY__\_h3era_Plugins_\new_cheats\Project1\Release\custom_cheats.lib
C:\DEV\__REPOSITORY__\_h3era_Plugins_\new_cheats\Project1\Release\custom_cheats.exp
^C:\DEV\__REPOSITORY__\_h3era_Plugins_\new_cheats\Project1\Project1.vcxproj
C:\DEV\__REPOSITORY__\_h3era_Plugins_\new_cheats\Project1\Release\custom_cheats.lib
C:\DEV\__REPOSITORY__\_h3era_Plugins_\new_cheats\Project1\Release\custom_cheats.exp
^C:\DEV\__REPOSITORY__\_h3era_Plugins_\new_cheats\Project1\Project1.vcxproj
C:\DEV\__REPOSITORY__\_h3era_Plugins_\new_cheats\Project1\Release\custom_cheats.lib
C:\DEV\__REPOSITORY__\_h3era_Plugins_\new_cheats\Project1\Release\custom_cheats.exp
^C:\DEV\__REPOSITORY__\_h3era_Plugins_\new_cheats\Project1\Project1.vcxproj
C:\DEV\__REPOSITORY__\_h3era_Plugins_\new_cheats\Project1\Release\custom_cheats.lib
C:\DEV\__REPOSITORY__\_h3era_Plugins_\new_cheats\Project1\Release\custom_cheats.exp
^C:\DEV\__REPOSITORY__\_h3era_Plugins_\new_cheats\Project1\Project1.vcxproj
C:\DEV\__REPOSITORY__\_h3era_Plugins_\new_cheats\Project1\Release\custom_cheats.lib
C:\DEV\__REPOSITORY__\_h3era_Plugins_\new_cheats\Project1\Release\custom_cheats.exp
^C:\DEV\__REPOSITORY__\_h3era_Plugins_\new_cheats\Project1\Project1.vcxproj
C:\DEV\__REPOSITORY__\_h3era_Plugins_\new_cheats\Project1\Release\custom_cheats.lib
C:\DEV\__REPOSITORY__\_h3era_Plugins_\new_cheats\Project1\Release\custom_cheats.exp
^C:\DEV\__REPOSITORY__\_h3era_Plugins_\new_cheats\Project1\Project1.vcxproj
C:\DEV\__REPOSITORY__\_h3era_Plugins_\new_cheats\Project1\Release\custom_cheats.lib
C:\DEV\__REPOSITORY__\_h3era_Plugins_\new_cheats\Project1\Release\custom_cheats.exp
^C:\DEV\__REPOSITORY__\_h3era_Plugins_\new_cheats\Project1\Project1.vcxproj
C:\DEV\__REPOSITORY__\_h3era_Plugins_\new_cheats\Project1\Release\custom_cheats.lib
C:\DEV\__REPOSITORY__\_h3era_Plugins_\new_cheats\Project1\Release\custom_cheats.exp
^C:\DEV\__REPOSITORY__\_h3era_Plugins_\new_cheats\Project1\Project1.vcxproj
C:\DEV\__REPOSITORY__\_h3era_Plugins_\new_cheats\Project1\Release\custom_cheats.lib
C:\DEV\__REPOSITORY__\_h3era_Plugins_\new_cheats\Project1\Release\custom_cheats.exp
^C:\DEV\__REPOSITORY__\_h3era_Plugins_\new_cheats\Project1\Project1.vcxproj
C:\DEV\__REPOSITORY__\_h3era_Plugins_\new_cheats\Project1\Release\custom_cheats.lib
C:\DEV\__REPOSITORY__\_h3era_Plugins_\new_cheats\Project1\Release\custom_cheats.exp
^C:\DEV\__REPOSITORY__\_h3era_Plugins_\new_cheats\Project1\Project1.vcxproj
C:\DEV\__REPOSITORY__\_h3era_Plugins_\new_cheats\Project1\Release\custom_cheats.lib
C:\DEV\__REPOSITORY__\_h3era_Plugins_\new_cheats\Project1\Release\custom_cheats.exp
^C:\DEV\__REPOSITORY__\_h3era_Plugins_\new_cheats\Project1\Project1.vcxproj
C:\DEV\__REPOSITORY__\_h3era_Plugins_\new_cheats\Project1\Release\custom_cheats.lib
C:\DEV\__REPOSITORY__\_h3era_Plugins_\new_cheats\Project1\Release\custom_cheats.exp
^C:\DEV\__REPOSITORY__\_h3era_Plugins_\new_cheats\Project1\Project1.vcxproj
C:\DEV\__REPOSITORY__\_h3era_Plugins_\new_cheats\Project1\Release\custom_cheats.lib
C:\DEV\__REPOSITORY__\_h3era_Plugins_\new_cheats\Project1\Release\custom_cheats.exp
^C:\DEV\__REPOSITORY__\_h3era_Plugins_\new_cheats\Project1\Project1.vcxproj
C:\DEV\__REPOSITORY__\_h3era_Plugins_\new_cheats\Project1\Release\custom_cheats.lib
C:\DEV\__REPOSITORY__\_h3era_Plugins_\new_cheats\Project1\Release\custom_cheats.exp
^C:\DEV\__REPOSITORY__\_h3era_Plugins_\new_cheats\Project1\Project1.vcxproj
C:\DEV\__REPOSITORY__\_h3era_Plugins_\new_cheats\Project1\Release\custom_cheats.lib
C:\DEV\__REPOSITORY__\_h3era_Plugins_\new_cheats\Project1\Release\custom_cheats.exp
^C:\DEV\__REPOSITORY__\_h3era_Plugins_\new_cheats\Project1\Project1.vcxproj
C:\DEV\__REPOSITORY__\_h3era_Plugins_\new_cheats\Project1\Release\custom_cheats.lib
C:\DEV\__REPOSITORY__\_h3era_Plugins_\new_cheats\Project1\Release\custom_cheats.exp
^C:\DEV\__REPOSITORY__\_h3era_Plugins_\new_cheats\Project1\Project1.vcxproj
C:\DEV\__REPOSITORY__\_h3era_Plugins_\new_cheats\Project1\Release\custom_cheats.lib
C:\DEV\__REPOSITORY__\_h3era_Plugins_\new_cheats\Project1\Release\custom_cheats.exp
^C:\DEV\__REPOSITORY__\_h3era_Plugins_\new_cheats\Project1\Project1.vcxproj
C:\DEV\__REPOSITORY__\_h3era_Plugins_\new_cheats\Project1\Release\custom_cheats.lib
C:\DEV\__REPOSITORY__\_h3era_Plugins_\new_cheats\Project1\Release\custom_cheats.exp
^C:\DEV\__REPOSITORY__\_h3era_Plugins_\new_cheats\Project1\Project1.vcxproj
C:\DEV\__REPOSITORY__\_h3era_Plugins_\new_cheats\Project1\Release\custom_cheats.lib
C:\DEV\__REPOSITORY__\_h3era_Plugins_\new_cheats\Project1\Release\custom_cheats.exp
