^C:\DEV\__REPOSITORY__\_h3era_Plugins_\Emerald3\emerald\emerald.vcxproj
C:\DEV\__REPOSITORY__\_h3era_Plugins_\Emerald3\Release\emerald3.1.lib
C:\DEV\__REPOSITORY__\_h3era_Plugins_\Emerald3\Release\emerald3.1.exp
^C:\DEV\__REPOSITORY__\_h3era_Plugins_\Emerald3\emerald\emerald.vcxproj
C:\DEV\__REPOSITORY__\_h3era_Plugins_\Emerald3\Release\emerald3.1.lib
C:\DEV\__REPOSITORY__\_h3era_Plugins_\Emerald3\Release\emerald3.1.exp
^C:\DEV\__REPOSITORY__\_h3era_Plugins_\Emerald3\emerald\emerald.vcxproj
C:\DEV\__REPOSITORY__\_h3era_Plugins_\Emerald3\Release\emerald3.1.lib
C:\DEV\__REPOSITORY__\_h3era_Plugins_\Emerald3\Release\emerald3.1.exp
^C:\DEV\__REPOSITORY__\_h3era_Plugins_\Emerald3\emerald\emerald.vcxproj
C:\DEV\__REPOSITORY__\_h3era_Plugins_\Emerald3\Release\emerald3.1.lib
C:\DEV\__REPOSITORY__\_h3era_Plugins_\Emerald3\Release\emerald3.1.exp
^C:\DEV\__REPOSITORY__\_h3era_Plugins_\Emerald3\emerald\emerald.vcxproj
C:\DEV\__REPOSITORY__\_h3era_Plugins_\Emerald3\Release\emerald3.1.lib
C:\DEV\__REPOSITORY__\_h3era_Plugins_\Emerald3\Release\emerald3.1.exp
^C:\DEV\__REPOSITORY__\_h3era_Plugins_\Emerald3\emerald\emerald.vcxproj
C:\DEV\__REPOSITORY__\_h3era_Plugins_\Emerald3\Release\emerald3.1.lib
C:\DEV\__REPOSITORY__\_h3era_Plugins_\Emerald3\Release\emerald3.1.exp
^C:\DEV\__REPOSITORY__\_h3era_Plugins_\Emerald3\emerald\emerald.vcxproj
C:\DEV\__REPOSITORY__\_h3era_Plugins_\Emerald3\Release\emerald3.1.lib
C:\DEV\__REPOSITORY__\_h3era_Plugins_\Emerald3\Release\emerald3.1.exp
^C:\DEV\__REPOSITORY__\_h3era_Plugins_\Emerald3\emerald\emerald.vcxproj
C:\DEV\__REPOSITORY__\_h3era_Plugins_\Emerald3\Release\emerald3.1.lib
C:\DEV\__REPOSITORY__\_h3era_Plugins_\Emerald3\Release\emerald3.1.exp
^C:\DEV\__REPOSITORY__\_h3era_Plugins_\Emerald3\emerald\emerald.vcxproj
C:\DEV\__REPOSITORY__\_h3era_Plugins_\Emerald3\Release\emerald3.1.lib
C:\DEV\__REPOSITORY__\_h3era_Plugins_\Emerald3\Release\emerald3.1.exp
^C:\DEV\__REPOSITORY__\_h3era_Plugins_\Emerald3\emerald\emerald.vcxproj
C:\DEV\__REPOSITORY__\_h3era_Plugins_\Emerald3\Release\emerald3.1.lib
C:\DEV\__REPOSITORY__\_h3era_Plugins_\Emerald3\Release\emerald3.1.exp
^C:\DEV\__REPOSITORY__\_h3era_Plugins_\Emerald3\emerald\emerald.vcxproj
C:\DEV\__REPOSITORY__\_h3era_Plugins_\Emerald3\Release\emerald3.1.lib
C:\DEV\__REPOSITORY__\_h3era_Plugins_\Emerald3\Release\emerald3.1.exp
^C:\DEV\__REPOSITORY__\_h3era_Plugins_\Emerald3\emerald\emerald.vcxproj
C:\DEV\__REPOSITORY__\_h3era_Plugins_\Emerald3\Release\emerald3.1.lib
C:\DEV\__REPOSITORY__\_h3era_Plugins_\Emerald3\Release\emerald3.1.exp
^C:\DEV\__REPOSITORY__\_h3era_Plugins_\Emerald3\emerald\emerald.vcxproj
C:\DEV\__REPOSITORY__\_h3era_Plugins_\Emerald3\Release\emerald3.1.lib
C:\DEV\__REPOSITORY__\_h3era_Plugins_\Emerald3\Release\emerald3.1.exp
^C:\DEV\__REPOSITORY__\_h3era_Plugins_\Emerald3\emerald\emerald.vcxproj
C:\DEV\__REPOSITORY__\_h3era_Plugins_\Emerald3\Release\emerald3.1.lib
C:\DEV\__REPOSITORY__\_h3era_Plugins_\Emerald3\Release\emerald3.1.exp
^C:\DEV\__REPOSITORY__\_h3era_Plugins_\Emerald3\emerald\emerald.vcxproj
C:\DEV\__REPOSITORY__\_h3era_Plugins_\Emerald3\Release\emerald3.1.lib
C:\DEV\__REPOSITORY__\_h3era_Plugins_\Emerald3\Release\emerald3.1.exp
^C:\DEV\__REPOSITORY__\_h3era_Plugins_\Emerald3\emerald\emerald.vcxproj
C:\DEV\__REPOSITORY__\_h3era_Plugins_\Emerald3\Release\emerald3.1.lib
C:\DEV\__REPOSITORY__\_h3era_Plugins_\Emerald3\Release\emerald3.1.exp
^C:\DEV\__REPOSITORY__\_h3era_Plugins_\Emerald3\emerald\emerald.vcxproj
C:\DEV\__REPOSITORY__\_h3era_Plugins_\Emerald3\Release\emerald3.1.lib
C:\DEV\__REPOSITORY__\_h3era_Plugins_\Emerald3\Release\emerald3.1.exp
^C:\DEV\__REPOSITORY__\_h3era_Plugins_\Emerald3\emerald\emerald.vcxproj
C:\DEV\__REPOSITORY__\_h3era_Plugins_\Emerald3\Release\emerald3.1.lib
C:\DEV\__REPOSITORY__\_h3era_Plugins_\Emerald3\Release\emerald3.1.exp
^C:\DEV\__REPOSITORY__\_h3era_Plugins_\Emerald3\emerald\emerald.vcxproj
C:\DEV\__REPOSITORY__\_h3era_Plugins_\Emerald3\Release\emerald3.1.lib
C:\DEV\__REPOSITORY__\_h3era_Plugins_\Emerald3\Release\emerald3.1.exp
^C:\DEV\__REPOSITORY__\_h3era_Plugins_\Emerald3\emerald\emerald.vcxproj
C:\DEV\__REPOSITORY__\_h3era_Plugins_\Emerald3\Release\emerald3.1.lib
C:\DEV\__REPOSITORY__\_h3era_Plugins_\Emerald3\Release\emerald3.1.exp
^C:\DEV\__REPOSITORY__\_h3era_Plugins_\Emerald3\emerald\emerald.vcxproj
C:\DEV\__REPOSITORY__\_h3era_Plugins_\Emerald3\Release\emerald3.1.lib
C:\DEV\__REPOSITORY__\_h3era_Plugins_\Emerald3\Release\emerald3.1.exp
^C:\DEV\__REPOSITORY__\_h3era_Plugins_\Emerald3\emerald\emerald.vcxproj
C:\DEV\__REPOSITORY__\_h3era_Plugins_\Emerald3\Release\emerald3.1.lib
C:\DEV\__REPOSITORY__\_h3era_Plugins_\Emerald3\Release\emerald3.1.exp
^C:\DEV\__REPOSITORY__\_h3era_Plugins_\Emerald3\emerald\emerald.vcxproj
C:\DEV\__REPOSITORY__\_h3era_Plugins_\Emerald3\Release\emerald3.1.lib
C:\DEV\__REPOSITORY__\_h3era_Plugins_\Emerald3\Release\emerald3.1.exp
^C:\DEV\__REPOSITORY__\_h3era_Plugins_\Emerald3\emerald\emerald.vcxproj
C:\DEV\__REPOSITORY__\_h3era_Plugins_\Emerald3\Release\emerald3.1.lib
C:\DEV\__REPOSITORY__\_h3era_Plugins_\Emerald3\Release\emerald3.1.exp
^C:\DEV\__REPOSITORY__\_h3era_Plugins_\Emerald3\emerald\emerald.vcxproj
C:\DEV\__REPOSITORY__\_h3era_Plugins_\Emerald3\Release\emerald3.1.lib
C:\DEV\__REPOSITORY__\_h3era_Plugins_\Emerald3\Release\emerald3.1.exp
^C:\DEV\__REPOSITORY__\_h3era_Plugins_\Emerald3\emerald\emerald.vcxproj
C:\DEV\__REPOSITORY__\_h3era_Plugins_\Emerald3\Release\emerald3.1.lib
C:\DEV\__REPOSITORY__\_h3era_Plugins_\Emerald3\Release\emerald3.1.exp
^C:\DEV\__REPOSITORY__\_h3era_Plugins_\Emerald3\emerald\emerald.vcxproj
C:\DEV\__REPOSITORY__\_h3era_Plugins_\Emerald3\Release\emerald3.1.lib
C:\DEV\__REPOSITORY__\_h3era_Plugins_\Emerald3\Release\emerald3.1.exp
^C:\DEV\__REPOSITORY__\_h3era_Plugins_\Emerald3\emerald\emerald.vcxproj
C:\DEV\__REPOSITORY__\_h3era_Plugins_\Emerald3\Release\emerald3_2.lib
C:\DEV\__REPOSITORY__\_h3era_Plugins_\Emerald3\Release\emerald3_2.exp
^C:\DEV\__REPOSITORY__\_h3era_Plugins_\Emerald3\emerald\emerald.vcxproj
C:\DEV\__REPOSITORY__\_h3era_Plugins_\Emerald3\Release\emerald3_2.lib
C:\DEV\__REPOSITORY__\_h3era_Plugins_\Emerald3\Release\emerald3_2.exp
